year,paper1
1,1
1,2
4,3
5,4
1,5
4,6
1,7
1,8
5,9
2,10
4,11
7,12
7,13
7,14
8,15
1,16
4,17
2,18
5,19
2,20
10,21
5,22
3,23
5,24
10,25
1,26
8,27
6,28
1,29
10,30
8,31
8,32
10,33
5,34
2,35
2,36
4,37
5,38
4,39
8,40
5,41
5,42
10,43
8,44
3,45
3,46
4,47
2,48
8,49
9,50
6,51
1,52
9,53
9,54
9,55
8,56
2,57
4,58
2,59
7,60
9,61
5,62
3,63
6,64
4,65
1,66
5,67
7,68
3,69
2,70
5,71
3,72
1,73
4,74
4,75
9,76
1,77
9,78
1,79
9,80
7,81
5,82
2,83
8,84
2,85
7,86
4,87
7,88
4,89
9,90
6,91
3,92
9,93
4,94
5,95
2,96
8,97
1,98
6,99
5,100
6,101
3,102
7,103
9,104
8,105
9,106
7,107
7,108
5,109
10,110
8,111
1,112
9,113
3,114
1,115
3,116
8,117
10,118
9,119
3,120
4,121
3,122
7,123
2,124
8,125
8,126
8,127
8,128
1,129
8,130
7,131
6,132
4,133
5,134
7,135
1,136
6,137
4,138
8,139
4,140
5,141
9,142
6,143
9,144
1,145
7,146
1,147
4,148
1,149
8,150
5,151
3,152
2,153
9,154
7,155
3,156
7,157
4,158
7,159
7,160
8,161
9,162
7,163
4,164
1,165
3,166
4,167
9,168
1,169
2,170
2,171
8,172
5,173
9,174
2,175
5,176
8,177
9,178
5,179
5,180
6,181
5,182
8,183
2,184
5,185
3,186
5,187
8,188
2,189
4,190
7,191
1,192
5,193
4,194
8,195
6,196
8,197
1,198
5,199
1,200
4,201
2,202
9,203
7,204
4,205
5,206
7,207
7,208
8,209
8,210
1,211
8,212
4,213
4,214
10,215
9,216
5,217
9,218
2,219
1,220
5,221
3,222
5,223
4,224
1,225
8,226
9,227
8,228
4,229
3,230
3,231
7,232
6,233
9,234
7,235
7,236
9,237
1,238
9,239
7,240
7,241
9,242
10,243
6,244
8,245
7,246
8,247
9,248
1,249
1,250
5,251
9,252
10,253
4,254
6,255
4,256
8,257
2,258
4,259
7,260
10,261
8,262
9,263
3,264
8,265
8,266
6,267
5,268
9,269
10,270
4,271
9,272
7,273
4,274
10,275
3,276
7,277
10,278
8,279
9,280
8,281
9,282
10,283
1,284
10,285
6,286
1,287
5,288
4,289
9,290
5,291
3,292
7,293
5,294
9,295
4,296
5,297
10,298
7,299
5,300
3,301
1,302
5,303
5,304
4,305
2,306
7,307
6,308
9,309
4,310
7,311
6,312
1,313
9,314
5,315
6,316
6,317
4,318
10,319
3,320
5,321
6,322
1,323
3,324
5,325
7,326
8,327
8,328
8,329
6,330
7,331
1,332
1,333
7,334
6,335
7,336
4,337
3,338
4,339
7,340
8,341
4,342
8,343
3,344
1,345
5,346
4,347
4,348
5,349
5,350
1,351
5,352
8,353
3,354
1,355
5,356
9,357
5,358
7,359
2,360
8,361
8,362
1,363
6,364
5,365
7,366
6,367
7,368
5,369
7,370
9,371
5,372
2,373
1,374
7,375
9,376
9,377
8,378
1,379
3,380
9,381
8,382
8,383
9,384
4,385
7,386
5,387
5,388
9,389
9,390
8,391
1,392
4,393
10,394
6,395
10,396
10,397
1,398
5,399
7,400
4,401
8,402
3,403
8,404
2,405
4,406
1,407
10,408
3,409
8,410
10,411
4,412
2,413
8,414
5,415
1,416
4,417
4,418
1,419
9,420
8,421
7,422
2,423
7,424
7,425
5,426
10,427
5,428
8,429
9,430
7,431
1,432
4,433
2,434
7,435
4,436
4,437
9,438
9,439
4,440
7,441
9,442
7,443
1,444
1,445
2,446
7,447
8,448
7,449
9,450
10,451
7,452
2,453
4,454
4,455
9,456
10,457
9,458
3,459
3,460
5,461
1,462
1,463
9,464
6,465
5,466
1,467
3,468
10,469
7,470
1,471
2,472
8,473
4,474
11,475
2,476
12,477
11,478
12,479
13,480
10,481
13,482
14,483
15,484
2,485
12,486
6,487
14,488
16,489
11,490
15,491
1,492
17,493
17,494
16,495
15,496
12,497
11,498
18,499
1,500
12,501
13,502
16,503
3,504
19,505
20,506
20,507
21,508
18,509
17,510
21,511
22,512
1,513
10,514
3,515
18,516
22,517
23,518
15,519
16,520
1,521
21,522
20,523
6,524
2,525
1,526
6,527
23,528
22,529
10,530
18,531
10,532
2,533
23,534
23,535
12,536
11,537
2,538
21,539
21,540
21,541
21,542
21,543
16,544
14,545
2,546
11,547
21,548
3,549
23,550
21,551
18,552
6,553
16,554
13,555
21,556
17,557
11,558
21,559
13,560
21,561
1,562
1,563
11,564
20,565
11,566
20,567
6,568
1,569
13,570
6,571
6,572
6,573
15,574
18,575
20,576
14,577
1,578
11,579
1,580
13,581
2,582
19,583
10,584
14,585
18,586
12,587
19,588
10,589
12,590
10,591
12,592
14,593
6,594
3,595
15,596
19,597
16,598
17,599
13,600
15,601
13,602
23,603
12,604
19,605
12,606
18,607
20,608
3,609
18,610
12,611
22,612
19,613
14,614
18,615
2,616
12,617
3,618
13,619
21,620
22,621
1,622
11,623
3,624
22,625
1,626
22,627
17,628
18,629
3,630
22,631
23,632
14,633
15,634
6,635
20,636
23,637
12,638
23,639
19,640
19,641
11,642
12,643
23,644
12,645
17,646
23,647
10,648
14,649
15,650
18,651
22,652
19,653
2,654
19,655
22,656
14,657
1,658
2,659
14,660
22,661
22,662
14,663
13,664
16,665
14,666
14,667
2,668
6,669
15,670
15,671
23,672
21,673
10,674
10,675
11,676
12,677
18,678
16,679
11,680
2,681
1,682
15,683
2,684
11,685
14,686
2,687
18,688
12,689
1,690
22,691
12,692
23,693
6,694
11,695
10,696
19,697
12,698
10,699
11,700
12,701
12,702
14,703
10,704
22,705
3,706
11,707
2,708
11,709
10,710
16,711
2,712
17,713
3,714
12,715
20,716
11,717
3,718
23,719
10,720
11,721
16,722
21,723
12,724
1,725
3,726
6,727
18,728
21,729
13,730
21,731
13,732
20,733
20,734
20,735
10,736
2,737
6,738
13,739
2,740
11,741
23,742
16,743
23,744
19,745
20,746
14,747
1,748
19,749
14,750
21,751
16,752
14,753
16,754
22,755
22,756
2,757
15,758
10,759
23,760
19,761
11,762
14,763
14,764
23,765
23,766
19,767
23,768
6,769
20,770
19,771
6,772
1,773
23,774
20,775
22,776
2,777
13,778
20,779
2,780
16,781
3,782
13,783
18,784
20,785
11,786
11,787
15,788
6,789
20,790
3,791
19,792
17,793
23,794
14,795
22,796
14,797
3,798
3,799
23,800
3,801
19,802
6,803
19,804
23,805
3,806
20,807
14,808
23,809
14,810
22,811
16,812
11,813
15,814
12,815
22,816
10,817
19,818
6,819
13,820
14,821
10,822
16,823
20,824
18,825
23,826
3,827
21,828
14,829
3,830
14,831
16,832
23,833
11,834
22,835
12,836
23,837
1,838
15,839
16,840
17,841
11,842
22,843
20,844
16,845
11,846
6,847
2,848
20,849
19,850
12,851
22,852
12,853
1,854
3,855
1,856
1,857
9,858
9,859
24,860
1,861
6,862
8,863
8,864
4,865
9,866
7,867
24,868
1,869
3,870
5,871
9,872
5,873
24,874
7,875
9,876
1,877
7,878
1,879
3,880
8,881
8,882
8,883
3,884
5,885
1,886
8,887
1,888
9,889
24,890
7,891
24,892
9,893
4,894
24,895
24,896
1,897
8,898
4,899
8,900
7,901
24,902
4,903
8,904
9,905
24,906
7,907
24,908
1,909
24,910
8,911
5,912
9,913
7,914
24,915
6,916
1,917
3,918
5,919
4,920
24,921
1,922
9,923
25,924
9,925
24,926
24,927
9,928
25,929
25,930
24,931
24,932
12,933
24,934
25,935
9,936
9,937
25,938
24,939
9,940
23,941
24,942
25,943
9,944
9,945
24,946
9,947
24,948
25,949
9,950
24,951
24,952
9,953
9,954
9,955
25,956
9,957
4,958
8,959
6,960
5,961
7,962
9,963
3,964
7,965
6,966
6,967
3,968
6,969
7,970
6,971
8,972
4,973
6,974
9,975
25,976
24,977
25,978
24,979
24,980
25,981
25,982
24,983
25,984
24,985
24,986
24,987
25,988
24,989
25,990
24,991
24,992
24,993
25,994
24,995
25,996
24,997
25,998
25,999
25,1000
25,1001
24,1002
25,1003
24,1004
25,1005
25,1006
24,1007
25,1008
27,1009
25,1010
25,1011
25,1012
25,1013
25,1014
24,1015
25,1016
25,1017
24,1018
25,1019
25,1020
25,1021
25,1022
24,1023
24,1024
25,1025
25,1026
24,1027
24,1028
24,1029
25,1030
24,1031
24,1032
25,1033
24,1034
24,1035
25,1036
25,1037
4,1038
25,1039
4,1040
9,1041
4,1042
25,1043
25,1044
9,1045
9,1046
5,1047
9,1048
9,1049
24,1050
4,1051
4,1052
4,1053
9,1054
24,1055
9,1056
9,1057
4,1058
24,1059
9,1060
9,1061
25,1062
5,1063
15,1064
17,1065
24,1066
24,1067
24,1068
24,1069
24,1070
24,1071
24,1072
24,1073
24,1074
7,1075
24,1076
24,1077
6,1078
24,1079
2,1080
2,1081
6,1082
2,1083
24,1084
2,1085
7,1086
7,1087
6,1088
7,1089
2,1090
6,1091
4,1092
4,1093
7,1094
6,1095
7,1096
2,1097
4,1098
4,1099
7,1100
4,1101
7,1102
6,1103
4,1104
2,1105
6,1106
4,1107
4,1108
4,1109
4,1110
4,1111
24,1112
1,1113
6,1114
7,1115
24,1116
7,1117
6,1118
6,1119
4,1120
4,1121
4,1122
4,1123
4,1124
7,1125
6,1126
1,1127
7,1128
7,1129
24,1130
4,1131
2,1132
7,1133
1,1134
4,1135
24,1136
7,1137
7,1138
2,1139
6,1140
7,1141
2,1142
4,1143
24,1144
1,1145
6,1146
1,1147
4,1148
2,1149
1,1150
24,1151
4,1152
7,1153
2,1154
4,1155
7,1156
1,1157
24,1158
24,1159
4,1160
7,1161
7,1162
7,1163
24,1164
7,1165
4,1166
24,1167
24,1168
24,1169
4,1170
6,1171
4,1172
24,1173
7,1174
1,1175
24,1176
1,1177
4,1178
1,1179
6,1180
2,1181
7,1182
4,1183
4,1184
7,1185
24,1186
2,1187
6,1188
1,1189
6,1190
2,1191
24,1192
24,1193
24,1194
4,1195
1,1196
7,1197
7,1198
1,1199
7,1200
4,1201
1,1202
2,1203
1,1204
7,1205
4,1206
24,1207
1,1208
7,1209
7,1210
7,1211
24,1212
4,1213
4,1214
24,1215
7,1216
4,1217
24,1218
7,1219
7,1220
7,1221
7,1222
1,1223
6,1224
4,1225
6,1226
1,1227
1,1228
24,1229
6,1230
6,1231
1,1232
7,1233
4,1234
4,1235
7,1236
6,1237
7,1238
1,1239
24,1240
24,1241
24,1242
4,1243
7,1244
4,1245
2,1246
24,1247
4,1248
4,1249
1,1250
4,1251
1,1252
7,1253
4,1254
7,1255
2,1256
2,1257
2,1258
24,1259
4,1260
24,1261
9,1262
24,1263
9,1264
24,1265
24,1266
9,1267
24,1268
24,1269
24,1270
9,1271
9,1272
24,1273
9,1274
24,1275
24,1276
24,1277
24,1278
9,1279
11,1280
7,1281
2,1282
19,1283
3,1284
7,1285
2,1286
24,1287
3,1288
3,1289
9,1290
13,1291
3,1292
9,1293
7,1294
5,1295
6,1296
20,1297
13,1298
4,1299
1,1300
10,1301
8,1302
13,1303
2,1304
5,1305
19,1306
9,1307
1,1308
10,1309
2,1310
8,1311
4,1312
1,1313
24,1314
19,1315
13,1316
5,1317
19,1318
8,1319
11,1320
19,1321
24,1322
4,1323
1,1324
10,1325
1,1326
1,1327
24,1328
9,1329
24,1330
8,1331
2,1332
11,1333
19,1334
24,1335
1,1336
7,1337
11,1338
10,1339
5,1340
8,1341
20,1342
1,1343
10,1344
24,1345
4,1346
5,1347
6,1348
10,1349
6,1350
10,1351
1,1352
6,1353
10,1354
3,1355
11,1356
19,1357
9,1358
6,1359
19,1360
5,1361
19,1362
11,1363
19,1364
7,1365
13,1366
2,1367
4,1368
5,1369
3,1370
9,1371
20,1372
8,1373
10,1374
10,1375
10,1376
2,1377
7,1378
8,1379
6,1380
20,1381
11,1382
9,1383
6,1384
9,1385
5,1386
5,1387
24,1388
2,1389
24,1390
7,1391
6,1392
24,1393
3,1394
2,1395
2,1396
5,1397
24,1398
7,1399
1,1400
20,1401
5,1402
3,1403
5,1404
4,1405
9,1406
6,1407
1,1408
11,1409
4,1410
1,1411
2,1412
3,1413
2,1414
4,1415
9,1416
4,1417
13,1418
19,1419
7,1420
24,1421
1,1422
4,1423
24,1424
3,1425
3,1426
6,1427
19,1428
6,1429
10,1430
13,1431
24,1432
20,1433
5,1434
20,1435
7,1436
9,1437
2,1438
1,1439
13,1440
20,1441
2,1442
9,1443
9,1444
10,1445
5,1446
6,1447
1,1448
6,1449
8,1450
7,1451
13,1452
9,1453
3,1454
6,1455
11,1456
3,1457
7,1458
1,1459
20,1460
9,1461
5,1462
7,1463
24,1464
9,1465
5,1466
7,1467
1,1468
5,1469
1,1470
11,1471
9,1472
3,1473
5,1474
9,1475
11,1476
1,1477
8,1478
3,1479
7,1480
6,1481
2,1482
11,1483
10,1484
6,1485
7,1486
2,1487
20,1488
4,1489
24,1490
8,1491
8,1492
3,1493
20,1494
9,1495
1,1496
6,1497
1,1498
6,1499
19,1500
4,1501
4,1502
9,1503
5,1504
19,1505
3,1506
5,1507
3,1508
7,1509
7,1510
5,1511
5,1512
24,1513
6,1514
24,1515
6,1516
10,1517
7,1518
4,1519
8,1520
13,1521
5,1522
4,1523
1,1524
24,1525
4,1526
7,1527
24,1528
3,1529
4,1530
24,1531
1,1532
7,1533
13,1534
7,1535
11,1536
19,1537
5,1538
20,1539
10,1540
11,1541
20,1542
3,1543
7,1544
7,1545
4,1546
24,1547
11,1548
6,1549
2,1550
2,1551
9,1552
9,1553
10,1554
3,1555
20,1556
24,1557
8,1558
9,1559
7,1560
8,1561
20,1562
19,1563
6,1564
11,1565
20,1566
24,1567
24,1568
20,1569
3,1570
9,1571
2,1572
2,1573
4,1574
9,1575
5,1576
10,1577
24,1578
1,1579
4,1580
24,1581
24,1582
20,1583
4,1584
2,1585
7,1586
9,1587
24,1588
24,1589
1,1590
3,1591
8,1592
3,1593
6,1594
11,1595
24,1596
4,1597
6,1598
19,1599
2,1600
13,1601
24,1602
11,1603
13,1604
19,1605
20,1606
24,1607
9,1608
13,1609
11,1610
2,1611
11,1612
4,1613
24,1614
13,1615
4,1616
24,1617
8,1618
5,1619
11,1620
4,1621
24,1622
5,1623
3,1624
10,1625
2,1626
19,1627
1,1628
3,1629
24,1630
19,1631
13,1632
6,1633
3,1634
10,1635
9,1636
10,1637
8,1638
10,1639
7,1640
6,1641
10,1642
13,1643
6,1644
1,1645
5,1646
4,1647
1,1648
2,1649
7,1650
1,1651
9,1652
3,1653
6,1654
5,1655
3,1656
7,1657
6,1658
8,1659
7,1660
6,1661
4,1662
4,1663
20,1664
3,1665
6,1666
19,1667
13,1668
9,1669
24,1670
8,1671
19,1672
3,1673
2,1674
4,1675
5,1676
6,1677
1,1678
24,1679
20,1680
2,1681
13,1682
8,1683
10,1684
20,1685
6,1686
24,1687
3,1688
24,1689
5,1690
8,1691
9,1692
8,1693
7,1694
7,1695
1,1696
19,1697
5,1698
7,1699
3,1700
13,1701
1,1702
6,1703
5,1704
4,1705
1,1706
5,1707
19,1708
2,1709
1,1710
3,1711
24,1712
11,1713
9,1714
2,1715
5,1716
24,1717
19,1718
13,1719
4,1720
2,1721
8,1722
6,1723
19,1724
11,1725
3,1726
9,1727
24,1728
19,1729
4,1730
3,1731
2,1732
5,1733
1,1734
2,1735
9,1736
1,1737
9,1738
3,1739
1,1740
19,1741
1,1742
9,1743
4,1744
24,1745
3,1746
20,1747
19,1748
6,1749
19,1750
6,1751
9,1752
7,1753
20,1754
2,1755
4,1756
5,1757
11,1758
5,1759
9,1760
11,1761
24,1762
8,1763
5,1764
20,1765
7,1766
4,1767
7,1768
8,1769
4,1770
5,1771
2,1772
2,1773
6,1774
1,1775
10,1776
13,1777
9,1778
4,1779
5,1780
10,1781
4,1782
1,1783
8,1784
20,1785
4,1786
13,1787
13,1788
20,1789
5,1790
7,1791
6,1792
6,1793
8,1794
4,1795
13,1796
24,1797
9,1798
4,1799
1,1800
7,1801
6,1802
1,1803
10,1804
3,1805
6,1806
11,1807
4,1808
24,1809
4,1810
19,1811
8,1812
6,1813
7,1814
10,1815
7,1816
5,1817
1,1818
24,1819
24,1820
1,1821
11,1822
4,1823
10,1824
13,1825
24,1826
5,1827
1,1828
2,1829
1,1830
4,1831
10,1832
7,1833
13,1834
4,1835
10,1836
20,1837
3,1838
10,1839
19,1840
9,1841
1,1842
3,1843
4,1844
8,1845
3,1846
9,1847
1,1848
4,1849
6,1850
10,1851
24,1852
8,1853
8,1854
8,1855
8,1856
8,1857
8,1858
8,1859
8,1860
8,1861
8,1862
8,1863
8,1864
8,1865
8,1866
8,1867
5,1868
5,1869
5,1870
25,1871
25,1872
10,1873
5,1874
10,1875
5,1876
9,1877
25,1878
25,1879
25,1880
13,1881
3,1882
3,1883
8,1884
9,1885
9,1886
10,1887
5,1888
8,1889
25,1890
5,1891
25,1892
9,1893
25,1894
10,1895
25,1896
8,1897
9,1898
25,1899
5,1900
25,1901
5,1902
5,1903
25,1904
25,1905
5,1906
25,1907
8,1908
8,1909
3,1910
10,1911
5,1912
25,1913
3,1914
5,1915
25,1916
9,1917
25,1918
25,1919
9,1920
5,1921
9,1922
9,1923
9,1924
5,1925
8,1926
25,1927
25,1928
25,1929
9,1930
9,1931
8,1932
9,1933
5,1934
8,1935
25,1936
25,1937
5,1938
25,1939
8,1940
9,1941
10,1942
25,1943
8,1944
13,1945
9,1946
25,1947
8,1948
8,1949
5,1950
9,1951
25,1952
9,1953
8,1954
8,1955
3,1956
9,1957
5,1958
5,1959
3,1960
9,1961
3,1962
10,1963
9,1964
8,1965
3,1966
5,1967
9,1968
5,1969
8,1970
25,1971
10,1972
9,1973
13,1974
8,1975
3,1976
8,1977
8,1978
8,1979
8,1980
9,1981
25,1982
4,1983
8,1984
4,1985
5,1986
8,1987
23,1988
8,1989
12,1990
23,1991
12,1992
5,1993
23,1994
4,1995
12,1996
9,1997
9,1998
9,1999
8,2000
5,2001
24,2002
12,2003
9,2004
12,2005
4,2006
8,2007
4,2008
5,2009
5,2010
4,2011
8,2012
4,2013
12,2014
23,2015
5,2016
5,2017
23,2018
23,2019
13,2020
9,2021
9,2022
5,2023
4,2024
4,2025
23,2026
8,2027
9,2028
12,2029
4,2030
9,2031
4,2032
8,2033
8,2034
9,2035
9,2036
23,2037
12,2038
13,2039
5,2040
8,2041
23,2042
13,2043
23,2044
9,2045
5,2046
9,2047
8,2048
23,2049
5,2050
5,2051
5,2052
4,2053
24,2054
12,2055
23,2056
5,2057
9,2058
5,2059
12,2060
9,2061
5,2062
5,2063
24,2064
13,2065
12,2066
9,2067
9,2068
8,2069
8,2070
12,2071
4,2072
23,2073
9,2074
24,2075
12,2076
10,2077
12,2078
5,2079
13,2080
4,2081
4,2082
23,2083
4,2084
13,2085
12,2086
10,2087
5,2088
4,2089
9,2090
12,2091
29,2092
22,2093
22,2094
25,2095
15,2096
1,2097
25,2098
1,2099
9,2100
25,2101
13,2102
21,2103
3,2104
10,2105
24,2106
15,2107
5,2108
18,2109
7,2110
24,2111
14,2112
24,2113
5,2114
8,2115
9,2116
8,2117
6,2118
3,2119
1,2120
1,2121
16,2122
3,2123
25,2124
24,2125
20,2126
25,2127
18,2128
4,2129
5,2130
3,2131
1,2132
13,2133
1,2134
4,2135
2,2136
4,2137
21,2138
24,2139
25,2140
2,2141
22,2142
5,2143
8,2144
24,2145
6,2146
3,2147
24,2148
24,2149
5,2150
25,2151
8,2152
7,2153
25,2154
18,2155
9,2156
9,2157
17,2158
6,2159
3,2160
2,2161
9,2162
7,2163
25,2164
8,2165
4,2166
3,2167
3,2168
11,2169
22,2170
21,2171
6,2172
12,2173
8,2174
14,2175
9,2176
9,2177
22,2178
14,2179
20,2180
22,2181
6,2182
4,2183
13,2184
21,2185
24,2186
1,2187
3,2188
16,2189
25,2190
10,2191
15,2192
25,2193
9,2194
21,2195
1,2196
9,2197
18,2198
25,2199
1,2200
4,2201
5,2202
13,2203
7,2204
25,2205
22,2206
7,2207
25,2208
4,2209
8,2210
6,2211
9,2212
5,2213
2,2214
9,2215
2,2216
4,2217
5,2218
10,2219
24,2220
9,2221
8,2222
9,2223
5,2224
22,2225
8,2226
3,2227
3,2228
24,2229
6,2230
10,2231
6,2232
8,2233
16,2234
24,2235
8,2236
8,2237
29,2238
16,2239
21,2240
5,2241
11,2242
4,2243
4,2244
8,2245
12,2246
9,2247
7,2248
13,2249
4,2250
9,2251
8,2252
20,2253
14,2254
5,2255
4,2256
8,2257
23,2258
8,2259
7,2260
18,2261
4,2262
21,2263
6,2264
25,2265
5,2266
2,2267
17,2268
4,2269
18,2270
2,2271
25,2272
9,2273
24,2274
9,2275
24,2276
24,2277
9,2278
25,2279
25,2280
9,2281
9,2282
8,2283
24,2284
13,2285
9,2286
10,2287
17,2288
18,2289
8,2290
12,2291
9,2292
24,2293
6,2294
9,2295
19,2296
13,2297
6,2298
5,2299
16,2300
1,2301
25,2302
22,2303
22,2304
19,2305
23,2306
18,2307
18,2308
20,2309
10,2310
9,2311
16,2312
9,2313
3,2314
10,2315
11,2316
8,2317
9,2318
2,2319
21,2320
24,2321
7,2322
18,2323
14,2324
6,2325
4,2326
6,2327
21,2328
3,2329
15,2330
10,2331
18,2332
8,2333
13,2334
23,2335
25,2336
1,2337
4,2338
1,2339
6,2340
2,2341
3,2342
24,2343
6,2344
12,2345
1,2346
4,2347
9,2348
14,2349
14,2350
11,2351
15,2352
24,2353
15,2354
7,2355
24,2356
21,2357
25,2358
4,2359
18,2360
6,2361
8,2362
6,2363
9,2364
1,2365
7,2366
1,2367
20,2368
15,2369
16,2370
24,2371
2,2372
13,2373
14,2374
9,2375
25,2376
9,2377
6,2378
25,2379
13,2380
25,2381
23,2382
10,2383
7,2384
9,2385
13,2386
23,2387
7,2388
24,2389
1,2390
9,2391
7,2392
8,2393
4,2394
7,2395
9,2396
5,2397
9,2398
24,2399
25,2400
16,2401
25,2402
25,2403
1,2404
11,2405
9,2406
14,2407
24,2408
24,2409
24,2410
3,2411
2,2412
22,2413
14,2414
9,2415
24,2416
7,2417
16,2418
7,2419
24,2420
1,2421
6,2422
7,2423
2,2424
7,2425
1,2426
15,2427
21,2428
1,2429
13,2430
1,2431
25,2432
24,2433
15,2434
3,2435
24,2436
24,2437
14,2438
22,2439
25,2440
1,2441
7,2442
9,2443
4,2444
2,2445
7,2446
5,2447
25,2448
2,2449
21,2450
2,2451
15,2452
1,2453
4,2454
23,2455
10,2456
1,2457
3,2458
24,2459
25,2460
9,2461
24,2462
2,2463
6,2464
18,2465
9,2466
3,2467
1,2468
17,2469
24,2470
3,2471
25,2472
17,2473
9,2474
22,2475
12,2476
19,2477
2,2478
1,2479
9,2480
12,2481
24,2482
9,2483
6,2484
20,2485
16,2486
1,2487
9,2488
9,2489
2,2490
24,2491
9,2492
12,2493
1,2494
1,2495
7,2496
12,2497
6,2498
8,2499
13,2500
8,2501
3,2502
6,2503
9,2504
16,2505
24,2506
13,2507
16,2508
9,2509
6,2510
9,2511
22,2512
19,2513
9,2514
22,2515
23,2516
16,2517
10,2518
9,2519
24,2520
4,2521
9,2522
12,2523
22,2524
1,2525
22,2526
4,2527
19,2528
1,2529
22,2530
22,2531
13,2532
12,2533
9,2534
20,2535
7,2536
5,2537
6,2538
9,2539
5,2540
10,2541
23,2542
7,2543
9,2544
7,2545
9,2546
10,2547
23,2548
8,2549
8,2550
2,2551
24,2552
4,2553
9,2554
7,2555
1,2556
3,2557
3,2558
19,2559
16,2560
12,2561
22,2562
1,2563
1,2564
10,2565
9,2566
1,2567
20,2568
20,2569
22,2570
22,2571
24,2572
4,2573
9,2574
24,2575
16,2576
9,2577
24,2578
9,2579
24,2580
10,2581
1,2582
1,2583
7,2584
19,2585
3,2586
8,2587
9,2588
9,2589
9,2590
22,2591
6,2592
9,2593
22,2594
24,2595
5,2596
9,2597
4,2598
22,2599
7,2600
16,2601
5,2602
22,2603
12,2604
16,2605
7,2606
20,2607
19,2608
20,2609
10,2610
20,2611
2,2612
23,2613
23,2614
20,2615
9,2616
2,2617
16,2618
5,2619
9,2620
12,2621
8,2622
3,2623
9,2624
4,2625
9,2626
7,2627
19,2628
16,2629
23,2630
16,2631
2,2632
24,2633
2,2634
8,2635
24,2636
8,2637
24,2638
8,2639
4,2640
9,2641
20,2642
12,2643
4,2644
24,2645
22,2646
9,2647
8,2648
9,2649
22,2650
1,2651
23,2652
12,2653
4,2654
9,2655
1,2656
24,2657
24,2658
16,2659
24,2660
7,2661
3,2662
24,2663
22,2664
24,2665
24,2666
4,2667
24,2668
3,2669
9,2670
4,2671
16,2672
7,2673
9,2674
8,2675
4,2676
12,2677
13,2678
22,2679
12,2680
8,2681
22,2682
16,2683
19,2684
8,2685
16,2686
23,2687
12,2688
2,2689
2,2690
9,2691
19,2692
22,2693
24,2694
24,2695
22,2696
5,2697
24,2698
9,2699
12,2700
16,2701
4,2702
22,2703
24,2704
22,2705
7,2706
9,2707
22,2708
19,2709
19,2710
9,2711
8,2712
6,2713
9,2714
2,2715
6,2716
24,2717
16,2718
9,2719
8,2720
16,2721
23,2722
19,2723
12,2724
24,2725
13,2726
20,2727
22,2728
19,2729
1,2730
7,2731
24,2732
16,2733
2,2734
22,2735
19,2736
1,2737
9,2738
24,2739
2,2740
24,2741
6,2742
24,2743
9,2744
9,2745
23,2746
3,2747
1,2748
1,2749
4,2750
7,2751
7,2752
10,2753
4,2754
24,2755
9,2756
9,2757
1,2758
16,2759
8,2760
7,2761
9,2762
12,2763
3,2764
9,2765
24,2766
7,2767
5,2768
22,2769
23,2770
13,2771
7,2772
24,2773
4,2774
1,2775
7,2776
23,2777
3,2778
16,2779
9,2780
7,2781
24,2782
24,2783
4,2784
12,2785
19,2786
6,2787
16,2788
3,2789
5,2790
24,2791
12,2792
20,2793
5,2794
12,2795
5,2796
2,2797
24,2798
12,2799
20,2800
4,2801
9,2802
5,2803
24,2804
5,2805
12,2806
1,2807
9,2808
3,2809
9,2810
24,2811
13,2812
1,2813
23,2814
2,2815
10,2816
24,2817
16,2818
3,2819
9,2820
3,2821
13,2822
5,2823
24,2824
8,2825
24,2826
1,2827
16,2828
22,2829
12,2830
10,2831
12,2832
23,2833
24,2834
9,2835
1,2836
12,2837
6,2838
7,2839
22,2840
4,2841
16,2842
8,2843
9,2844
7,2845
1,2846
2,2847
12,2848
19,2849
20,2850
24,2851
1,2852
9,2853
24,2854
10,2855
4,2856
9,2857
3,2858
7,2859
10,2860
23,2861
1,2862
5,2863
6,2864
3,2865
24,2866
13,2867
7,2868
12,2869
4,2870
5,2871
23,2872
12,2873
16,2874
7,2875
5,2876
6,2877
7,2878
5,2879
12,2880
12,2881
9,2882
1,2883
25,2884
22,2885
15,2886
9,2887
3,2888
9,2889
12,2890
18,2891
1,2892
1,2893
8,2894
1,2895
25,2896
1,2897
13,2898
24,2899
17,2900
15,2901
15,2902
20,2903
22,2904
16,2905
4,2906
2,2907
24,2908
23,2909
1,2910
8,2911
16,2912
7,2913
23,2914
15,2915
24,2916
13,2917
17,2918
10,2919
23,2920
19,2921
24,2922
8,2923
23,2924
8,2925
18,2926
22,2927
6,2928
4,2929
21,2930
8,2931
8,2932
24,2933
23,2934
13,2935
7,2936
10,2937
7,2938
2,2939
9,2940
4,2941
15,2942
21,2943
22,2944
22,2945
15,2946
4,2947
9,2948
15,2949
25,2950
24,2951
15,2952
25,2953
1,2954
15,2955
7,2956
13,2957
18,2958
21,2959
24,2960
23,2961
22,2962
5,2963
18,2964
24,2965
22,2966
16,2967
2,2968
10,2969
6,2970
12,2971
11,2972
18,2973
12,2974
29,2975
7,2976
6,2977
13,2978
20,2979
24,2980
24,2981
21,2982
9,2983
21,2984
22,2985
7,2986
10,2987
22,2988
6,2989
8,2990
8,2991
4,2992
21,2993
15,2994
1,2995
22,2996
22,2997
24,2998
21,2999
22,3000
22,3001
6,3002
21,3003
11,3004
9,3005
1,3006
2,3007
2,3008
20,3009
1,3010
22,3011
9,3012
18,3013
18,3014
8,3015
23,3016
19,3017
7,3018
22,3019
7,3020
15,3021
10,3022
16,3023
15,3024
13,3025
14,3026
15,3027
1,3028
8,3029
14,3030
13,3031
24,3032
10,3033
11,3034
25,3035
1,3036
25,3037
1,3038
1,3039
21,3040
10,3041
4,3042
7,3043
22,3044
20,3045
24,3046
20,3047
3,3048
25,3049
13,3050
18,3051
4,3052
24,3053
10,3054
1,3055
29,3056
7,3057
1,3058
23,3059
11,3060
7,3061
18,3062
1,3063
20,3064
19,3065
18,3066
9,3067
13,3068
15,3069
5,3070
4,3071
10,3072
9,3073
24,3074
20,3075
12,3076
18,3077
8,3078
11,3079
18,3080
25,3081
6,3082
12,3083
1,3084
11,3085
23,3086
5,3087
4,3088
21,3089
18,3090
22,3091
9,3092
15,3093
12,3094
23,3095
18,3096
24,3097
23,3098
23,3099
24,3100
21,3101
24,3102
23,3103
5,3104
9,3105
18,3106
21,3107
22,3108
24,3109
15,3110
16,3111
23,3112
5,3113
22,3114
24,3115
21,3116
16,3117
7,3118
2,3119
1,3120
18,3121
24,3122
7,3123
10,3124
24,3125
29,3126
9,3127
15,3128
7,3129
24,3130
18,3131
25,3132
4,3133
14,3134
8,3135
10,3136
1,3137
22,3138
22,3139
29,3140
18,3141
10,3142
15,3143
12,3144
23,3145
20,3146
20,3147
5,3148
6,3149
6,3150
7,3151
23,3152
10,3153
23,3154
22,3155
1,3156
3,3157
22,3158
7,3159
4,3160
3,3161
24,3162
13,3163
23,3164
1,3165
15,3166
24,3167
24,3168
29,3169
24,3170
18,3171
20,3172
15,3173
6,3174
21,3175
1,3176
7,3177
10,3178
1,3179
9,3180
20,3181
7,3182
14,3183
11,3184
18,3185
19,3186
1,3187
10,3188
3,3189
22,3190
11,3191
18,3192
5,3193
15,3194
14,3195
20,3196
21,3197
4,3198
22,3199
11,3200
23,3201
7,3202
18,3203
15,3204
13,3205
14,3206
24,3207
23,3208
24,3209
12,3210
1,3211
11,3212
7,3213
4,3214
3,3215
9,3216
4,3217
1,3218
18,3219
1,3220
4,3221
2,3222
13,3223
7,3224
5,3225
21,3226
23,3227
8,3228
25,3229
23,3230
24,3231
10,3232
1,3233
8,3234
24,3235
21,3236
7,3237
22,3238
18,3239
18,3240
4,3241
16,3242
15,3243
24,3244
22,3245
6,3246
1,3247
9,3248
24,3249
11,3250
23,3251
6,3252
8,3253
1,3254
4,3255
20,3256
1,3257
7,3258
18,3259
10,3260
14,3261
23,3262
22,3263
16,3264
16,3265
21,3266
13,3267
24,3268
3,3269
3,3270
24,3271
4,3272
22,3273
6,3274
7,3275
3,3276
4,3277
29,3278
18,3279
23,3280
6,3281
21,3282
16,3283
4,3284
10,3285
22,3286
24,3287
29,3288
17,3289
24,3290
2,3291
4,3292
22,3293
15,3294
15,3295
24,3296
1,3297
21,3298
24,3299
7,3300
22,3301
1,3302
21,3303
24,3304
20,3305
20,3306
21,3307
14,3308
3,3309
22,3310
13,3311
21,3312
10,3313
21,3314
20,3315
21,3316
21,3317
25,3318
10,3319
7,3320
27,3321
7,3322
3,3323
7,3324
27,3325
3,3326
13,3327
24,3328
7,3329
3,3330
24,3331
10,3332
7,3333
19,3334
3,3335
24,3336
13,3337
10,3338
3,3339
27,3340
3,3341
7,3342
27,3343
24,3344
24,3345
19,3346
13,3347
3,3348
24,3349
24,3350
3,3351
3,3352
7,3353
10,3354
7,3355
27,3356
27,3357
24,3358
27,3359
4,3360
27,3361
4,3362
7,3363
3,3364
10,3365
10,3366
13,3367
10,3368
4,3369
27,3370
13,3371
27,3372
7,3373
10,3374
24,3375
3,3376
24,3377
7,3378
24,3379
13,3380
27,3381
27,3382
19,3383
24,3384
24,3385
7,3386
19,3387
3,3388
13,3389
3,3390
27,3391
10,3392
7,3393
19,3394
10,3395
4,3396
27,3397
7,3398
4,3399
27,3400
4,3401
4,3402
13,3403
24,3404
13,3405
27,3406
3,3407
27,3408
27,3409
27,3410
13,3411
4,3412
7,3413
7,3414
10,3415
27,3416
4,3417
3,3418
19,3419
27,3420
7,3421
3,3422
24,3423
24,3424
27,3425
7,3426
4,3427
27,3428
4,3429
3,3430
24,3431
10,3432
7,3433
27,3434
3,3435
20,3436
1,3437
20,3438
20,3439
7,3440
4,3441
20,3442
4,3443
2,3444
20,3445
7,3446
7,3447
4,3448
7,3449
7,3450
20,3451
1,3452
20,3453
4,3454
2,3455
1,3456
20,3457
1,3458
20,3459
7,3460
7,3461
1,3462
6,3463
7,3464
7,3465
20,3466
6,3467
6,3468
4,3469
20,3470
7,3471
7,3472
2,3473
20,3474
4,3475
7,3476
7,3477
7,3478
4,3479
1,3480
7,3481
1,3482
20,3483
4,3484
20,3485
4,3486
20,3487
1,3488
1,3489
4,3490
6,3491
1,3492
6,3493
2,3494
1,3495
6,3496
7,3497
2,3498
20,3499
20,3500
4,3501
7,3502
20,3503
7,3504
6,3505
4,3506
4,3507
1,3508
6,3509
1,3510
1,3511
4,3512
4,3513
4,3514
4,3515
27,3516
27,3517
27,3518
27,3519
27,3520
27,3521
27,3522
2,3523
6,3524
20,3525
20,3526
6,3527
2,3528
6,3529
6,3530
2,3531
2,3532
6,3533
2,3534
6,3535
2,3536
2,3537
2,3538
6,3539
6,3540
25,3541
25,3542
25,3543
25,3544
25,3545
25,3546
25,3547
25,3548
25,3549
25,3550
25,3551
25,3552
25,3553
25,3554
14,3555
2,3556
14,3557
25,3558
25,3559
2,3560
11,3561
20,3562
12,3563
25,3564
25,3565
9,3566
25,3567
5,3568
2,3569
24,3570
25,3571
11,3572
14,3573
9,3574
25,3575
3,3576
25,3577
10,3578
3,3579
20,3580
20,3581
2,3582
14,3583
5,3584
13,3585
14,3586
25,3587
25,3588
4,3589
24,3590
24,3591
13,3592
7,3593
3,3594
14,3595
6,3596
24,3597
11,3598
24,3599
25,3600
14,3601
16,3602
13,3603
1,3604
25,3605
13,3606
14,3607
12,3608
9,3609
1,3610
24,3611
9,3612
24,3613
4,3614
4,3615
6,3616
1,3617
2,3618
1,3619
1,3620
9,3621
1,3622
4,3623
9,3624
25,3625
12,3626
6,3627
3,3628
5,3629
5,3630
4,3631
19,3632
2,3633
14,3634
3,3635
9,3636
24,3637
24,3638
2,3639
3,3640
4,3641
24,3642
9,3643
9,3644
8,3645
7,3646
24,3647
9,3648
19,3649
25,3650
24,3651
12,3652
25,3653
25,3654
20,3655
10,3656
4,3657
16,3658
4,3659
5,3660
2,3661
20,3662
9,3663
19,3664
6,3665
24,3666
3,3667
4,3668
25,3669
2,3670
11,3671
7,3672
20,3673
16,3674
25,3675
11,3676
24,3677
9,3678
20,3679
9,3680
3,3681
7,3682
25,3683
3,3684
5,3685
2,3686
4,3687
9,3688
25,3689
20,3690
4,3691
11,3692
3,3693
10,3694
4,3695
24,3696
8,3697
16,3698
9,3699
3,3700
25,3701
20,3702
13,3703
9,3704
24,3705
14,3706
10,3707
10,3708
14,3709
1,3710
12,3711
20,3712
6,3713
4,3714
5,3715
24,3716
16,3717
3,3718
9,3719
25,3720
12,3721
4,3722
10,3723
24,3724
16,3725
1,3726
6,3727
9,3728
25,3729
25,3730
13,3731
3,3732
4,3733
20,3734
24,3735
24,3736
9,3737
25,3738
2,3739
6,3740
12,3741
10,3742
2,3743
25,3744
14,3745
20,3746
13,3747
7,3748
7,3749
7,3750
7,3751
7,3752
7,3753
7,3754
7,3755
7,3756
7,3757
7,3758
7,3759
7,3760
7,3761
7,3762
7,3763
7,3764
7,3765
7,3766
7,3767
7,3768
7,3769
7,3770
7,3771
7,3772
7,3773
7,3774
4,3775
5,3776
5,3777
9,3778
4,3779
4,3780
8,3781
7,3782
24,3783
9,3784
4,3785
5,3786
9,3787
24,3788
5,3789
4,3790
4,3791
4,3792
8,3793
7,3794
5,3795
9,3796
7,3797
5,3798
4,3799
4,3800
7,3801
4,3802
24,3803
9,3804
4,3805
8,3806
7,3807
7,3808
5,3809
5,3810
24,3811
24,3812
9,3813
4,3814
9,3815
7,3816
9,3817
7,3818
8,3819
24,3820
7,3821
8,3822
5,3823
8,3824
24,3825
8,3826
9,3827
8,3828
7,3829
5,3830
24,3831
4,3832
4,3833
9,3834
9,3835
24,3836
5,3837
24,3838
4,3839
24,3840
24,3841
5,3842
24,3843
7,3844
5,3845
7,3846
5,3847
7,3848
9,3849
4,3850
24,3851
4,3852
24,3853
7,3854
4,3855
24,3856
4,3857
24,3858
4,3859
24,3860
24,3861
4,3862
24,3863
4,3864
4,3865
4,3866
24,3867
7,3868
9,3869
8,3870
4,3871
7,3872
7,3873
4,3874
7,3875
24,3876
8,3877
24,3878
8,3879
24,3880
4,3881
24,3882
4,3883
4,3884
5,3885
4,3886
9,3887
5,3888
5,3889
8,3890
4,3891
5,3892
9,3893
9,3894
5,3895
24,3896
9,3897
24,3898
24,3899
7,3900
7,3901
9,3902
7,3903
5,3904
24,3905
4,3906
9,3907
7,3908
9,3909
24,3910
24,3911
8,3912
24,3913
8,3914
9,3915
5,3916
