id,genre
1,Adult
2,Drama
3,Short
4,Action
5,Fantasy
6,Horror
7,Sci-Fi
8,Thriller
9,Biography
10,Comedy
11,Family
12,Musical
13,Adventure
14,Animation
15,Documentary
16,Talk-Show
17,Crime
18,Music
19,Sport
20,Romance
21,History
22,Mystery
23,War
24,Game-Show
25,Western
26,Reality-TV
27,News
28,Film-Noir
