director,title
7.37888
6.68568
6.68568
7.37888
4.59065
5.29904
5.29904
5.29904
5.29904
5.29904
5.29904
5.29904
6.24109
3.12655
3.12655
3.12655
3.12655
3.12655
3.12655
3.12655
3.12655
3.12655
3.12655
3.12655
3.12655
3.12655
3.12655
3.12655
3.12655
3.12655
3.12655
3.12655
3.12655
3.12655
3.12655
3.12655
3.12655
3.12655
3.12655
3.12655
3.12655
3.12655
3.12655
3.12655
3.12655
3.12655
3.12655
3.12655
3.12655
3.12655
3.12655
3.12655
3.12655
3.12655
3.12655
3.12655
3.12655
3.12655
3.12655
3.12655
3.12655
3.12655
3.12655
3.12655
3.12655
3.12655
3.12655
3.12655
3.12655
3.12655
3.12655
3.12655
3.12655
3.12655
3.12655
3.12655
3.12655
3.12655
3.12655
3.12655
3.12655
3.12655
3.12655
4.59065
5.29904
4.17047
5.29904
5.29904
4.59065
4.59065
5.29904
7.37888
5.56853
5.56853
5.56853
4.33321
4.33321
4.33321
4.33321
4.33321
4.33321
4.33321
4.33321
4.33321
4.33321
4.33321
4.33321
4.33321
3.63321
4.33321
4.33321
4.33321
4.33321
4.33321
4.33321
4.33321
6.68568
6.68568
7.37888
2.79891
2.79891
2.79891
2.79891
2.79891
2.79891
2.79891
2.79891
2.79891
2.79891
2.79891
2.79891
2.79891
2.79891
2.79891
2.79891
2.79891
2.79891
2.79891
2.79891
2.79891
2.79891
2.79891
2.79891
2.79891
2.79891
2.79891
2.79891
2.79891
2.79891
2.79891
2.79891
2.79891
2.79891
2.79891
2.79891
2.79891
2.79891
2.79891
2.79891
2.79891
2.79891
2.79891
2.79891
2.79891
2.79891
2.79891
2.79891
2.79891
2.79891
2.79891
2.79891
2.79891
2.79891
2.79891
2.79891
2.79891
2.79891
2.79891
2.79891
2.79891
2.79891
2.79891
2.79891
2.79891
2.79891
2.79891
2.79891
2.79891
2.79891
2.79891
2.79891
2.79891
2.79891
2.79891
2.79891
2.79891
2.79891
2.79891
2.79891
2.79891
2.79891
2.79891
2.79891
2.79891
2.79891
2.79891
2.79891
2.79891
2.79891
2.79891
2.79891
2.79891
2.79891
2.79891
2.79891
2.79891
7.37888
7.37888
5.54921
6.68568
7.37888
6.68568
6.68568
5.58683
5.58683
5.58683
5.58683
5.58683
5.58683
6.68568
6.68568
6.28016
6.28016
6.28016
5.58683
5.58683
5.58683
5.58683
5.58683
5.58683
6.28016
6.28016
6.28016
4.54475
4.54475
4.54475
4.54475
4.54475
4.54475
4.54475
4.54475
4.54475
4.54475
4.54475
3.84218
4.54475
4.54475
4.54475
4.54475
4.54475
5.05889
5.76921
5.76921
5.05889
5.76921
6.28016
6.28016
6.28016
4.15863
4.15863
4.15863
4.15863
4.15863
4.15863
4.15863
4.15863
4.15863
4.15863
4.15863
4.15863
4.15863
4.15863
4.15863
4.15863
4.15863
4.15863
4.15863
4.15863
4.15863
4.15863
4.15863
4.15863
4.15863
4.48753
4.48753
4.48753
4.48753
4.48753
4.48753
4.48753
4.48753
4.48753
4.48753
4.48753
4.48753
4.48753
4.48753
4.48753
4.48753
4.48753
4.48753
7.37888
7.37888
5.76921
5.76921
5.76921
5.76921
5.76921
7.37888
4.89334
4.89334
4.89334
4.89334
4.89334
4.89334
4.89334
4.18754
4.89334
4.89334
4.89334
4.18754
4.11936
4.11936
4.11936
4.11936
4.11936
4.11936
4.11936
4.11936
4.11936
4.11936
4.11936
4.11936
4.11936
4.11936
4.11936
4.11936
4.11936
4.11936
4.11936
4.11936
4.11936
4.11936
4.11936
4.11936
4.11936
4.11936
6.68568
5.9734
4.38206
4.38206
4.38206
4.38206
4.38206
4.38206
4.38206
4.38206
4.38206
4.38206
4.38206
4.38206
4.38206
4.38206
4.38206
4.38206
4.38206
4.38206
4.38206
4.38206
4.54475
4.54475
4.54475
4.54475
4.54475
4.54475
4.54475
4.54475
4.54475
4.54475
4.54475
4.54475
4.54475
4.54475
4.54475
4.54475
4.54475
5.76921
5.76921
5.76921
5.05889
5.76921
6.28016
6.28016
6.28016
5.1812
4.47346
5.1812
5.1812
5.1812
5.1812
5.1812
5.1812
5.1812
6.68568
6.68568
4.08156
4.08156
4.08156
4.08156
4.08156
4.08156
4.08156
4.08156
4.08156
4.08156
4.08156
4.08156
4.08156
4.08156
4.08156
4.08156
4.08156
4.08156
4.08156
4.08156
4.08156
4.08156
4.08156
4.08156
4.08156
4.08156
4.08156
7.37888
4.43341
4.43341
4.43341
4.43341
4.43341
4.43341
4.43341
4.43341
3.73212
4.43341
4.43341
4.43341
4.43341
4.43341
4.43341
4.43341
4.43341
4.43341
4.43341
5.58683
5.58683
5.58683
5.58683
5.58683
5.58683
7.37888
7.37888
6.66596
7.37888
7.37888
5.9734
6.68568
7.37888
4.81324
3.69123
4.81324
4.81324
4.81324
4.81324
4.81324
4.81324
4.81324
4.81324
4.81324
4.81324
4.81324
6.28016
6.28016
6.28016
6.66596
4.54475
4.54475
4.54475
4.54475
4.54475
4.54475
4.54475
4.54475
4.54475
4.54475
4.54475
4.54475
4.54475
4.54475
4.54475
4.54475
4.54475
7.37888
3.7856
4.48753
3.7856
4.48753
4.48753
4.48753
4.48753
4.48753
4.48753
4.48753
4.48753
4.48753
4.48753
4.48753
4.48753
4.48753
4.48753
4.48753
4.98041
4.98041
4.98041
4.98041
4.98041
4.98041
4.98041
4.98041
4.98041
4.98041
4.98041
5.58683
5.58683
5.58683
5.58683
5.58683
5.58683
5.76921
5.76921
5.76921
5.76921
5.76921
4.00999
4.00999
4.00999
4.00999
4.00999
4.00999
4.00999
4.00999
4.00999
4.00999
4.00999
4.00999
4.00999
4.00999
4.00999
4.00999
4.00999
4.00999
4.00999
4.00999
4.00999
4.00999
4.00999
4.00999
4.00999
4.00999
4.00999
4.00999
4.00999
5.58683
5.58683
5.58683
5.58683
4.87715
5.58683
7.37888
6.68568
6.68568
4.48753
4.48753
4.48753
4.48753
4.48753
4.48753
4.48753
4.48753
4.48753
4.48753
4.48753
4.48753
4.48753
4.48753
4.48753
4.48753
4.48753
4.48753
6.28016
6.28016
6.28016
5.28144
5.28144
5.28144
5.28144
6.68568
6.68568
5.76921
5.76921
5.76921
5.76921
5.76921
3.08442
2.41739
2.41739
3.08442
3.08442
3.08442
2.41739
3.08442
3.08442
2.41739
3.08442
3.08442
3.08442
3.08442
3.08442
3.08442
3.08442
3.08442
3.08442
3.08442
3.08442
3.08442
3.08442
3.08442
2.41739
3.08442
3.08442
3.08442
3.08442
3.08442
3.08442
3.08442
3.08442
3.08442
3.08442
3.08442
3.08442
3.08442
3.08442
2.41739
3.08442
3.08442
3.08442
3.08442
3.08442
3.08442
3.08442
3.08442
3.08442
2.41739
3.08442
3.08442
3.08442
3.08442
3.08442
3.08442
3.08442
3.08442
3.08442
3.08442
3.08442
3.08442
3.08442
3.08442
3.08442
3.08442
3.08442
3.08442
3.08442
3.08442
3.08442
3.08442
3.08442
3.68779
3.68779
3.68779
3.68779
3.68779
3.68779
3.68779
3.68779
3.68779
3.68779
3.68779
3.68779
3.68779
3.68779
3.68779
3.68779
3.68779
3.68779
3.68779
3.68779
3.68779
3.68779
3.68779
3.68779
3.68779
3.68779
3.68779
3.68779
3.68779
3.68779
3.68779
3.68779
3.68779
3.68779
3.68779
3.68779
3.68779
3.68779
3.68779
3.68779
7.37888
4.33321
4.33321
4.33321
4.33321
3.63321
4.33321
4.33321
4.33321
4.33321
4.33321
4.33321
4.33321
3.63321
4.33321
4.33321
4.33321
4.33321
4.33321
4.33321
4.33321
4.33321
6.28016
6.28016
6.28016
7.37888
7.37888
6.66596
6.28016
6.28016
6.28016
7.37888
5.07578
5.07578
5.07578
5.07578
5.07578
4.36869
4.36869
4.36869
5.07578
5.07578
6.68568
6.68568
5.43263
5.43263
5.43263
5.43263
5.43263
5.43263
5.43263
7.37888
7.37888
7.37888
6.68568
6.68568
5.1812
5.1812
4.47346
5.1812
5.1812
5.1812
5.1812
5.1812
5.1812
5.28144
5.99242
5.99242
5.99242
6.66596
2.78861
2.78861
2.78861
2.78861
2.78861
2.13711
2.78861
2.78861
2.78861
2.78861
2.78861
2.78861
2.78861
2.13711
2.78861
2.13711
2.78861
2.13711
2.78861
2.78861
2.78861
2.78861
2.78861
2.78861
2.78861
2.78861
2.78861
2.13711
2.78861
2.78861
2.78861
2.78861
2.78861
2.78861
2.78861
2.13711
2.78861
2.13711
2.78861
2.78861
2.78861
2.78861
2.78861
2.78861
2.78861
2.78861
2.78861
2.78861
2.13711
2.78861
2.78861
2.78861
2.78861
2.78861
2.78861
2.78861
2.78861
2.78861
2.78861
2.78861
2.78861
2.78861
2.78861
2.78861
2.78861
2.78861
2.78861
2.78861
2.78861
2.78861
2.78861
2.78861
2.78861
2.78861
2.78861
2.78861
2.78861
2.78861
2.13711
2.78861
2.78861
2.13711
2.78861
2.78861
2.78861
2.78861
2.78861
2.78861
2.78861
2.78861
2.78861
2.78861
2.13711
2.78861
2.78861
2.13711
2.78861
2.78861
6.68568
5.54921
5.07578
5.07578
5.07578
4.36869
5.07578
5.07578
5.07578
5.07578
5.07578
5.07578
4.59065
5.29904
5.29904
5.29904
5.29904
5.29904
5.29904
5.29904
5.76921
5.76921
5.76921
5.76921
5.76921
5.9734
5.9734
4.87715
4.87715
4.87715
4.87715
4.87715
4.87715
6.68568
6.68568
7.37888
7.37888
6.68568
6.68568
7.37888
3.91138
3.21843
3.91138
3.91138
3.91138
3.91138
3.91138
3.91138
3.21843
3.21843
3.91138
3.91138
3.91138
3.21843
3.91138
3.91138
3.91138
3.21843
3.91138
3.91138
3.21843
3.21843
3.91138
3.91138
3.21843
3.91138
3.91138
3.91138
3.91138
3.91138
3.91138
3.91138
7.37888
4.85859
5.99242
5.99242
5.28144
7.37888
7.37888
7.37888
7.37888
7.37888
6.28016
6.28016
6.28016
6.68568
6.68568
7.37888
6.66596
4.89334
4.89334
4.89334
4.18754
4.89334
4.89334
4.18754
4.89334
4.89334
4.89334
4.89334
4.18754
7.37888
5.99242
5.99242
5.99242
5.99242
7.37888
5.29904
5.29904
5.29904
5.29904
5.29904
5.29904
5.29904
5.29904
4.15863
4.15863
4.15863
4.15863
4.15863
4.15863
4.15863
4.15863
4.15863
4.15863
4.15863
4.15863
4.15863
4.15863
4.15863
4.15863
4.15863
4.15863
4.15863
3.4612
4.15863
4.15863
3.05217
4.15863
4.15863
7.37888
6.66596
5.76921
5.76921
5.76921
5.76921
5.05889
5.07578
5.07578
5.07578
5.07578
5.07578
5.07578
5.07578
5.07578
5.07578
5.07578
7.37888
7.37888
6.28016
5.56853
6.28016
5.76921
5.05889
5.05889
5.76921
5.76921
7.37888
6.68568
6.68568
5.99242
5.99242
5.99242
5.99242
3.85578
4.98041
4.98041
4.98041
4.98041
4.98041
4.98041
4.98041
4.98041
4.98041
4.98041
7.37888
3.94318
3.94318
3.94318
3.94318
3.94318
3.94318
3.94318
3.94318
3.94318
3.94318
3.94318
3.94318
3.94318
3.94318
3.94318
3.94318
3.94318
3.94318
3.94318
3.94318
3.94318
3.94318
3.94318
3.94318
3.94318
3.94318
3.94318
3.94318
3.94318
3.94318
3.94318
5.43263
5.43263
5.43263
5.43263
5.43263
5.43263
5.43263
5.1812
5.1812
5.1812
5.1812
5.1812
5.1812
5.1812
5.1812
5.1812
6.66596
6.68568
6.68568
3.96616
4.67003
4.67003
4.67003
4.67003
4.67003
4.67003
4.67003
4.67003
4.67003
4.67003
4.67003
4.67003
4.67003
4.67003
4.89334
4.89334
4.89334
4.89334
4.89334
4.89334
4.89334
4.89334
4.89334
4.89334
4.89334
4.89334
4.36869
5.07578
5.07578
5.07578
4.36869
5.07578
5.07578
5.07578
5.07578
5.07578
7.37888
6.28016
6.28016
6.28016
5.99242
5.99242
5.99242
5.99242
7.37888
7.37888
4.72359
5.43263
5.43263
5.43263
4.72359
5.43263
5.43263
4.48753
4.48753
4.48753
4.48753
4.48753
4.48753
4.48753
4.48753
4.48753
4.48753
4.48753
4.48753
4.48753
4.48753
4.48753
4.48753
4.48753
4.48753
6.66596
6.24109
7.37888
5.29904
5.29904
5.29904
5.29904
5.29904
5.29904
5.29904
5.29904
7.37888
4.43341
4.43341
4.43341
4.43341
4.43341
4.43341
4.43341
4.43341
4.43341
4.43341
4.43341
4.43341
4.43341
4.43341
4.43341
4.43341
4.43341
4.43341
4.43341
2.92936
2.92936
3.6153
3.6153
3.6153
3.6153
3.6153
3.6153
3.6153
3.6153
3.6153
3.6153
3.6153
3.6153
3.6153
3.6153
3.6153
3.6153
3.6153
3.6153
3.6153
3.6153
3.6153
3.6153
3.6153
2.92936
3.6153
3.6153
3.6153
3.6153
3.6153
3.6153
3.6153
3.6153
3.6153
3.6153
3.6153
3.6153
3.6153
3.6153
3.6153
3.6153
3.6153
4.28664
4.28664
4.28664
4.28664
4.28664
4.28664
4.28664
4.28664
4.28664
4.28664
4.28664
4.28664
4.28664
4.28664
4.28664
4.28664
4.28664
4.28664
4.28664
4.28664
4.28664
4.28664
7.37888
6.28016
6.28016
6.28016
4.48753
4.48753
4.48753
4.48753
4.48753
3.7856
3.7856
4.48753
4.48753
4.48753
4.48753
4.48753
4.48753
4.48753
4.48753
4.48753
4.48753
4.48753
5.56853
6.28016
6.28016
3.91138
3.21843
3.91138
3.21843
3.91138
3.91138
3.21843
3.21843
3.21843
3.91138
3.21843
3.91138
3.91138
3.91138
3.21843
3.91138
3.21843
3.91138
3.21843
3.91138
3.91138
3.91138
3.91138
3.91138
3.91138
3.21843
3.21843
3.91138
3.91138
3.21843
3.91138
3.21843
7.37888
5.29904
5.29904
5.29904
5.29904
5.29904
5.29904
5.29904
5.29904
6.68568
6.68568
6.68568
6.68568
7.37888
5.28144
5.28144
5.28144
5.28144
7.37888
7.37888
4.98041
4.98041
4.98041
4.98041
4.98041
4.98041
4.98041
4.98041
4.98041
4.98041
4.98041
5.76921
5.76921
5.76921
5.76921
5.76921
6.28016
6.28016
6.28016
7.37888
7.37888
6.28016
6.28016
6.28016
6.68568
6.68568
6.28016
6.28016
6.28016
5.76921
5.76921
5.76921
5.76921
5.76921
7.37888
7.37888
6.66596
7.37888
3.59226
3.59226
3.59226
3.59226
3.59226
3.59226
3.59226
3.59226
3.59226
3.59226
3.59226
3.59226
3.59226
3.59226
3.59226
3.59226
3.59226
3.59226
3.59226
3.59226
3.59226
3.59226
3.59226
3.59226
3.59226
3.59226
3.59226
3.59226
3.59226
3.59226
3.59226
3.59226
3.59226
3.59226
3.59226
3.59226
3.59226
3.59226
3.59226
3.59226
3.59226
3.59226
3.59226
3.59226
4.00999
4.00999
4.00999
4.00999
4.00999
4.00999
4.00999
4.00999
4.00999
4.00999
4.00999
4.00999
4.00999
4.00999
4.00999
4.00999
4.00999
4.00999
4.00999
4.00999
4.00999
4.00999
4.00999
4.00999
4.00999
4.00999
4.00999
4.00999
4.00999
7.37888
7.37888
6.68568
6.68568
5.07578
5.07578
5.07578
5.07578
5.07578
5.07578
5.07578
5.07578
5.07578
5.07578
7.37888
7.37888
5.07578
5.07578
5.07578
5.07578
5.07578
5.07578
4.36869
5.07578
5.07578
5.07578
7.37888
7.37888
7.37888
5.56853
6.28016
6.28016
4.60543
4.60543
4.60543
4.60543
4.60543
4.60543
4.60543
4.60543
4.60543
4.60543
4.60543
4.60543
4.60543
4.60543
4.60543
4.60543
4.43341
4.43341
4.43341
4.43341
4.43341
4.43341
4.43341
4.43341
4.43341
4.43341
4.43341
3.73212
4.43341
4.43341
4.43341
4.43341
4.43341
4.43341
4.43341
7.37888
7.37888
7.37888
7.37888
4.48753
4.48753
4.48753
4.48753
4.48753
4.48753
4.48753
4.48753
4.48753
4.48753
4.48753
4.48753
4.48753
4.48753
4.48753
4.48753
4.48753
4.48753
6.28016
6.28016
6.28016
5.29904
5.29904
5.29904
5.29904
5.29904
5.29904
5.29904
5.29904
5.05889
5.05889
5.05889
5.05889
5.76921
