id,title
356	"'Mid the Cannon's Roar"
2752	"1812"
7669	"A Baby's Power"
7909	"A Big Joke"
7970	"A Bit of Oulde Ireland"
8075	"A Bolt from the Blue"
8102	"A bordo della 'Mafalda'"
8192	"A Brave Western Girl"
8278	"A Broken Spell"
8343	"A Bully's Waterloo"
8585	"A Case of Identity"
8613	"A Cat's Nine Lives"
8630	"A Cattle Rustler's Daughter"
8664	"A Central American Romance"
8757	"A Cheap Removal"
8778	"A Cheyenne Brave"
8780	"A Cheyenne's Love for a Sioux"
8799	"A Child of the Ghetto"
8807	"A Child of the Regiment"
8813	"A Child of the Wild"
8826	"A Child's Faith"
8835	"A Child's Impulse"
8841	"A Child's Message to Heaven"
8845	"A Child's Prayer"
8852	"A Child's Stratagem"
8899	"A Christmas Carol"
8933	"A Christmas Letter"
9053	"A Clever Ruse"
9079	"A Close Shave"
9095	"A Clown's Crime"
9135	"A Cold Storage Romance"
9145	"A College Chicken"
9150	"A Colonial Belle"
9307	"A Copper in the Copper"
9338	"A Costly Gift"
9403	"A Cowboy for Love"
9409	"A Cowboy's Daring Rescue"
9412	"A Cowboy's Generosity"
9416	"A Cowboy's Matrimonial Tangle"
9418	"A Cowboy's Mother-in-Law"
9420	"A Cowboy's Pledge"
9422	"A Cowboy's Race for a Wife"
9423	"A Cowboy's Reward"
9428	"A Cowboy's Vindication"
9467	"A Crowded Hotel"
9581	"A Dainty Politician"
9683	"A Darling Confusion"
9742	"A Daughter of the Mines"
9765	"A Daughter of Virginia"
9861	"A Day in the Life of a Coal Miner"
10019	"A Deal in Broken China"
10022	"A Deal in Indians"
10106	"A Desperate Remedy"
10173	"A Difficult Courtship"
10213	"A Discontented Woman"
10224	"A Dispensation"
10251	"A Dixie Mother"
10282	"A Dog on Business"
10449	"A Dream of Paradise"
10677	"A Family of Vegetarians"
10736	"A Fatal Picnic"
10741	"A Fateful Gift"
10755	"A Father's Love"
10852	"A Fickle Girl"
11019	"A Flash of Light"
11045	"A Flirty Affliction"
11156	"A Forester's Sweetheart"
11169	"A Fortunate Misfortune"
11231	"A Fresh Start"
11282	"A Frontier Hero"
11321	"A Funny Story"
11367	"A Gambler of the West"
11368	"A Gambler's End"
11379	"A Game for Two"
11396	"A Game of Hearts"
11432	"A Gaul's Honor"
11499	"A Georgia Possum Hunt"
11586	"A Girl of the Plains"
11704	"A Gold Necklace"
11872	"A Great Mistake"
12170	"A Hero in Spite of Himself"
12310	"A Home Melody"
12325	"A Honeymoon for Three"
12446	"A Hunting Story"
12453	"A Husband's Jealous Wife"
12454	"A Husband's Mistake"
12547	"A Japanese Peach Boy"
12551	"A Jar of Cranberry Sauce; or The Crime in Room 13"
12830	"A Knot in the Plot"
12938	"A Lad from Old Ireland"
13152	"A Life for a Life"
13277	"A Little Child's Letter"
13282	"A Little Confederate"
13397	"A Lively Skeleton"
13606	"A Lucky Toothache"
13614	"A Lunatic at Large"
13615	"A Lunatic Expected"
13653	"A Mad Infatuation"
13781	"A Man of Honor"
13857	"A Man's Way"
13912	"A Marriage of Convenience"
14027	"A Mechanical Husband"
14105	"A Message from the East"
14112	"A Message of the Sea"
14131	"A Mexican Lothario"
14132	"A Mexican Love Affair"
14135	"A Mexican Romance"
14176	"A Midnight Cupid"
14226	"A Mightier Hand"
14284	"A Miner's Sweetheart"
14402	"A Modern George Washington"
14425	"A Modern Paul Pry"
14458	"A Mohawk's Way"
14583	"A Mother's Gratitude"
14621	"A Mountain Blizzard"
14623	"A Mountain Maid"
14633	"A Mountain Wife"
14888	"A New Divorce Cure"
14899	"A New Hat for Nothing"
14944	"A Newspaper Error"
15001	"A Night Attack"
15009	"A Night in Armour"
15119	"A Noble Outcast"
15261	"A Page's Devotion"
15303	"A Pair of Schemers; or My Wife and My Uncle"
15561	"A Pesca do Bacalhau"
15730	"A Plain Song"
15758	"A Plucky American Girl"
15759	"A Plucky Girl"
15760	"A Plucky Lad"
15916	"A Present for His Wife"
16120	"A Queen of the Burlesque"
16191	"A Quiet Boarding House"
16236	"A Race for a Bride"
16306	"A Rake's Romance"
16314	"A Ranchman's Simple Son"
16315	"A Ranchman's Wooing"
16330	"A Rare Specimen"
16352	"A Real Live Teddy Bear"
16395	"A Red Girl's Friendship"
16406	"A Redman's Devotion"
16457	"A Reno Romance"
16501	"A Rich Revenge"
16579	"A Romance of an Anvil"
16585	"A Romance of Haymaking"
16610	"A Romance of the Prairie"
16623	"A Romance of the Western Hills"
16675	"A Rough Night on the Bridge"
16772	"A Sacrifice and Then"
16819	"A Salutary Lesson"
16982	"A Self-Made Hero"
17168	"A Shot in Time"
17224	"A Simple Mistake"
17262	"A Sinner's Sacrifice"
17266	"A Sioux's Reward"
17284	"A Sister's Devotion"
17325	"A Sleep Walking Cure"
17993	"A Summer Flirtation"
17995	"A Summer Idyll"
18004	"A Summer Tragedy"
18168	"A Tale of the Backwoods"
18176	"A Tale of the Sea"
18198	"A Tale of Two Coats"
18238	"A Tangled Masquerade"
18413	"A Texas Joke"
18420	"A Thanksgiving Surprise"
18490	"A Thrilling Story"
18590	"A Tin-Type Romance"
18690	"A Touching Affair"
18691	"A Touching Mystery"
18872	"A Trip Over the Rocky and Selkirk Mountains in Canada"
18897	"A Trip to Mars"
18944	"A Troublesome Parcel"
18954	"A True Country Heart"
18956	"A True Indian Brave"
18994	"A Twenty-Nine Cent Robbery"
19059	"A Vacation in Havana"
19088	"A Vein of Gold"
19177	"A Victim of Bridge"
19184	"A Victim of Hate"
19187	"A Victim of Jealousy"
19188	"A Victim of the Mormons"
19230	"A Village Love Story"
19347	"A Voice from the Fireplace"
19493	"A Ward of Uncle Sam"
19511	"A Warrior Bold"
19527	"A Wasted Effort"
19572	"A Wedding Trip from Montreal Through Canada to Hong Kong"
19627	"A Western Girl's Sacrifice"
19634	"A Western Maid"
19641	"A Western Romance"
19649	"A Western Welcome"
19651	"A Western Woman's Way"
19654	"A Westerner's Way"
19698	"A Widow and Her Child"
19730	"A Wild Goose Chase"
19757	"A Window to Let"
19796	"A Wireless Romance"
19801	"A Wise Guy"
19915	"A Woman's Better Nature"
19946	"A Woman's Love"
19970	"A Woman's Strategy"
19978	"A Woman's Treachery"
19993	"A Woman's Wit"
19994	"A Woman's Wit"
20031	"A Worker's Wife"
20134	"A Yorkshire School"
20820	"Aankomst van Legagneux in de Belgische hoofdstad"
21495	"Abernathy Kids to the Rescue"
22037	"Absent-Minded Arthur"
22310	"Académicien et vagabond"
22439	"Accidents Will Happen"
22465	"Accordi del cuore"
22908	"Acrobati comici"
22987	"Across the Plains"
23076	"Acte de probité"
23261	"Actors' Fund Field Day"
23392	"Ada di Vernon"
23711	"Addio alla vita da scapolo"
24211	"Adoring an Ad"
24277	"Adriana di Berteaux"
24703	"Advertising for a Wife"
24860	"Aeroplane Flight and Wreck (Piloted by M. Cody)"
24960	"Affaire d'honneur"
25068	"Afgrunden"
25534	"After Many Years"
25614	"After the Ball"
26395	"Agnese Visconti"
26698	"Ah Sing and the Greasers"
26711	"Ah! Ah!"
26943	"Ai mari ai monti ai laghi"
27235	"Aimez-vous les uns les autres"
27668	"Ajaccio the Birthplace of Napoleon"
29128	"Alaska's Adieu to Winter"
29156	"Alatri e la Certosa di Trisulti"
29184	"Albania ribelle"
29214	"Albergo birbone"
29404	"Alderman Krautz's Picnic"
29550	"Alessandria"
29893	"Algy Goes on the Stage"
29897	"Algy Tries for Physical Culture"
30100	"Alibi atroce"
30296	"Alice's Adventures in Wonderland"
31328	"All on Account of a Laundry Mark"
31329	"All on Account of a Lie"
31342	"All on Account of the Milk"
31617	"All the World's a Stage"
32350	"Alluvione a Cetara"
32542	"Almost"
32558	"Almost a Hero"
33381	"Alto mare a Caracciolo"
33390	"Alto tradimento!"
33656	"Am Abend"
33910	"Amalfi"
34235	"Amateur Night"
35712	"Amici d'infanzia"
35821	"Amitié de cow-boy"
35835	"Amleto"
35885	"Ammazziamo mio marito!"
36012	"Among the Roses"
36272	"Amore di santa"
36274	"Amore di schiava"
36276	"Amore di torero"
36294	"Amore e libertà"
36311	"Amore e tradimento"
36328	"Amore infranto"
36435	"Amour de page"
36441	"Amour et fromage"
36716	"An Advertisement Answered"
36731	"An Affair of Hearts"
36767	"An Afternoon Off"
36812	"An Alpine Retreat"
36840	"An American Count"
36960	"An Arcadian Maid"
36967	"An Arizona Romance"
36997	"An Assisted Elopement"
37190	"An Engineer's Sweetheart"
37217	"An Equine Hero"
37375	"An Exile's Love"
37492	"An Indian Girl's Love"
37504	"An Indian Maiden's Choice"
37520	"An Indian's Elopement"
37522	"An Indian's Gratitude"
37531	"An Indian's Test"
37594	"An Interrupted Honeymoon"
37735	"An Old Silver Mine in Peru"
37741	"An Old Story with a New Ending"
37843	"An Unfair Game"
37885	"An Unselfish Love"
39677	"Andorra pintoresca"
41198	"Animated Powders"
41313	"Anita Garibaldi"
41609	"Anna di Masovia"
42702	"Antica Ostia e le foci del Tevere"
42895	"Antonio Foscarini (Milleseicentoquarantasette [1647])"
42982	"Antwerpen in de jaren 10"
43923	"Apparitions fantômatiques"
44253	"Après la chute de l'Aigle"
45558	"Aristodemo"
45856	"Armi insidiose"
45922	"Arms and the Woman"
46176	"Arpa materna"
46502	"Arsène Lupin contra Sherlock Holmes"
46888	"Artiglieria da campagna"
46890	"Artiglieria svedese"
47310	"As It Is in Life"
47391	"As Prescribed by a Doctor"
47439	"As the Bells Rang Out!"
47830	"Ashes"
49398	"Astuzie d'amore"
49800	"At the Eleventh Hour"
49861	"At the Mercy of the Tide"
50756	"Attila (I Nibelunghi)"
50797	"Attraverso l'Umbria"
50859	"Au bord de la faute"
50937	"Au Kasaï"
51063	"Au temps des grisettes"
51065	"Au temps des premiers chrétiens"
51560	"Auld Robin Gray"
51590	"Aunt Julia's Portrait"
52338	"Autunnalia"
52664	"Avenged"
52805	"Aviation at Los Angeles California"
52809	"Aviation Meet of the Aero Club St. Louis Mo."
52818	"Aviazione a Milano"
52819	"Aviazione a Milano"
52825	"Avidità di denaro"
52981	"Avventura in un harem"
52992	"Avènement d'Albert I"
53143	"Away Out West"
53998	"B.P.O.E."
54575	"Baby Bet"
54830	"Baby the Peacemaker"
54855	"Baby's First Tooth"
55121	"Bacio fatale"
55133	"Back Among the Old Folks"
55356	"Back to Nature; or The Best Man Wins"
57420	"Balanchard en grève"
60434	"Baseball That's All"
60634	"Bassano"
62054	"Bear Hunt in the Rockies"
62083	"Bear Ye One Another's Burdens"
62095	"Bearhunting"
62298	"Beatrice di Tenda"
62870	"Becket"
63623	"Behind a Mask"
63878	"Behind the Scenes"
65433	"Benitez quiere ser torero"
65581	"Benvenuto Cellini"
65736	"Bergamo"
65946	"Berlino"
66102	"Bertie's Elopement"
67076	"Betty's Fireworks"
67582	"Beyond Endurance"
68021	"Bezoek van de Lord Major van Londen"
68022	"Bezoek van keizer Willem II aan Brussel. 25 oktober 1910"
68939	"Bidouillard assassin"
68970	"Biella"
69727	"Big Medicine"
70726	"Bill Plays Bowls"
71120	"Billy's Sister"
71839	"Birichinate moderne"
71877	"Birth of a Flower"
72087	"Biskra and the Sahara Desert"
72320	"Bitter-Sweet"
72513	"Bjørnstjerne Bjørnsons Lig føres gennem København"
73623	"Black Pete's Reformation"
74846	"Blind Love"
77341	"Bob il saltimbanco"
78395	"Bologna"
79081	"Bonne année"
79173	"Bonsoirs"
79174	"Bonsoirs russes"
79511	"Booming Business"
79589	"Bootles' Baby"
80197	"Bornéo Bill"
81289	"Boy Scouts of America in Camp at Silver Bay Lake George N.Y."
81332	"Boyarin Orsha"
81857	"Branding a Thief"
82883	"Brescia"
84343	"Broncho Billy's Redemption"
84554	"Brother Man"
84616	"Brothers"
84617	"Brothers"
84890	"Brugge - processie van het Heilig Bloed"
85010	"Brussel. De koning en de koningin vertrekken naar Frankrijk. 12 juli 1910"
85055	"Bruto"
85153	"Bröllopet på Ulfåsa"
85631	"Bud's Triumph"
85951	"Buffalo Hunting in Indo-China"
86706	"Bumpkin's Patent Spyopticon"
86712	"Bumptious as a Fireman"
86713	"Bumptious as an Aviator"
86715	"Bumptious Plays Baseball"
86716	"Bumptious Takes Up Automobiling"
86840	"Bunker's Patent Bellows"
86952	"Buon anno!"
86953	"Buon capodanno"
86975	"Buona sera!"
86978	"Buona sera fiori!"
88340	"Butteri a cavallo"
88661	"By His Own Hands"
88813	"Byakkotai"
89085	"Bébé apache"
89120	"Bébé fume"
89135	"Bébé pêcheur"
89546	"C-H-I-C-K-E-N Spells Chicken"
89840	"Caccia alla volpe a Roma"
89953	"Cadde un martello"
90017	"Cadres fleuris"
90228	"Cagliostro aventurier chimiste et magicien"
90285	"Caino"
90382	"Calahorra una industria importante"
90694	"Calino a du monde à dîner"
90698	"Calino achète un chien de garde"
90701	"Calino arroseur public"
90705	"Calino avocat"
90715	"Calino déménage"
90716	"Calino emménage"
90722	"Calino et son chapeau"
90724	"Calino facteur"
90727	"Calino fait sa demande en mariage"
90728	"Calino figurant"
90733	"Calino joue au billard"
90743	"Calino réveillonne"
90746	"Calino se marie"
90749	"Calino suit son régime"
90751	"Calino travaille"
90753	"Calino veut se suicider"
90755	"Calino voyage"
90756	"Calino à la chasse"
90757	"Calino à la pêche"
91130	"Calunnia"
91337	"Cameriera infedele"
92533	"Cane doganiere contro cane contrabbandiere"
93073	"Capital vs. Labor"
93151	"Capri"
93169	"Capriccio di dama"
93170	"Capriccio di donna"
93245	"Captain Barnacle's Chaperone"
93700	"Caractéristiques des mouvements"
94047	"Carità cristiana"
94138	"Carlo IX"
94383	"Carminella"
94628	"Carnival of Japanese Firemen in Tokio"
94770	"Carosello militare a Torino"
94876	"Carrie de Mar"
95042	"Cartagine"
95264	"Casa paterna"
95371	"Cascate norvegesi"
95509	"Casilda la gitana"
95680	"Cast Into the Flames"
95689	"Cast Thy Bread Upon the Waters"
95690	"Cast Thy Bread Upon the Waters"
95721	"Castel Sant'Angelo"
95731	"Castellano e zingara"
96338	"Caterina duchessa di Guisa"
96424	"Catilina"
96563	"Caught by Cowboys"
96566	"Caught by the Camera"
96665	"Caught in the Rain"
96682	"Caught Napping"
96980	"Caïn"
96983	"Caïn et Abel"
98761	"Chamois Hunt in the Tyrol"
98832	"Champion de puzzle"
99366	"Chantecler Atraiçoado"
99728	"Charles Quint"
99819	"Charlie and Kitty in Brussels"
101685	"Chew Chew Land; or The Adventures of Dolly and Jim"
101831	"Chi fu il colpevole?"
101838	"Chi l'ha uccisa?"
101960	"Chibusa no Enoki"
102165	"Chicken"
102318	"Chicot"
102546	"Chikyôdai"
103400	"Chioggia"
104052	"Chopin e George Sand"
105491	"Chûshingura godanme"
105569	"Ciblomanie"
106171	"Cinquantesimo anniversario Cavalleggeri Guide XIX"
106286	"Cipolla ha ricevuto un calcio"
106315	"Circle C Ranch's Wedding Present"
106404	"Circuito ciclistico di Brescia"
106693	"Cissy's Money Box"
107102	"Ciuffettino"
107261	"Clancy"
108425	"Closed Gate"
108872	"Cléopâtre"
109074	"Coaching in Devonshire England"
109097	"Coals of Fire"
109343	"Cock-a-Doodle-Doo"
109400	"Cocksure's Clever Ruse"
109455	"Cocoanut Plantation"
109479	"Cocò e il terremoto"
109482	"Cocò negro per amore"
109483	"Cocò non ha più scarpe"
109484	"Cocò poliziotto"
109486	"Cocò va soldato"
109694	"Coeur de guerrier"
109702	"Coeur de père"
109827	"Cohen and Murphy"
110510	"Colonnello a venticinque anni"
110701	"Colpa di figlio"
111077	"Come fu che l'ingordigia rovino il Natale a Cretinetti"
111189	"Come si beve una tazza di caffè"
111706	"Comizio Bennicelli"
111874	"Commemorazione dei Mille"
111875	"Commemorazione del centenario della nascita di Cavour a Torino"
111903	"Comment le cinéma se défend contre la grève"
111909	"Comment Max fait le tour du monde"
111952	"Commiato finestra"
112104	"Como"
112253	"Compagni di catena"
112284	"Company D to the Rescue"
112419	"Comportement 'in vitro' des amibocytes de l'anodonte"
112445	"Compromised by a Key"
112905	"Concorso floreale a Torino"
113132	"Confederate Spy"
113651	"Conscience"
113667	"Conscience de fou"
114193	"Contrasti della vita"
114417	"Convict No. 796"
114860	"Coraggio di fanciullo"
114978	"Corda fratres"
115365	"Corrida da Rampa"
115372	"Corrida de Cocherito de Bilbao en el toreo"
115380	"Corrida de Gaona en el toreo"
115384	"Corrida de Lagartijillo Cocherito de Bilbao y Gaona"
115386	"Corrida de Segura y Gaona en el toreo"
115402	"Corrida de toros en Mexico"
115403	"Corrida de toros en Morelia"
115406	"Corrida de toros organizada por la unión universal de estudiantes"
115412	"Corrida de Vicente Segura y Rodolfo Gaona en el toreo"
115476	"Corsa negli abissi"
115477	"Corsa podistica a Vicenza"
116283	"County Fair"
116732	"Cow-boy and the Squaw"
116758	"Cowboy and the Easterner"
116796	"Cowboy Justice"
117382	"Crazy Apples"
117770	"Creditore tenace"
117913	"Cretinetti al ballo"
117916	"Cretinetti antialcoolista"
117922	"Cretinetti chauffeur"
117924	"Cretinetti compera due soldi di patate"
117926	"Cretinetti distratto"
117929	"Cretinetti e il pallone"
117931	"Cretinetti e le donne"
117933	"Cretinetti facchino"
117936	"Cretinetti finto frate"
117937	"Cretinetti fra due fuochi"
117944	"Cretinetti impara il salto mortale"
117945	"Cretinetti impiegato di banca"
117953	"Cretinetti nella gabbia dei leoni"
117955	"Cretinetti pescatore"
117957	"Cretinetti poliziotto"
117959	"Cretinetti re dei giornalisti"
117962	"Cretinetti riceve"
117964	"Cretinetti sa prendere le sue precauzioni"
117965	"Cretinetti sa tutto e fa tutto"
117966	"Cretinetti si batte al cannone"
117970	"Cretinetti sposo suo malgrado"
117973	"Cretinetti vittima della sua onestà"
117974	"Cretinetti volontario della Croce Rossa"
117976	"Cretinetti vuol sposare la figlia del padrone"
117978	"Cretinetti è timido"
117979	"Cretinetti è un gentleman"
118550	"Crociera motonautica sul Po"
119096	"Crudele attesa"
120858	"Cuor d'oro"
120879	"Cuore di bimbi"
120886	"Cuore di madre"
120894	"Cuore di nonno"
120902	"Cuore di vagabondo"
120978	"Cupid and the Motor Boat"
120985	"Cupid at the Circus"
121051	"Cupid's Comedy"
121066	"Cupid's Message Goes Astray"
121159	"Curing a Grouch"
121162	"Curing a Masher"
121806	"Cyclone Pete's Matrimony"
122507	"Da Courmayeur al Colle del Gigante"
122686	"Da rapitore a salvatore"
123080	"Daddy's Double"
123624	"Daisies"
123805	"Dal sogno alla realtà"
123939	"Dall'amore al martirio"
123988	"Dalle tenebre alla luce"
124420	"Dan the Arizona Scout"
125613	"Dans les airs"
125629	"Dans les ruines de Carthage"
125711	"Danses cambodgiennes"
127308	"Das Geheimnis der Toten"
128097	"Das Mädchen mit den Schwefelhölzern"
128911	"Das vierte Gebot. Du sollst den Vater und die Mutter ehren"
129381	"Dave Craggs Detective"
129524	"David et Goliath"
129648	"Davy Crockett"
129659	"Davy Jones and Captain Bragg"
129661	"Davy Jones' Domestic Troubles"
129662	"Davy Jones' Landladies"
130561	"De graaf van Turijn in Kongo"
130680	"De juwelenstoet te Antwerpen"
131238	"De Raid Parijs-Brussel per vliegtuig"
131379	"De spoorlijn van de watervallen"
133456	"Debt"
134822	"Delightful Dolly"
134924	"Delitto svelato"
135579	"Den hvide slavehandel"
135743	"Den skæbnesvangre opfindelse"
136281	"Der Amateur-Detektiv"
136851	"Der Eremit"
137382	"Der Graf von Luxemburg: Liebe o wie zuckersüß"
137383	"Der Graf von Luxemburg: Mädel klein Mädel fein"
137384	"Der Graf von Luxemburg: Polkatänzer"
137544	"Der Hausarzt"
137674	"Der Hund des alten Leiermanns"
137695	"Der Hut im Kino"
137707	"Der Hühneraugenoperateur"
138198	"Der Leuchtturmwächter"
138560	"Der Müller und sein Kind"
138610	"Der neue Musikprofessor im Mädchenpensionat"
139098	"Der Schneeschuhläufer in Nöten"
140324	"Dernier duel"
142380	"Deux petits Jésus"
142394	"Deux vieux garçons"
142813	"Devoted Playmates"
144089	"Dickey's Courtship"
144177	"Didone abbandonata"
144273	"Die Ahnfrau"
144689	"Die böse Schwiegermutter"
145481	"Die geheimnisvolle Streichholzdose"
147953	"Die Tipp-Mamsell"
148257	"Die Vernunft des Herzens"
148383	"Die Wahrheit"
148468	"Die Welt geht unter"
150030	"Dirigibile italiano"
151625	"Dix siècles d'élégance"
152466	"Doccia fredda"
152525	"Docteur Phantom - Épisode 1: A Sister's Sin"
152526	"Docteur Phantom - Épisode 2: La fièvre jaune"
152527	"Docteur Phantom - Épisode 3: Les mémoires du Docteur Phantom"
152528	"Docteur Phantom - Épisode 4: Sauvé par sa science"
152529	"Docteur Phantom - Épisode 5: Séquestrée"
152530	"Docteur Phantom - Épisode 6: The Devil Woman"
153033	"Doge e dogaressa"
153226	"Doings at the Ranch"
153764	"Domani nuovo programma"
153765	"Domani nuovo programma"
154006	"Don Abbondio ha buon tempo"
154031	"Don Carlos"
155194	"Dooley Referees the Big Fight"
155195	"Dooley's Holiday"
155349	"Dopo l'espiazione"
155350	"Dopo la battaglia (Azione medioevale)"
155457	"Dora Thorne"
155732	"Dorothy's Motor Car"
156059	"Dots and Dashes"
156804	"Dove collochiamo il quadro?"
156811	"Dove ho messo il mio stilografo?"
157394	"Dr. Brian Pellie Thief and Coiner"
159649	"Drowsy Dick Officer No. 73"
159792	"Drumsticks"
160584	"Duecentomila lire per uno schiaffo"
164822	"Een bezoek aan den dierentuin te Antwerpen"
165047	"Effecting a Cure"
166413	"Ein Unglück in der Kinderstube"
168810	"El derby mexicano"
169612	"El gran Te Deum del Viernes Santo de 1910 en la catedral de Lima"
170727	"El moscardón"
171999	"El satario"
173157	"Elda of the Mountains"
173163	"Elder Alden's Indian Ward"
173174	"Eldora the Fruit Girl"
173362	"Electric Insoles"
173484	"Elektra"
174258	"Eloquenza di un fiore"
174345	"Elskovsbarnet"
174392	"Elverhøj"
174848	"Emigrant"
175388	"En Afrique Centrale Fachoda"
176055	"En route"
176234	"En Égypte élevage d'autruches - Épisode 1"
176235	"En Égypte élevage d'autruches - Épisode 2"
177143	"English Cup Final: Barnsley V. Newcastle United"
177410	"Enrico V di Lusignac"
177797	"Entre le devoir et l'honneur"
177966	"Entsühnt"
178322	"Equal to the Emergency"
178474	"Era destino!"
178912	"Ero e Leandro"
178940	"Eroico pastorello"
178945	"Eroina calabrese"
178950	"Eroismo di madre"
179269	"Erratic Power"
179343	"Eruzione dell'Etna"
179557	"Es wär so schön gewesen"
180003	"Escursioni sulla catena del Monte Bianco"
180034	"Esequie di Pilade Mazza"
180036	"Esercitazioni dei pompieri veneziani"
180047	"Esercizi del I Nizza Cavalleria"
180051	"Esercizio di equitazione della missione cinese"
180379	"Esperimento per circuito aereo a Firenze"
180452	"Esposizione di Torino"
180736	"Esther"
181528	"Eugénie Grandet"
182548	"Every Wrong Shall Be Righted"
183316	"Examination Day at School"
184312	"Extracting a Cheque from Uncle"
184316	"Extraction sans douleur"
186050	"Faithful"
186058	"Faithful Max"
186476	"Falsa accusa"
188596	"Fatale rassomiglianza"
188714	"Father and Son"
188781	"Father Minds the Baby"
188856	"Father's Legacy: A Goat"
188916	"Fatima"
189070	"Faust"
189531	"Fede di bimba"
189646	"Feeding Seals at Catalina Isle"
189735	"Feest te Brussel ter eere van den heer Max burgemeester"
190570	"Ferdie's Vacation"
190615	"Feria de primavera en la ciudad de Aguascalientes"
190667	"Fermo posta"
190727	"Ferocetti domatore"
190739	"Ferragus"
190867	"Festa religiosa al Cairo"
190884	"Feste commemorative dei Mille a Palermo e a Calatafimi con l'intervento dei Sovrani"
190885	"Feste commemorative di Palermo"
190888	"Feste montenegrine"
190895	"Festeggiamenti per la battaglia di S. Martino del 7° e 8° fanteria"
191431	"Fides"
191626	"Fiestas del centenario de la independencia I"
191627	"Fiestas del centenario de la independencia II"
191628	"Fiestas del centenario de la independencia III"
191629	"Fiestas del centenario de la independencia IV"
192659	"Fin de réveillon"
193429	"Fior di morte"
193450	"Fiori d'arancio"
193749	"Firenze"
194592	"Fits and Misfits"
195302	"Flat to Rent"
195543	"Fleur des maquis"
196298	"Flower Parade at Pasadena California"
196613	"Flygveckans lyckade täflingar"
196945	"Folchetto di Narbona"
197510	"Football en famille"
197675	"For a Western Girl"
197826	"For Her Country's Sake"
197827	"For Her Father's Honor"
197846	"For Her Sister's Sake"
197848	"For Her Son's Sake"
197878	"For His Sister's Honor"
198142	"For the Love of a Showman"
198181	"For the Love of Red Wing"
198223	"For the Sunday Edition"
198900	"Forgiven"
198901	"Forgiven"
199030	"Forlì"
199273	"Fortune's Fool"
199290	"Fortunetti insetticida"
199291	"Fortunetti parte per la villeggiatura"
199541	"Fouquet l'homme au masque de fer"
199955	"Fra Diavolo"
199976	"Fra i gorghi dell'Adda"
199978	"Fra i monti nevosi!"
199981	"Fra il Sangro e il Sagittario"
199990	"Fra le balze"
199993	"Fra le spire della Rivoluzione Francese"
199994	"Fra le stelle"
200301	"Francesca da Rimini"
200478	"Frank Merriwell in Arizona; or The Mystery Mine"
200554	"Frankenstein"
200772	"Françoise de Remini"
201200	"Fred Sato and His Clever Dogs"
201438	"Free Trade"
201778	"French Army Manoeuvres at Picardie"
202301	"Fricot beve la medicina"
202306	"Fricot diventa libertino"
202324	"Fricot ha smarrito il bottone"
202325	"Fricot impara un mestiere"
202326	"Fricot impiegato municipale"
202334	"Fricot va in collegio"
202652	"Frightened Freddy the Fearful Policeman"
202653	"Frightened Freddy: How Freddy Won a Hundred Pounds"
202774	"Frivolezza che genera la colpa"
203001	"From Gipsy Hands"
203194	"From the Arctics to the Tropics"
203617	"Fruit and Flowers"
203621	"Fruit Growing Grand Valley Colorado"
203744	"Frères ennemis"
204483	"Fukkatsu"
204898	"Funerailles d'Édouard VII roi d'Angleterre 20 mai 1910"
204942	"Funerale di Chavez"
204951	"Funerali dell'on. Andrea Costa a Bologna"
204952	"Funerali di Chavez"
205169	"Furia di onde"
205658	"Fâcheuse méprise"
205668	"Fänrik Ståls sägner"
205694	"Færøerne: Øgruppe i Atlanterhavet"
206699	"Galatée"
206848	"Gallegher"
207879	"Gaona y Lagartijillo en el toreo"
207910	"Gara di motonauti: Arrivo a Venezia"
208098	"Gare di sky a Bardonecchia"
208457	"Gastone e Robinet vogliono prender moglie"
208458	"Gastone è troppo bello"
209893	"Generosità di rivale"
209894	"Generosità e perdono"
211125	"Get Rich Quick"
211442	"Getting Rid of Uncle"
212287	"Giac è troppo cortese"
212315	"Giambattista Pergolesi"
212393	"Giardino zoologico di Roma"
212581	"Gigetta al reggimento"
212591	"Gigetta si vendica di Robinet"
212845	"Ginevra di Scozia"
212927	"Ginhara ou Fidèle jusqu'à la mort"
212991	"Gioacchino Murat"
213042	"Giorgione"
213085	"Giotto di Bondone"
213103	"Giovanna la pazza"
213110	"Giovanni dalle bande nere"
213496	"Girlies"
213503	"Girls"
213889	"Girls Will Be Boys"
214104	"Giudice e padre"
214118	"Giulia Colonna"
214173	"Giusto castigo"
214692	"Gli amori degli angeli"
214693	"Gli amori del capitano d'Armagnac"
214728	"Gli entusiasti del riposo festivo"
214742	"Gli iconoclasti"
214806	"Gli sport alla moda"
215533	"Go West Young Woman Go West"
216081	"Goeshen"
216664	"Gold Is Not All"
217290	"Gone to Coney Island"
218575	"Gotch-Zbyszko World's Championship Wrestling Match"
218741	"Government Rations"
219007	"Grado e le lagune di Aquileja"
219041	"Graf Gallas"
219202	"Gran Premio Peugeot (Corsa automobilistica del settembre 1910 a Torino)"
219253	"Grand Central Power House Explosion"
219258	"Grand concours de la médaille"
219409	"Granddad's Extravagance"
219445	"Grandeur d'âme"
219550	"Grandpa Sews on a Button"
219566	"Grandpa's Will"
219758	"Gratitude"
219922	"Graziosa"
220058	"Great Fight at All-Sereno"
221482	"Gräfin Ankarström"
221899	"Guerra di donne"
223259	"Guérison de l'obésité en 5 minutes"
223702	"Göetz mano di ferro"
224730	"Haine implacable"
224967	"Hako's Sacrifice"
225731	"Hamlet"
225732	"Hamlet"
226521	"Hank and Lank: As Sandwich Men"
226522	"Hank and Lank: Blind Men"
226523	"Hank and Lank: Joyriding"
226524	"Hank and Lank: Lifesavers"
226525	"Hank and Lank: They Dude Up Some"
226526	"Hank and Lank: They Get Wise to a New Scheme"
226528	"Hank and Lank: They Take a Rest"
226529	"Hank and Lank: Uninvited Guests"
227256	"Happy Jack a Hero"
229867	"Hazel the Heart Breaker"
230071	"He Met the Champion"
230128	"He Stubs His Toe"
230181	"He Who Laughs Last"
230727	"Heart of Oak"
230995	"Hearts of Gold"
231020	"Hearts of the West"
231385	"Hebenke"
233211	"Henry VIII and Catherine Howard"
233229	"Henry's New Hat"
233231	"Henry's Package"
233327	"Her Battle for Existence"
233394	"Her City Beaux"
233409	"Her Cowboy Lover"
233477	"Her Fatal Mistake"
233492	"Her Father's Pride"
233495	"Her Father's Sin"
233501	"Her Favorite Tune"
233548	"Her First Husband's Return"
233560	"Her First Long Dress"
233665	"Her Husband's Deception"
233693	"Her Indian Mother"
233722	"Her Lesson"
233812	"Her Mother's Wedding Gown"
233890	"Her Photograph"
234002	"Her Terrible Ordeal"
234003	"Her Terrible Peril"
234573	"Hernani"
234644	"Herod and the New Born King"
235582	"Hexenlied"
236006	"Hidden Under Campfire"
237496	"Hiring a Gem"
237770	"His Duty"
237866	"His First Valentine"
237911	"His Gypsy Sweetheart"
237947	"His Hunting Trip"
237951	"His Imaginary Crime"
237954	"His Indian Bride"
237962	"His Just Deserts"
237973	"His Last Burglary"
237985	"His Last Dollar"
238017	"His Little Son Was with Him All the Time"
238059	"His Majesty's Guests Steal a Holiday"
238100	"His Mother"
238110	"His Mother's Letter"
238121	"His Mother's Thanksgiving"
238157	"His New Family"
238160	"His New Lid"
238194	"His Only Child"
238195	"His Only Daughter"
238300	"His Second Wife"
238310	"His Sergeant's Stripes"
238312	"His Sick Friend"
238324	"His Sister-In-Law"
238397	"His Vacation"
238429	"His Week's Pay"
238486	"His Wife's Sweethearts"
238568	"Histoire de chapeaux"
238933	"History Repeats Itself"
239514	"Ho perduto la chiave"
239589	"Hoboes' Christmas"
239891	"Hoken kirai"
241206	"Home Made Mince Pie"
242590	"Hop-Frog"
242824	"Horibe Yasubei"
245109	"How Bumptious Papered the Parlor"
245230	"How He Won Her"
245248	"How Hubby Got a Raise"
245249	"How Hubby Made Good"
245299	"How I Won the VC"
245416	"How Rastus Gets His Turkey"
245420	"How Scroggins Found the Comet"
245434	"How She Won Him"
245521	"How the Squire Was Captured"
245526	"How the Tenderfoot Made Good"
247112	"Human Hearts"
247684	"Hunting Sea Lions in Tasmania"
248208	"Hvem er hun?"
248424	"Hydrothérapie fantastique"
248557	"Hypnotized"
249501	"I castelli del Lazio"
249513	"I cavalieri della morte"
249578	"I corazzieri italiani"
249774	"I drammi della notte"
249808	"I duchi della Tolfa"
249815	"I due collegiali"
249846	"I due orsi"
250017	"I fratelli D'Argo"
250026	"I fratelli triestini a Milano"
250050	"I funerali dei coniugi Pompilji a Roma"
250054	"I funerali di Don Rua a Torino"
250061	"I funerali di S.E. Mirabello a Milano"
250091	"I giardini imperiali di Potsdam"
250157	"I grandi cantieri per i lavori del monumento a Vittorio Emanuele II in Roma"
250873	"I marenghi di Lolò"
251154	"I piccoli esploratori italiani"
251212	"I principini di Genova"
251213	"I prodigi delle ferrovie alpine"
251672	"I tre fratelli"
251676	"I tre ladroni"
251678	"I tre mariti fedeli"
252699	"Ibis"
253603	"Idiot"
254657	"Il bandito dalla maschera nera"
254681	"Il barone Lagarde"
254689	"Il baule misterioso"
254708	"Il biglietto d'alloggio"
254709	"Il biglietto da cento"
254713	"Il biglietto di favore"
254725	"Il boia"
254742	"Il bracconiere"
254753	"Il buon angelo della casa"
254757	"Il buon samaritano"
254817	"Il candidato femminista"
254822	"Il cane del salumiere"
254832	"Il cane spazzacamino"
254845	"Il capitano"
254854	"Il capodanno della gelosa"
254855	"Il capodanno di Robinet"
254859	"Il caporale Durand"
254868	"Il cappello prezioso"
254884	"Il carnevale a Nizza del 1910"
254920	"Il castello avito"
254978	"Il ciclone di Saronno"
254999	"Il cinque marzo"
255088	"Il conte di Montravers"
255165	"Il Danaro di Giuda (Vandea 1793)"
255192	"Il delitto di Cretinetti"
255195	"Il delitto di Moltrasio"
255197	"Il delitto di un pescatore"
255268	"Il disastro di Calitri"
255276	"Il disertore"
255299	"Il dolore che uccide"
255317	"Il dottor Antonio"
255325	"Il dramma del macchinista"
255336	"Il duca d'Alba"
255340	"Il duca di Arles"
255349	"Il duello di Robinet"
255351	"Il duomo di Milano"
255375	"Il falconiere"
255380	"Il fallo della nonna"
255386	"Il fanciullo della montagna"
255458	"Il figlio adottivo della guardia"
255525	"Il fiume Moskowa e le sue sponde"
255578	"Il garofano rosso"
255599	"Il genio del lago"
255635	"Il giocoliere"
255672	"Il giro ciclistico d'Italia (serie A: prima serie)"
255673	"Il giro ciclistico d'Italia (serie A: seconda serie)"
255674	"Il giro ciclistico d'Italia (serie B: prima serie)"
255675	"Il giro ciclistico d'Italia (serie B: seconda serie)"
255676	"Il giro ciclistico d'Italia (serie C: prima serie)"
255677	"Il giro ciclistico d'Italia (serie C: seconda serie)"
255720	"Il granatiere Roland"
255754	"Il guanto"
255755	"Il guardiacaccia"
255779	"Il ladro gentiluomo"
255792	"Il lago di Garda"
255793	"Il lago di Garda"
255794	"Il lago di Lugano"
255801	"Il lanciere polacco"
255822	"Il libro di preghiere"
255899	"Il maresciallo Villars"
255922	"Il matanna"
255929	"Il matrimonio di Cocò"
255945	"Il mazzo di fiori"
256035	"Il mistero del cosacco"
256043	"Il mistero del Ponte dei Sospiri"
256120	"Il monile"
256176	"Il Natale del Duca di Pahr"
256179	"Il Natale della maestrina"
256182	"Il Natale di Pierino"
256183	"Il Natale di Roma (Festa di bambini a Villa Umberto I)"
256202	"Il nemico"
256215	"Il Nilo"
256218	"Il nodo al fazzoletto"
256280	"Il parapioggia di Fricot"
256318	"Il perdono"
256354	"Il piccolo Boby"
256357	"Il piccolo cantoniere"
256435	"Il polentone a Pont Canavese"
256458	"Il portafoglio"
256482	"Il pozzo che parla"
256485	"Il pranzo del tenente"
256521	"Il primo amore"
256528	"Il primo dolore"
256567	"Il processo dei russi a Venezia"
256568	"Il processo dei russi a Venezia"
256598	"Il prurito di Robinet"
256623	"Il racconto del nonno"
256649	"Il ratto delle Sabine"
256652	"Il ratto di Proserpina"
256690	"Il regalo di nozze"
256730	"Il riservista"
256754	"Il ritorno dell'emigrato"
256765	"Il ritratto"
256770	"Il ritratto rivelatore"
256792	"Il romanzo di un fantino"
256811	"Il rubino"
256817	"Il rustico"
256819	"Il Sacco di Roma"
256823	"Il sacrificio di Marta"
256841	"Il sapone del carbonaio"
256863	"Il segreto del ghiacciaio"
256865	"Il segreto del gobbo"
256866	"Il segreto del lago"
256883	"Il segreto della fidanzata"
256947	"Il signor Paurosi"
257018	"Il soldato della Croce"
257064	"Il suicidio di Ravioli"
257073	"Il suonatore di chitarra"
257081	"Il taglialegna"
257123	"Il terremoto d'Avellino"
257124	"Il terremoto del 7 giugno 1910 in Irpinia"
257128	"Il terremoto nell'Irpino"
257138	"Il terrore della coscienza"
257216	"Il trionfale arrivo del dirigibile n. 2 bis all'hangar di Campalto a Venezia"
257233	"Il trovatello"
257234	"Il trovatore"
257235	"Il trovatore"
257268	"Il varo della corazzata 'Dante'"
257291	"Il ventaglio miniato"
257310	"Il veterano"
258103	"Im Wannseebad."
258269	"Imagination"
258666	"Imperfect Perfectos"
258675	"Imperia (La grande cortigiana del secolo XVII)"
258704	"Impersonating the Policeman Lodger"
258718	"Impiegomania"
258785	"Impressioni artistiche veneziane"
258855	"Imprudenza fatale"
259378	"In den dierentuin van Antwerpen"
259499	"In fattoria"
259541	"In Full Cry"
259613	"In Her Father's Absence"
259710	"In Lapponia"
259722	"In Life's Cycle"
259889	"In Neighboring Kingdoms"
259904	"In Norvegia"
259913	"In Old California"
260306	"In tempo di guerra"
260392	"In the Border States"
260619	"In the Frozen North"
260645	"In the Golden Harvest Time"
260646	"In the Good Old Days"
260662	"In the Great Northwest"
260682	"In the Hands of the Enemy"
260835	"In the Mission Shadows"
260863	"In the Mountains of Kentucky"
260906	"In the Nick of Time"
260991	"In the Season of Buds"
260993	"In the Serpent's Power"
261021	"In the Shadow of Mount Shasta"
261111	"In the Tall Grass Country"
261167	"In the Web"
261176	"In the Wild West"
261178	"In the Wilderness"
261314	"In Val Nerina"
261317	"In vedetta"
261522	"Inauguration de l'exposition internationale de Bruxelles le 23 avril 1910"
261540	"Inaugurazione della Cappella Espiatoria di Umberto I a Monza"
261542	"Inaugurazione della XXIV legislatura"
261613	"Incendie de l'exposition de Bruxelles"
262078	"Indian Pete's Gratitude"
262297	"Indiscretions of Betty"
262393	"Industria del cotone"
262395	"Industria della birra"
262397	"Industria delle candele"
262426	"Industries in Southern California"
262749	"Infusoire holotriche de la famille des philasteridea"
265375	"Into the Jaws of Death"
265651	"Inundaciones en Lérida"
265837	"Invigorating Electricity"
266891	"Isabella d'Aragona"
267022	"Ishiyama gunki"
267087	"Isis"
267327	"Isle of Wight"
267931	"It Pays to Advertise"
268820	"Ito the Beggar Boy"
269889	"Jack Fat and Jim Slim at Coney Island"
270816	"Jailbird in Borrowed Feathers"
270993	"Jake's Daughter"
271296	"James J. Corbett; or How Championships Are Won and Lost"
271524	"Jane and the Stranger"
271557	"Jane Eyre"
271558	"Jane Eyre"
272033	"Jaripeo y fiestas en Jalapa"
272643	"Je veux mourir!"
272654	"Je voudrais un enfant"
272739	"Jean and the Calico Doll"
272740	"Jean and the Waif"
272773	"Jean Goes Fishing"
272774	"Jean Goes Foraging"
272835	"Jean the Matchmaker"
273247	"Jeffries-Johnson World's Championship Boxing Contest Held at Reno Nevada July 4 1910"
273371	"Jemmy"
273407	"Jenks' Day Off"
274333	"Jeunesse"
274917	"Jim Bridger's Indian Bride"
274926	"Jim Crow"
274979	"Jim the Ranchman"
276327	"John Dough and the Cherub"
276365	"John Halifax Gentleman"
276920	"Jolicoeur ama i fiori"
276921	"Jolicoeur ama il ballo"
276922	"Jolicoeur ama il foot-ball"
276923	"Jolicoeur ama il salto"
276924	"Jolicoeur ama la boxe"
276926	"Jolicoeur bella chioma"
276927	"Jolicoeur e il suo primo furto"
276938	"Jolicoeur spadaccino"
276940	"Jolicoeur... affittacamere"
276941	"Jolicoeur... amoroso"
277109	"Jones Tests his Wife's Courage"
277652	"Jour d'échéance"
278982	"Julia ed Egeria"
279807	"Jura de la bandera en Orizaba"
280584	"Justice in the Far North"
280602	"Justice royale"
280669	"Justinian and Theodora"
280912	"Jérusalem et le Mont des Oliviers"
283891	"Kansei Soga"
286646	"Keian taiheiki Yui Shôsetsu"
287951	"Khmara"
289877	"King Cotton"
291202	"Kit Carson"
292357	"Knyazhna Tarakanova"
292451	"Kobayashi Tomijiro sogi"
295553	"Krybskyttens søn"
295680	"Ksiezna Anna Mazowiecka"
297291	"Kyokotsu danji Ôshio Heihachiro"
297345	"Kyrelor bandit par amour"
298088	"L'abisso"
298106	"L'absente"
298277	"L'agence Alice ou La sécurité des ménages"
298294	"L'agnello di Pippo"
298308	"L'aigle des roches"
298309	"L'aigle et l'aiglon"
298330	"L'airoso"
298380	"L'alibi"
298484	"L'ambition d'Agénor le Chauve"
298655	"L'amour du ranch"
298680	"L'amour et le temps"
298689	"L'amour guette"
298764	"L'an 1000"
298809	"L'angelo"
299062	"L'argentier de Louis XI"
299298	"L'attaque d'un train"
299387	"L'automate du Dr. Smith"
299404	"L'autre"
299429	"L'autre mère"
299465	"L'ave Maria di Gounod"
299493	"L'aventurière"
299553	"L'axolotl"
299554	"L'aéroplane de Fouinard"
299652	"L'emmurée des Balkans"
299699	"L'encrier perfectionné"
299709	"L'enfance d'Oliver Twist"
299711	"L'enfance de l'art"
299724	"L'enfant aux deux mères"
299760	"L'enfant disgracié"
299857	"L'enseveli de Tebesa"
299858	"L'ensorceleuse"
299939	"L'eruzione dell'Etna"
299940	"L'eruzione dell'Etna"
299958	"L'escapade de Bob"
300047	"L'estrazione dello zolfo in Sicilia"
300096	"L'exode"
300123	"L'habit neuf"
300166	"L'heureux accident"
300226	"L'homme aux deux visages"
300229	"L'homme aux mille inventions"
300314	"L'homme mystérieux"
300413	"L'honneur du scaphandrier"
300444	"L'héritage"
300471	"L'héritière"
300519	"L'idroplano Forlanini"
300524	"L'idylle du peintre"
300525	"L'idéal d'Arias"
300533	"L'ignota"
300545	"L'illusion des yeux"
300555	"L'image"
300646	"L'incendio alla manifattura tabacchi"
300768	"L'infidélité d'Ernest"
300789	"L'ingénieux attentat"
300878	"L'intrigante"
300881	"L'intrigo della marchesa"
300905	"L'inventeur"
300914	"L'invention du tailleur"
300981	"L'isola di Malta"
300993	"L'istitutrice"
301066	"L'odio"
301109	"L'oeuvre accomplie"
301148	"L'ombra del passato"
301153	"L'ombra della mamma"
301286	"L'ordinanza del tenente"
301384	"L'Othello de la plage"
301415	"L'ultima amica"
301685	"L'usuraio"
301752	"L'échafaudage"
301763	"L'écharpe"
301780	"L'éclusier"
301864	"L'élixir de bravoure"
301865	"L'élixir de jouvence"
301983	"L'étranger"
302020	"L'évadé des Tuileries"
302030	"L'évasion d'un truand"
302033	"L'évasion de Vidocq"
302377	"La ballata della strega"
302386	"La bambola consolatrice"
302392	"La bambola di Wanderow"
302484	"La baronessa di Carini"
302504	"La basilica di San Marco e il palazzo dei Dogi a Venezia"
302552	"La battaglia di Legnano"
302583	"La belette entrée dans le grenier"
302607	"La bella lattaia"
302610	"La bella mietitrice"
302922	"La bouteille de lait"
302972	"La brouille"
303094	"La caduta di Rougier al concorso aviatorio di Firenze"
303163	"La calunnia"
303250	"La canna di papà"
303264	"La cantiniera"
303513	"La catastrophe ferroviaire de Saujon"
303722	"La chasse à la girafe en Ouganda"
303728	"La chatte métamorphosée en femme"
303751	"La chevrière"
303860	"La cigale et la fourmi"
304069	"La collana di perle"
304072	"La collana tentatrice"
304135	"La commemorazione del centenario di Camillo Cavour a Torino"
304179	"La conca d'oro"
304221	"La congiura di Piacenza"
304234	"La conquista del generale"
304261	"La consegna è di russare"
304282	"La contessa di Challant"
304284	"La contessa di Montignoso"
304351	"La corrida de Covadonga"
304426	"La couronne de roses"
304490	"La croce della mamma"
304670	"La dama di carità"
305032	"La doctoresse"
305108	"La donna fatale"
305240	"La défaite de Satan"
305493	"La famiglia reale a Valdieri"
305562	"La fata dell'amore"
305575	"La faute d'un autre"
305585	"La faute du notaire"
305607	"La fede del vassallo"
305620	"La femme"
305630	"La femme captive"
305669	"La femme du saltimbanque"
305791	"La festa della Regina del mare"
305822	"La fiancée du château maudit"
305823	"La fiancée du conscrit"
305879	"La fiesta de San Anton"
305901	"La figlia del cieco"
305908	"La figlia del falegname"
305914	"La figlia del musicista"
305922	"La figlia del saltimbanco"
305966	"La fille de Jephté"
306001	"La fille du forçat"
306005	"La fille du gardien de phare"
306044	"La film... dolce"
306054	"La fin de Charles le Téméraire"
306062	"La fin de Paganini"
306071	"La fin du vieux vagabond"
306144	"La fleur de mort"
306173	"La flûte merveilleuse"
306193	"La folle"
306199	"La folle des ruines"
306350	"La fucina"
306469	"La fête de Marguerite"
306489	"La fête à mère-grand"
306514	"La gamba del generale"
306523	"La garde-barrière"
306568	"La gelosa"
306661	"La goccia di sangue"
306671	"La gondola nera"
306717	"La gran cassa"
306894	"La grève des forgerons"
307042	"La haine"
307394	"La jolie dame de Narbonne"
307396	"La jolie meunière"
307442	"La justicière"
307523	"La leggenda del ferro di cavallo"
307535	"La leggenda della Croce"
307580	"La lettre au petit Jésus"
307699	"La libératrice"
307837	"La louve"
307857	"La lucha por la divisa"
307938	"La légende de Daphné"
308022	"La madre del condannato"
308084	"La main coupée"
308103	"La main verte"
308228	"La malle du peintre"
308393	"La marina italiana"
308500	"La mauvaise nouvelle"
308665	"La miniature"
308797	"La moneta falsa"
308867	"La mort de Lincoln"
308900	"La mort et le bûcheron"
308917	"La morte civile"
309181	"La musicomanie"
309269	"La mésaventure du capitaine Clavaroche"
309313	"La nativité"
309321	"La navaja"
309417	"La noce à Canuche"
309717	"La nuova insegna dell'albergo del Globo"
309831	"La pagina strappata"
310007	"La passion du bowling"
310049	"La paura della cometa"
310210	"La pesca del tonno"
310236	"La petite Blanche-Neige"
310265	"La petite fille aveugle"
310290	"La petite maman"
310337	"La peur du feu"
310373	"La piccola mendicante"
310374	"La piccola modella"
310375	"La piccola modista"
310406	"La pigeonne"
310419	"La pipa del nonno"
310455	"La più forte"
310643	"La poupée de Marie-Ange"
310693	"La presa di Saragozza (Marzo 1809)"
310714	"La prima bicicletta di Robinet"
310919	"La puissance du souvenir"
310970	"La pêcheuse d'équilles"
310989	"La quenouille de Barberine"
311140	"La receveuse des postes"
311145	"La reconnaissance de l'Arabe"
311230	"La reine assiste au défilé du cortège de la Rose à Bruxelles-Kermesse le 31 juillet 1910"
311245	"La reine Margot"
311291	"La resa di Granata"
311306	"La retraite"
311339	"La revista cielo centenario"
311411	"La rivalità delle due guide"
311418	"La rivincita del dottore"
311453	"La rocadora"
311662	"La résurrection de Lazare"
311686	"La sacoche"
311689	"La sacrifiée"
311741	"La samaritana"
311813	"La schiava di Alì"
311814	"La schiava di Kabasat"
311944	"La sentinella morta"
311965	"La serenata"
311992	"La settimana dell'aviazione a Verona"
312068	"La signora Cannone ha caldo"
312118	"La sirena"
312119	"La sirena"
312224	"La sonatrice di liuto"
312246	"La sorcière de la grève"
312303	"La spada di legno"
312346	"La staffetta"
312355	"La stanza segreta (Milleottocentrotrenta [1830])"
312368	"La statue"
312395	"La storia di Claretta"
312509	"La Svizzera italiana"
312764	"La timidité guérie par le sérum"
312785	"La tonnara di Favignana"
312842	"La tournée des grands ducs"
312845	"La tournée du percepteur"
312871	"La tragique aventure de Robert le Taciturne duc d'Aquitaine"
313008	"La trouvaille de Bébé"
313066	"La télécouture sans fil"
313157	"La valle del Ticino"
313246	"La vendetta del mare"
313250	"La vendetta del piazzista"
313263	"La vendetta di Jolicoeur"
313267	"La vendetta di un marito"
313354	"La vengeance de Jean Le Loup"
313355	"La vengeance de l'histrion"
313357	"La vengeance de la morte"
313359	"La vengeance de Louis XIII"
313418	"La vergine di Babilonia"
313489	"La victime de Sophie"
313655	"La vie de Pouchkine"
313789	"La vierge de Tonio"
313842	"La violinista"
313895	"La visite du pasteur"
313935	"La vita sulle Alpi"
313981	"La voce del sangue"
314034	"La voix du père"
314112	"La véridique et douloureuse histoire de Catelan le ménestrel"
314177	"La zingara"
314718	"Ladri trasformisti"
314721	"Ladro di pane"
314806	"Lady Betty's Strategy"
314823	"Lady Candale's Diamonds"
315106	"Laghi del Lazio"
318606	"Lavorazione dell'oro"
318921	"Lazy Farmer Brown"
319033	"Le avventure di un contrabbasso"
319065	"Le baiser du pâtre"
319122	"Le baptême de Calino"
319190	"Le berceau vide"
319208	"Le binettoscope"
319261	"Le bon exemple"
319265	"Le bon juge"
319271	"Le bon patron"
319279	"Le bon Samaritain"
319516	"Le caprice du vainqueur"
319541	"Le cas de conscience du docteur Geoffroy"
319555	"Le cascate dell'Ignazù"
319571	"Le cauchemar de Max"
319586	"Le cave di travertino rosso a Subiaco"
319766	"Le cheveu blanc"
319780	"Le chien du saltimbanque"
319788	"Le chien reconnaissant"
319817	"Le Christ en croix"
319967	"Le coeur n'a pas d'âge"
319971	"Le coeur pardonne"
320048	"Le complice"
320125	"Le conte du vieux talute"
320170	"Le corse di cavalleria a Mirafiori"
320171	"Le corse di cavalli a Mirafiori"
320204	"Le coup de vent"
320235	"Le cousin de Cendrillon"
320356	"Le delizie della caccia"
320517	"Le diamant volé"
320536	"Le disgrazie dell'ordinanza"
320539	"Le disgrazie di un libertino"
320576	"Le domestique trop zélés"
320661	"Le due nobiltà"
320686	"Le duel d'un monsieur myope"
320715	"Le déjeuner de l'empereur"
320857	"Le fer à cheval"
320863	"Le feste di San Nicola a Bari"
320864	"Le festin de Balthazar"
320900	"Le fil de la vierge"
320967	"Le flair de Nick Winter"
321006	"Le Four à chaux"
321026	"Le fruit défendu"
321073	"Le gamin de Paris"
321093	"Le gardian de Camargue"
321131	"Le gendre ingénieux"
321236	"Le grand machin et le petit chose"
321299	"Le gros péché de la petite Marthe"
321374	"Le isole della laguna veneta"
321423	"Le jeu des amoureux"
321453	"Le joueur de cornemuse"
321478	"Le jour du terme"
321499	"Le journal d'une orpheline"
321511	"Le joyeuse entrée d'Albert 1er"
321541	"Le jupon de la voisine"
321635	"Le Louis de vingt francs"
321653	"Le lys d'or"
321669	"Le lépreux de la cité d'Aoste"
321763	"Le marchand de chaussures électriques"
321805	"Le mariage de M. Courtevue"
321831	"Le marine toscane"
321840	"Le martyre d'une femme"
321872	"Le matelot criminel"
321902	"Le meilleur ami de Rigadin"
321931	"Le messager de Notre-Dame"
321973	"Le miroir"
322115	"Le mouton à six pattes"
322138	"Le musée des souverains"
322192	"Le médecin de service"
322198	"Le médecin malgré lui"
322211	"Le ménestrel"
322230	"Le naufragé"
322289	"Le nouveau marquis"
322327	"Le Noël de grand-mère"
322334	"Le Noël du peintre"
322344	"Le nègre blanc"
322377	"Le pacte"
322396	"Le pain quotidien"
322444	"Le pardon de l'offense"
322445	"Le pardon des poupées"
322458	"Le pari de Lord Robert"
322495	"Le passé"
322500	"Le pater"
322524	"Le peintre néo-impressionniste"
322544	"Le petit acrobate"
322555	"Le petit Chantecler"
322617	"Le petit reporter"
322708	"Le placier est tenace"
322819	"Le porte-bonheur"
322836	"Le portrait de maman"
322842	"Le portrait ovale"
322847	"Le potache amoureux"
323050	"Le quart d'heure de Rabelais"
323113	"Le reflet du vol"
323132	"Le Rembrandt de la rue Lepic"
323146	"Le rendez-vous"
323147	"Le rendez-vous"
323175	"Le retour au foyer"
323203	"Le retour du passé"
323212	"Le revenant"
323216	"Le revolver arrange tout"
323264	"Le roi de Thulé"
323275	"Le roi des mendigots"
323302	"Le roi Philippe le Bel et les templiers"
323319	"Le roman d'un jour"
323334	"Le roman de l'écuyère"
323399	"Le récit d'un vieux soldat"
323485	"Le sacrifice d'Yvonne"
323551	"Le scarabée d'or"
323629	"Le secret du corsaire rouge"
323671	"Le serment d'un prince"
323752	"Le sirene"
323806	"Le songe d'un garçon de café"
323817	"Le sorcier"
323824	"Le sorelle Bartels"
323852	"Le soulier trop petit"
323856	"Le soupçon"
323879	"Le spectre de l'autre"
323892	"Le spoliateur"
323905	"Le stigmate"
323951	"Le système du docteur Tranchelard"
324133	"Le tout petit Faust"
324164	"Le trait d'union"
324191	"Le tre principesse arabe"
324202	"Le tricheur ou Le Grec"
324205	"Le trimardeur"
324282	"Le tyran de Jérusalem"
324357	"Le vertige"
324390	"Le vieux briscard"
324427	"Le violon de grand-père"
324437	"Le vitrail diabolique"
324452	"Le voile du bonheur"
324494	"Le voleur volé"
324605	"Lea"
324613	"Lea al mare"
324627	"Lea femminista"
324629	"Lea in convitto"
324643	"Lea si veste alla moda"
325118	"Lebender Marmor"
325210	"Led by Little Hands"
326192	"Lena Rivers"
326431	"Leon of the Table D'Hote"
326462	"Leonardo"
326736	"Les amoureux de la caissière"
326865	"Les aventures d'un cow-boy à Paris"
326907	"Les aventuriers du Val d'Or"
327111	"Les caprices de Marion"
327118	"Les carbonari"
327153	"Les cerises"
327186	"Les chasseurs de fourrures"
327198	"Les chaînes"
327200	"Les chefs-d'oeuvre de bébé"
327238	"Les Chillouks tribu de l'Afrique centrale"
327272	"Les clefs de Saint-Pierre"
327473	"Les deux douleurs"
327489	"Les deux hommes"
327513	"Les deux orphelines"
327514	"Les deux orphelines"
327527	"Les deux portraits"
327529	"Les deux rendez-vous"
327605	"Les débuts de Max au cinéma"
327644	"Les effets des pilules de Max"
327766	"Les exploits du jeune Tartarin"
327855	"Les fiancés de Colombine"
327922	"Les fleurs"
327969	"Les fromages emballés"
328125	"Les grimpeurs de rochers"
328221	"Les illusions fantaisistes"
328343	"Les julians"
328358	"Les lacs italiens"
328370	"Les lettres"
328502	"Les Martigues"
328855	"Les parents de l'enfant prodigue"
328929	"Les petites mains qui sauvent"
329107	"Les quatre petits tailleurs"
329128	"Les rats d'hôtel"
329177	"Les rois n'épousent pas les bergères"
329268	"Les sept barres d'or"
329275	"Les sept péchés capitaux - I - L'orgueil"
329276	"Les sept péchés capitaux - II - L'avarice"
329277	"Les sept péchés capitaux - III - La luxure"
329278	"Les sept péchés capitaux - IV - L'envie"
329280	"Les sept péchés capitaux - V - La gourmandise"
329281	"Les sept péchés capitaux - VI - La colère"
329282	"Les sept péchés capitaux - VII - La paresse"
329349	"Les suicides du louf"
329397	"Les timidités de Rigadin"
329503	"Les tziganes"
329656	"Les yeux qui changent"
330225	"Let Us Give Thanks"
330949	"Levi and Family at Coney Island"
330951	"Levi's Dilemma"
330953	"Levi the Cop"
332026	"Liebesdurst"
332231	"Lieutenant Rose and the Chinese Pirates"
332232	"Lieutenant Rose and the Foreign Spy"
332233	"Lieutenant Rose and the Gunrunners"
332243	"Lieutenant Rose and the Stolen Submarine"
333294	"Lijkplechtigheid ter ere van de leden van de koninklijke familie"
333910	"Linda di Chamounix"
333931	"Linda von Chamonix"
334471	"Lisbon Before and During the Revolution"
334666	"Little Angels of Luck"
334757	"Little Boy"
335197	"Little Nell's Tobacco"
336258	"Liz's Career"
336547	"Lo chauffeur"
336666	"Lo schiavo di Cartagine"
336669	"Lo sciancato"
336685	"Lo scudiero della regina"
336713	"Lo specchio rivelatore"
337205	"Lohengrin"
337232	"Loin des yeux loin du coeur"
338216	"Looking for Lodgings at the Seaside"
338273	"Looking Forward"
338505	"Lord Blend's Love Story"
338703	"Lorsque l'enfant paraît"
340235	"Lost and Regained"
340321	"Lost for Many Years"
340438	"Lost in the Soudan"
340719	"Lotta d'anime"
340725	"Lotta proletaria"
340872	"Louis de Saint-Just"
341139	"Love Among the Roses"
341234	"Love and Law"
341260	"Love and Marriage in Poster Land"
341263	"Love and Money"
341287	"Love and Promotion"
341310	"Love and the Law"
341364	"Love at First Sight"
341502	"Love Drops"
341673	"Love in Mexico"
341681	"Love in Quarantine"
342046	"Love of Chrysanthemum"
342388	"Love's Awakening"
342389	"Love's Awakening"
342398	"Love's C. Q. D."
342493	"Love's Sorrow"
342577	"Love Luck and Gasoline"
343279	"Lucia di Lammermoor"
343426	"Luck of Roaring Camp"
343654	"Lucrezia Borgia"
343910	"Luisa Miller"
343916	"Luisa Strozzi"
345090	"Lysistrata ou La grève des baisers"
345414	"Léontine en apprentissage"
345415	"Léontine en vacances"
345417	"Léontine ne sortira pas"
346918	"Madame de Langeais"
347612	"Madre mía"
349117	"Maiskaya noch ili utoplennitsa"
349650	"Making a Man of Him"
349695	"Making Christmas Crackers."
350763	"Malta"
350863	"Mam'zelle Figaro"
352475	"Maniaco per il fumo"
352581	"Maniobras militares"
352583	"Maniobras militares en Anzures"
352813	"Manoeuvers of the New York Police Force"
352852	"Manon"
352928	"Manovre dell'armata navale italiana del 1910"
353896	"Margherita Cisneros e i suoi banditi"
353899	"Margherita Pusterla"
354151	"Mariage au puzzle"
354722	"Marito distratto e moglie manesca"
355152	"Married for Love"
355159	"Married in Haste"
355176	"Married on Horseback"
355834	"Mary Had a Lovely Voice"
355895	"Mary the Coster"
355903	"Mary Was a Housemaid"
356477	"Massinelli dilettante di fotografia"
356499	"Massösens offer"
356951	"Mater dolorosa"
357506	"Maudite soit la guerre"
357729	"Max champion de boxe"
357730	"Max cherche une fiancée"
357735	"Max célibataire"
357752	"Max est distrait"
357754	"Max et Clancy tombent d'accord"
357756	"Max et l'edelweiss"
357758	"Max et l'inauguration de la statue"
357759	"Max et la belle négresse"
357761	"Max et la fuite de gaz"
357773	"Max et ses trois mariages"
357775	"Max et son rival"
357779	"Max fait du ski"
357810	"Max hypnotisé"
357820	"Max joue le drame"
357838	"Max manque un riche mariage"
357843	"Max maîtresse de piano"
357850	"Max ne se mariera pas"
357867	"Max prend un bain"
357880	"Max se trompe d'étage"
358068	"May and December"
358420	"Mazeppa or the Wild Horse of Tartary"
358472	"Mazzarino"
359326	"Medaglia al valore"
361068	"Memento of the Past"
361686	"Mendelssohn's Spring Song"
362167	"Mercedes (La bella del villaggio)"
362713	"Messalina"
362723	"Messaline"
362777	"Messina che risorge"
362805	"Mestieri arabi"
363121	"Method in His Madness"
363349	"Mexican Centennial"
363713	"Mi hanno rubato la moglie"
364304	"Michael Strogoff"
365218	"Mignon"
365436	"Mike the Housemaid"
365552	"Mil huit cent quatorze"
365629	"Milano"
365635	"Milano d'inverno"
365636	"Milano dalle guglie del Duomo"
366020	"Militärische Disziplin - Eine satirische Groteske"
366111	"Mille chilometri per una lettera"
366432	"Mimosa"
367841	"Mishaps of Bonehead in Search of an Heiress"
368238	"Miss Pinson"
368278	"Miss Simpkin's Boarders"
368650	"Missione cinese a Milano"
368660	"Missione turca in Italia"
368730	"Mistaken Identity"
368743	"Mistaken Intention"
368904	"Mistress and Maid"
369820	"Mobilier fidèle"
370241	"Moeurs et coutumes des Chillouks"
371080	"Mon chien rapporte"
371238	"Monaca per forza"
371291	"Monco per scommessa"
371727	"Monkey Shines"
371776	"Monna Vanda dei Soldanieri"
371901	"Monsieur de Crac"
371979	"Monsieur Prud'homme s'émancipe"
371981	"Monsieur Ravioli"
371993	"Monsieur Stop"
372302	"Montblanc la serra"
372717	"Moonlite"
373236	"More Than His Duty"
373341	"Morgan le pirate - Épisode 3: L'épave"
373432	"Moriamo assieme!"
373861	"Mosca artistica e panoramica"
374138	"Mother"
374251	"Mother Love"
374668	"Moulders of Souls"
375415	"Mr. A. Jonah"
375534	"Mr. Breakneck's Invention"
375551	"Mr. Bumptious on Birds"
375658	"Mr. Four Flush"
375864	"Mr. Mix at the Mardi Gras"
375883	"Mr. Mugwump and the Baby"
375884	"Mr. Mugwump Takes Home the Washing"
375885	"Mr. Mugwump's Banknotes"
375887	"Mr. Mugwump's Hired Suit"
375969	"Mr. Poorluck's Dream"
375971	"Mr. Poorluck's Lucky Horseshoe"
376084	"Mr. Swell in the Country"
376102	"Mr. Tubby's Triumph"
376349	"Mrs. Richard Dare"
376469	"Mt. Etna in Eruption"
376993	"Muggsy Becomes a Hero"
376996	"Muggsy's First Sweetheart"
377321	"Mulcahy's Raid"
380144	"My Friend the Doctor"
380595	"My Milliner's Bill"
382388	"Ménages parisiens"
384968	"Nancy's Wedding Trip"
385128	"Nannina"
385160	"Nantes"
385228	"Napo Torriano"
386051	"Natale benefico"
386699	"Nature's Nobleman"
387169	"Navigazione a vela"
387817	"Necklace of the Dead"
388276	"Neil Gow Mad"
388423	"Nel cuore degli Abruzzi"
388447	"Nel nome di Allah"
388545	"Nella vallata di Viège"
388680	"Nemico della polvere"
389430	"Never Again"
389431	"Never Again"
390250	"New York of Today"
391116	"Nick Carter acrobate"
391170	"Nick Winter et le perroquet de Mademoiselle Durand"
391179	"Nick Winter l'adroit détective"
394507	"No Place Like Home"
395044	"Nobile sacrificio"
396746	"Nostalgia del carcere"
396907	"Not Guilty"
397029	"Not So Bad as It Seemed"
397240	"Nothing But Money"
397434	"Notre bon oncle d'Amérique"
398231	"Nuccia la pecoraia"
400130	"O Centenário da Guerra Peninsular"
402039	"Obbedisco!!"
402082	"Oberland"
403371	"Off for the Holidays"
403977	"Oh the Crocodile!"
403994	"Oh You Skeleton"
404174	"Oh So Sick!"
404199	"Oh What a Knight!"
404842	"Oklahoma Bill"
405117	"Old Glory"
405136	"Old Heads and Young Hearts"
405233	"Old Norris' Gal"
406354	"On Her Doorsteps"
406492	"On ne badine pas avec l'amour"
406524	"On Parole"
406623	"On the Bank of the River"
406646	"On the Border"
406866	"On the Mexican Border"
406918	"On the Reef"
407428	"Once Upon a Time"
408144	"One Man's Confession"
408348	"One Night and Then --"
408693	"One Touch of Nature"
408796	"One Who Remembered"
409085	"Only a Hobo"
409195	"Only One Girl; or A Boom in Sausages"
409528	"Ononko's Vow"
409546	"Onore vendicato"
410067	"Opening an Oyster"
410954	"Orazi e Curiazi"
411102	"Orecchie d'asino"
411238	"Orgoglio di paesano"
411571	"Orologio perduto"
413229	"Our German Cousin"
413258	"Our Housemaid"
413350	"Our New Minister"
413547	"Out for Mischief"
413853	"Out of the Night"
414351	"Outwitted by a Child"
414464	"Over Mountain Passes"
414479	"Over Silent Paths"
414511	"Over the Garden Wall"
414512	"Over the Garden Wall"
414684	"Overland to Fremont"
415999	"Paillasse"
416502	"Palermo monumentale"
416704	"Pals"
416733	"Pals of the Range"
417269	"Panificio militare"
417897	"Papa's First Outing"
418147	"Papinta"
418307	"Par un jour de carnaval"
418322	"Para domar la suegra"
418469	"Parade of the Volunteer Firemen of Westchester County and Vicinity"
419103	"Pardners"
419486	"Paris-Bruxelles en aéroplane"
419691	"Parma"
419877	"Parted to Meet Again"
420706	"Passeggiate romane"
421247	"Pat and the 400"
421569	"Patouillard amoureux"
421636	"Patricia of the Plains"
421915	"Paul and Virginia"
422089	"Pauli"
422174	"Pauvre petit"
422178	"Pauvre toutou"
422925	"Peddling Patrick Pinches Poultry"
423153	"Peg Woffington"
423397	"Pellegrinaggio a Santerra"
423553	"Pendaison à Jefferson City"
424219	"Per galanteria"
424239	"Per l'onore della sorella"
424247	"Per la patria (Epopea garibaldina)"
424263	"Per mia figlia"
424280	"Per salvare la mamma"
424317	"Per una rosa"
424376	"Perché Fricot fu messo in collegio"
424383	"Perché Ravioli non ha preso moglie"
424408	"Percy the Cowboy"
424856	"Perils of the Plains"
425410	"Persuading Papa"
425713	"Pesto"
426080	"Petit Louis d'Or"
426125	"Petite mère"
426136	"Petite étoile"
426169	"Petits poèmes antiques"
426694	"Philae la morte"
427094	"Phèdre"
427121	"Pia de' Tolomei"
427127	"Pia menzogna"
427128	"Piacenza"
427305	"Piccolo genio!"
427963	"Pierrot aime les roses"
427972	"Pierrot geloso"
428186	"Pigs Is Pigs"
428302	"Pikovaya dama"
428437	"Pillole portentose"
431227	"Playing at Divorce"
431323	"Playing Truant"
431677	"Plechtige opening van de wetgevende Kamer op 8 november 1910 in aanwezigheid van de vorsten"
431946	"Plus de progrès"
432183	"Pocahontas"
432470	"Poesia del lago"
432498	"Poeta ad ogni costo"
433269	"Polichinelle"
433476	"Politics"
434241	"Poor Pa Pays"
435214	"Port Arthur Ontario"
435340	"Portofino Kulm"
436461	"Pour l'honneur"
436480	"Pour les beaux yeux de la voisine"
437122	"Practical Fish-Breeding: The Trout"
438319	"Prepotenza feudale"
438386	"Presentación de Rodolfo Gaona en la plaza del toreo"
438521	"Pressed Roses"
439002	"Pride of the Range"
439512	"Prince of Kyber"
439694	"Principessa e masnadiero"
439941	"Prison Reform"
440824	"Prix de vertu"
440941	"Pro Patria"
441114	"Processione a Taranto"
441128	"Processo dei russi alle Assise di Venezia"
441347	"Professor Piecan's Discovery"
441373	"Professor's Hat"
441748	"Promenade d'amour"
443540	"Pulp Mills in Quebec"
443908	"Puntolini al ballo per far carriera"
444074	"Purché nessuno ci veda!"
445302	"Pygmalion"
445348	"Pyotr Velikiy"
445486	"Pâques florentines"
445604	"Père justicier"
447105	"Quel signore ha vinto il milione"
447224	"Quentin Durward"
447413	"Qui a tué Max?"
448381	"Rachel"
449102	"Rags Old Iron!"
449453	"Rainha Depois de Morta Inês de Castro"
450168	"Ramble Through Ceylon"
450242	"Ramona"
450386	"Ranch Life in the Great Southwest"
450709	"Ransomed; or A Prisoner of War"
450710	"Ranson's Folly"
451151	"Rastus in Zululand"
451374	"Rattlesnakes"
451484	"Ravaillac"
451534	"Ravenna"
451556	"Ravioli ama la boxe"
451557	"Ravioli cerimonioso"
451558	"Ravioli impara a pattinare"
451559	"Ravioli innamorato della serva"
451575	"Ravvedimento di un giocatore"
451966	"Re Artù e i cavalieri della tavola rotonda"
451972	"Re Lear"
451973	"Re Lear"
452034	"Rea Silvia (L'origine di Roma)"
452134	"Ready in a Minute"
453010	"Reconnaissance d'Indien"
453042	"Record del miglio a Modena"
453369	"Red Fern and the Kid"
453380	"Red Girl's Romance"
453779	"Red Wing and the White Girl"
453780	"Red Wing's Constancy"
453782	"Red Wing's Loyalty"
454382	"Regate Milano-Abbiategrasso"
454427	"Reggie's Engagement"
454431	"Reggio Emilia"
454563	"Rehabilitiert"
454717	"Reis in Mayumbe"
455268	"Remise des récompenses aux exposants dans les halls du parc du Cinquantenaire le 18 octobre 1910"
455731	"Renunciation"
455734	"Renzo lo zoppo"
456932	"Return of Ta-Wa-Wa"
457533	"Review of Troops by George V"
457535	"Review of U.S. Troops Fort Leavenworth"
457678	"Revolução de 5 de Outubro"
457709	"Revue des écoles par M. le bourgmestre Max le 19 juin 1910. 8000 enfants y prennent part."
458063	"Ribera del Llobregat"
458094	"Ricatto di un misero"
458269	"Richelieu; or: The Conspiracy"
458363	"Rico le bouffon"
458384	"Riconoscenza di bandito"
458386	"Riconquistata"
458580	"Riders of the Plains"
458767	"Rien n'est impossible à l'homme"
458864	"Rigadin cambrioleur"
458902	"Rigadin et Miss Margaret"
458903	"Rigadin et son sosie"
458905	"Rigadin face à Napoléon"
458915	"Rigadin n'est pas sage"
458919	"Rigadin nourrice sèche"
458936	"Rigadin veut dormir tranquille"
458965	"Right in Front of Father"
459028	"Rigoletto"
459046	"Rigollo the Man of Many Faces"
459161	"Rimini"
459514	"Rip Van Winkle"
460024	"Riunione di skys negli Abruzzi"
460074	"Rivalry in the Oil Fields"
460228	"Riviera adriatica"
460242	"Riviera salernitana"
460246	"Rivincita del ladro"
460251	"Rivista militare a Milano"
460775	"Robe de fiançailles"
461019	"Robinet ama la figlia del generale"
461024	"Robinet appassionato pel dirigibile"
461036	"Robinet costretto a fare il ladro"
461055	"Robinet ha il sonno duro"
461058	"Robinet ha la mania del salvadanaio"
461060	"Robinet ha perso il treno"
461062	"Robinet ha un tic per il ballo"
461078	"Robinet questurino"
461093	"Robinet studia una parte tragica"
461099	"Robinet vuol fare il jockey"
462260	"Rogues of the Turf"
462295	"Roi d'un jour"
462393	"Roland à Ronceveaux"
462622	"Roma pittoresca"
462794	"Romance of a Snake Charmer"
462807	"Romance of the Lazy K Ranch"
462930	"Romantic Redskins"
462966	"Romany Rob's Revenge"
463063	"Romeo and Juliet in Our Town"
463575	"Roosevelt i Danmark"
463576	"Roosevelt in Africa"
463578	"Roosevelt's Return"
463835	"Rosalie's Dowry"
463938	"Rose Leaves"
463948	"Rose O'Salem Town"
464775	"Rovina"
466133	"Running Away from a Fortune"
466406	"Rusalka"
466540	"Russia the Land of Oppression"
467067	"Räuberhauptmann Nulpe"
467094	"Réception du lord-maire à la gare du Nord à Bruxelles"
467150	"Résurrection"
467200	"Rêves enfantins"
467465	"S. A. il Duca di Genova e S. E. il Cardinal Ferrari inaugurano a Milano il nuovo ospizio dei vecchioni"
467472	"S. M. il Re a Racconigi"
467473	"S. M. il Re al campo d'aviazione di Milano"
467476	"S. Moritz"
468305	"Sacrificata!"
469959	"Salomé"
470024	"Salsomaggiore"
470062	"Salt on the Bird's Tail"
470911	"Samson's Betrayal"
470952	"Samuel of Posen"
471147	"San Giuliano e le saline di Trapani"
471315	"Sanada Yukimura"
471640	"Sandy the Substitute"
471923	"Sanjusangendo to yurai"
472002	"Sanremo"
472959	"Sardanapalo re dell'Assiria"
474178	"Saved by a Vision"
474184	"Saved by Divine Providence"
474208	"Saved by the Flag"
474231	"Saved from the Redmen"
474234	"Saved from the Tide"
474239	"Saved in the Nick of Time"
474390	"Savoia cavalleria"
475218	"Scenes in British India"
475511	"Scherzo atroce"
475567	"Schilder Laermans ontvangt de grote medaille tijdens de internationale tentoonstelling van Brussel"
475568	"Schilderachtig Antwerpen"
475826	"Schneider e i suoi leoni"
476157	"Schuld und Sühne"
477447	"Scroggins Puts Up for Blankshire"
477898	"Sea Waves"
478313	"Second Adventure of Bonehead: Initiated Into the Royal Gazabos"
479460	"Seeing London in One Day"
479728	"Segunda carrera automovilista 'Peña-Rhin' (Mataró-Argentona)"
479825	"Sei di tutto!"
481813	"Serious Sixteen"
482019	"Servo e tutore"
482117	"Sesso forte e sesso debole"
482219	"Seth's Temptation"
482278	"Settimana d'aviazione a Firenze"
482294	"Settled Out of Court"
482302	"Settling a Boundary Dispute"
482448	"Seven Days"
482602	"Seven Seventeen and Seventy"
484902	"Shadows and Sunshine"
486603	"She Stoops to Conquer"
486645	"She Wanted a Bow-Wow"
486653	"She Wanted to Marry a Hero"
486689	"She Would Be a Business Man"
486743	"She's Done It Again"
487928	"Shin chikyôdai"
488440	"Shirai Gonpachi"
488988	"Shonanko"
489137	"Shooting an Oil Well"
490032	"Shrimps"
490634	"Si j'étais le roi"
492690	"Simple Charity"
493361	"Singeries humaines"
493863	"Siracusa"
494170	"Sisters"
494842	"Skarpretterens Søn"
496398	"Sleepy Sam's Awakening"
496684	"Slippery Jim"
498879	"So Runs the Way"
499102	"Soap in His Eyes"
499555	"Soeurs de lait"
499720	"Sogno di Natale"
500045	"Soldat par amour"
500074	"Soldato disgraziato"
500248	"Solenni funerali dell'on. Andrea Costa"
500509	"Solo!"
500934	"Some Riding Exercises of the Italian Cavalry"
503391	"Sous la terreur"
503725	"Souvenez-vous en"
504255	"Spanish Loyalty"
504485	"Spasimante corbellato"
505073	"Sperduta"
505240	"Spezia"
506195	"Spoony Sam"
507020	"Spøgelset i gravkælderen"
507513	"St. Elmo"
507520	"St. George and the Dragon"
507809	"Stage Coach Tom"
509042	"Starlight's Devotion"
511026	"Stivali rubati e stivali pagati"
511133	"Stockman Joe"
511175	"Stolen by Indians"
511603	"Storia di un paio di stivali"
512702	"Stratagemma d'amore"
514162	"Stung!"
514579	"Subiaco ed il monastero"
515788	"Sulle dentate scintillanti vette"
515799	"Sullivan"
516221	"Sumurûn"
516799	"Sunshine in Poverty Row"
516811	"Sunshine Sue"
516844	"Suocera genero e carta moschicida"
516919	"Suor Maria dell'Addolorata"
517778	"Supremo riconoscimento"
517810	"Sur la pente"
518456	"Susan's Revenge"
520212	"Sweetheart of the Doomed"
521586	"Sémiramis"
523413	"Take Me Out to the Ball Game"
524513	"Taming a Husband"
524536	"Taming the Terror"
524543	"Taming Wild Animals"
524786	"Tangled Lives"
525528	"Tarascon on the Rhone"
525635	"Tariff Reform"
526589	"Tbilisis botanikuri bagi"
527082	"Teatro de la naturaleza en Sabadell"
528657	"Tempered with Mercy"
528662	"Tempest and Sunshine"
528691	"Tempesta sulla Costa Azzurra"
528833	"Temptation and Forgiveness"
529012	"Ten Nights in a Bar Room"
529302	"Tenka chaya"
529991	"Terribile alleanza"
529994	"Terribile nubifragio di Casamicciola Ischia e litorale napoletano"
531177	"That Chink at Golden Gulch"
531199	"That Doggone Dog"
531229	"That Girl of Dixon's"
531263	"That Little German Band"
531328	"That Popular Tune"
531344	"That Skating Carnival"
532574	"The Abbey of Pavia"
532796	"The Actor's Children"
532855	"The Adopted Daughter"
532859	"The Adoption"
532929	"The Adventures of a Cowpuncher"
533247	"The Adventuress"
533261	"The Aerial Submarine"
533277	"The Affair of an Egg"
533429	"The Airship Gaze"
533430	"The Airtight Safe"
533578	"The Almighty Dollar"
533609	"The Altar of Love"
533759	"The American and the Queen"
533958	"The Anarchistic Grip"
534029	"The Angel of Dawson's Claim"
534065	"The Angelus"
534113	"The Animated Armchair"
534122	"The Animated Scare-Crow"
534289	"The Appeal of the Prairie"
534472	"The Arm of the Law"
534484	"The Armorer's Daughter"
534819	"The Aspirations of Gerald and Percy"
534845	"The Assassination of Admiral Coligny"
534934	"The Atonement"
534953	"The Attack on the Mill"
535290	"The Baby the Boy and the Teddy Bear"
535328	"The Bachelor"
535446	"The Bad Man and the Preacher"
535448	"The Bad Man from Riley's Gulch"
535452	"The Bad Man's Christmas Gift"
535455	"The Bad Man's Last Deed"
535486	"The Badgers"
535706	"The Bandit's Wife"
535752	"The Banker's Daughters"
535849	"The Barge Man of Old Holland"
536266	"The Bearded Bandit"
536379	"The Beautiful Gorges of Tarn"
536397	"The Beautiful Snow"
536597	"The Bellringer's Daughter"
536840	"The Best Man Wins"
537606	"The Big Scoop"
537824	"The Binding Shot"
537966	"The Birthday Present"
538345	"The Blazed Trail"
538398	"The Blind Man's Tact"
538535	"The Blue Bird"
538570	"The Blue Horse Mine"
539044	"The Bootmaker's Ten Pound Note"
539210	"The Bouquet"
539242	"The Bowling Fiend"
539503	"The Boys of Topsy-Turvy Ranch"
539581	"The Branded Man"
539617	"The Brave Deserve the Fair"
539639	"The Bravest Girl in the South"
539652	"The Breach of Discipline"
540011	"The Broken Doll"
540044	"The Broken Oath"
540137	"The Brother Sister and the Cowpuncher"
540413	"The Burglar and Little Phyllis"
540425	"The Burglar Expected"
540438	"The Burglar's Misfortune"
540470	"The Burlesque Queen"
540631	"The Butler's Revenge"
540838	"The Call"
540889	"The Call of the Circus"
540901	"The Call of the Heart"
540945	"The Call to Arms"
541194	"The Captain's Bride"
541234	"The Capture of the Burglar"
541286	"The Cardsharpers"
541457	"The Case of the Missing Heir"
541554	"The Cat Came Back"
541652	"The Cattle Baron's Daughter"
541663	"The Cattlemen's Feud"
541890	"The Champion of the Race"
542219	"The Child and the Fiddler"
542250	"The Childhood of Jack Harkaway"
542293	"The Children's Revolt"
542566	"The Chuncho Indians of the Amazon River Peru"
542585	"The Cigarette Maker of Seville"
542588	"The Cigars His Wife Bought"
542594	"The Cinderella Girl"
542718	"The City of Her Dreams"
542809	"The Clay Baker"
542860	"The Clergyman and His Ward"
542863	"The Clerk's Downfall"
542933	"The Cloister's Touch"
543006	"The Clown and the Minister"
543359	"The Color Sergeant's Horse"
543460	"The Comet"
543535	"The Common Enemy"
543684	"The Confession"
543771	"The Conquering Hero"
543934	"The Converted Deacon"
543936	"The Converts"
543937	"The Convict"
544021	"The Coquette"
544025	"The Coquette's Suitors"
544162	"The Coster's Phantom Fortune"
544207	"The Count of Montebello"
544210	"The Count of Noaccount"
544214	"The Count That Counted"
544346	"The Course of True Love"
544371	"The Courtship of Miles Standish"
544404	"The Cow Puncher's Sweetheart"
544412	"The Cow-Boy Girls"
544453	"The Cowboy and the Schoolmarm"
544455	"The Cowboy and the Squaw"
544492	"The Cowboy's Strategem"
544493	"The Cowboy's Sweetheart"
544495	"The Cowboy's Sweetheart and the Bandit"
544499	"The Cowboys and the Bachelor Girls"
544500	"The Cowboys to the Rescue"
544511	"The Cowpuncher's Glove"
544514	"The Cowpuncher's Ward"
544792	"The Crippled Teddy Bear"
545153	"The Curate's New Year Gifts"
545240	"The Curse of Gambling"
545529	"The Dancing Girl of Butte"
545874	"The Dawn of Freedom"
546066	"The Deacon's Daughter"
546112	"The Dead Letter"
546652	"The Deputy's Love"
546764	"The Desperado"
547119	"The Devil the Servant and the Man"
547146	"The Devoted Ape"
547545	"The District Attorney's Triumph"
547560	"The Diver's Wife"
547676	"The Doctor's Carriage"
547697	"The Doctor's Perfidy"
547706	"The Doctor's Secretary"
547768	"The Dog Keeper"
547986	"The Double"
548124	"The Drawn Blinds"
548383	"The Duality of Man"
548465	"The Duke's Plan"
548477	"The Dull Razor"
548483	"The Dumb Half Breed's Defense"
548632	"The Early Settlers"
548779	"The Education of Elizabeth"
548833	"The Egg Trust"
548840	"The Egret Hunter"
548907	"The Electric Servant"
549074	"The Emigrant"
549426	"The Engineer's Romance"
549427	"The Engineer's Sweetheart"
549445	"The Englishman and the Girl"
549659	"The Eternal Law"
549680	"The Eternal Triangle"
550317	"The Face at the Window"
550435	"The Fairies' Hallowe'en"
550486	"The Faithless Lover"
550503	"The Fakir's Flute"
550843	"The Farmer's Daughter"
550844	"The Farmer's Daughter"
550956	"The Fatal Gold Nugget"
551140	"The Female Bandit"
551167	"The Fence on 'Bar Z' Ranch"
551201	"The Feud"
551669	"The Final Settlement"
551755	"The Fire Chief's Daughter"
552182	"The Flag of His Country"
552261	"The Flat Next Door"
552306	"The Flight of Red Wing"
552433	"The Flower of the Ranch"
552631	"The Footlights or the Farm"
552706	"The Foreman"
552734	"The Forest Ranger"
553137	"The Freezing Mixture"
553174	"The Fresh Air Fiend"
553302	"The Fruits of Vengeance"
553310	"The Fugitive"
553406	"The Fur Coat"
553439	"The Further Adventures of the Girl Spy"
553568	"The Gambler's Charm"
553582	"The Gambler's Wife"
553664	"The Gamekeeper's Daughter"
553760	"The Garden of Fate"
554122	"The Ghost in the Oven"
554386	"The Girl and the Fugitive"
554403	"The Girl and the Judge; or A Terrible Temptation"
554452	"The Girl Cowboy"
554465	"The Girl from Arizona"
554671	"The Girl of the Northern Woods"
554698	"The Girl on Triple X"
554703	"The Girl Reporter"
554711	"The Girl Scout"
554714	"The Girl Spy Before Vicksburg"
554719	"The Girl Strike Leader"
554840	"The Girls He Left Behind Him"
554883	"The Girls of the Ghetto"
554885	"The Girls of the Range"
555220	"The Gold Seekers"
555294	"The Golden Gates"
555383	"The Golden Supper"
555745	"The Governor's Daughter"
555754	"The Governor's Pardon"
555917	"The Gray of the Dawn"
555983	"The Great Ball Game Between the East and the West"
556001	"The Great Black VS White Prize Fight"
556312	"The Great Secret"
556347	"The Great Train Hold Up"
556402	"The Greater Call"
556415	"The Greater Love"
557175	"The Hall-Room Boys"
557234	"The Hand of Providence"
557239	"The Hand of Uncle Sam"
557812	"The Heart of a Fishergirl"
557821	"The Heart of a Heathen Chinee"
557834	"The Heart of a Rose"
557867	"The Heart of Edna Leslie"
558140	"The Hermit of the Rockies"
558189	"The Heroine of 101 Ranch"
558360	"The Highlander's Defiance"
558436	"The Hindoo's Treachery"
558465	"The History of a Butterfly: A Romance of Insect Life"
558594	"The Hobble Skirt"
558866	"The Honor of His Family"
558924	"The Hoodoo"
559047	"The Horse Shoer's Girl"
559331	"The House of the Seven Gables"
559366	"The House on the Hill"
559404	"The House with Closed Shutters"
559442	"The Housewife and the Fly"
559657	"The Hunt for a Collar"
559876	"The Iconoclast"
560009	"The Impalement"
560078	"The Imposter"
560241	"The Indian and the Cowgirl"
560242	"The Indian and the Maid"
560253	"The Indian Land Grab"
560260	"The Indian Raiders"
560266	"The Indian Scout's Vengeance"
560484	"The Insane Heiress"
560601	"The International Motor Boat Race"
560756	"The Inventor's Model"
560868	"The Irish Boy"
560884	"The Iron Clad Lover"
560899	"The Iron Helmet"
560939	"The Irony of Fate"
561207	"The Jealous Cavalier"
561211	"The Jealous Husband"
561295	"The Jewel Case"
561305	"The Jewel Thieves Run to Earth by Sexton Blake"
561437	"The Joke They Played on Bumptious"
561635	"The Judgment of the Mighty Deep"
561732	"The Juvenile Firemen"
561881	"The Kentucky Pioneer"
561918	"The Key of Life"
561956	"The Kid"
562017	"The Kid's Kite"
562030	"The Kidnapped Servant"
562245	"The King of Beggars"
562361	"The Kingdom of Flowers"
562454	"The Kissing Bug"
562658	"The Lady and the Burglar"
562673	"The Lady Barbers"
562905	"The Land of Oz"
563010	"The Lassie's Birthday"
563233	"The Last Deal"
563565	"The Last of the Dandy"
563597	"The Last of the Saxons"
564004	"The Latchkey"
564031	"The Latest Fashion in Skirts"
564034	"The Latest in Garters"
564060	"The Laugh's on Father"
564093	"The Laundryman's Mistake"
564119	"The Law and the Man"
564166	"The Law of the West"
564327	"The Legacy"
564602	"The Lesson"
564850	"The Life of a Fireman"
564851	"The Life of a Hired Bike"
564857	"The Life of a Salmon"
564983	"The Light in the Window"
565311	"The Little Blue Cap"
565367	"The Little Doctor of the Foothills"
565387	"The Little Fiddler"
565388	"The Little Fire Chief"
565422	"The Little Hero of Holland"
565428	"The Little Housekeeper"
565465	"The Little Matchseller's Christmas"
565498	"The Little Orphan"
565518	"The Little Prospector"
565587	"The Little Spreewald Maiden"
565589	"The Little Station Agent"
565645	"The Little Wire-Walker"
565763	"The Livingston Case"
566139	"The Long Trail"
566735	"The Love of Lady Irma"
566974	"The Lucky Charm"
567001	"The Lucky Shot"
567064	"The Lure of Gold"
567078	"The Lure of the City"
567188	"The Mad Dog Scare"
567196	"The Mad Hermit"
567280	"The Maelstrom"
567627	"The Maid of Niagara"
568396	"The Man"
568517	"The Man from Texas"
568744	"The Man to Beat Jack Johnson"
568750	"The Man Under the Bed"
568807	"The Man Who Couldn't Laugh"
568957	"The Man Who Thought He Was Poisoned"
569059	"The Man with the Weak Heart"
569336	"The Marked Time-Table"
569337	"The Marked Trail"
569391	"The Marriage of Muggins VC and a Further Exploit"
569478	"The Mascot of Company D"
569485	"The Masher"
569553	"The Masquerade Cop"
569695	"The Matinee Idol"
570097	"The Mermaid"
570109	"The Merry Beggars"
570147	"The Merry Wives of Windsor"
570195	"The Message of the Violin"
570272	"The Mexican Tumblers"
570275	"The Mexican's Faith"
570278	"The Mexican's Jealousy"
570281	"The Mexican's Ward"
570610	"The Millionaire and the Ranch Girl"
570620	"The Millionaire Milkman"
570681	"The Miner and Camille"
570693	"The Miner's Sweetheart"
570705	"The Miniature"
570890	"The Miser's Daughter"
570947	"The Missing Bridegroom"
570948	"The Missing Bridegroom"
571055	"The Mistake"
571060	"The Mistaken Bandit"
571137	"The Modern Prodigal"
571295	"The Monogrammed Cigarette"
571631	"The Moths and the Flame"
571642	"The Motor Fiend"
571681	"The Mountaineer"
571793	"The Mule Driver and the Garrulous Mute"
571795	"The Mulligans Hire Out"
571976	"The Music Teacher"
571987	"The Musical Ranch"
572175	"The Mystery of Lonely Gulch"
572252	"The Mystery of the Torn Note"
572672	"The Nemesis"
572694	"The Nervous Curate"
572888	"The New Magdalene"
572901	"The New Minister"
572908	"The New Moving Picture Operator"
572922	"The New Partners"
572937	"The New Recruit"
572940	"The New Reporter"
572959	"The New Shawl"
573037	"The Newlyweds"
573160	"The Nichols on Vacation"
573309	"The Night Rustlers"
573418	"The Nine of Diamonds"
573737	"The Oath and the Man"
573748	"The Obami Troup of Acrobats"
574030	"The Old Hat"
574033	"The Old Home"
574050	"The Old Loves and the New"
574054	"The Old Maid and the Burglar"
574060	"The Old Maid's Picnic"
574094	"The Old Miner's Doll"
574123	"The Old Shoe Came Back"
574128	"The Old Soldier"
574173	"The Ole Swimming Hole"
574638	"The Ostrich and the Lady"
574815	"The Other Way"
574868	"The Outcast's Salvation"
574928	"The Outlaw's Redemption"
574931	"The Outlaw's Sacrifice"
575092	"The Padre's Secret"
575182	"The Pale Faced Princess"
575355	"The Park of Sans Souci"
575385	"The Parson's Umbrella"
575487	"The Passing of a Grouch"
575682	"The Pawnshop"
576128	"The Perfectly Formed Woman"
576208	"The Perversity of Fate"
576336	"The Phantom Rider"
576391	"The Phoenix"
576491	"The Pickaninny and the Pup"
576541	"The Picture Thieves"
576554	"The Piece of Lace"
576601	"The Pilgrim"
576882	"The Plans of the Fortress"
576959	"The Playwright's Love"
577041	"The Plumber"
577176	"The Police Force of New York City"
577242	"The Pony Express Rider"
577286	"The Poor Student"
577287	"The Poorluck's First Tiff"
577392	"The Postman"
577581	"The Prairie Post Mistress"
577594	"The Prayer of a Miner's Child"
577610	"The Preacher's Wife"
577675	"The President's Special"
577772	"The Price of Fame"
578030	"The Princess and the Peasant"
578514	"The Proposal"
578549	"The Prospector's Treasure"
578643	"The Pugilist's Child"
578715	"The Purgation"
578889	"The Queen of Hearts"
579317	"The Ranch Girl's Legacy"
579326	"The Ranch King's Daughter"
579329	"The Ranch Raiders"
579340	"The Ranchman and the Miser"
579344	"The Ranchman's Bride"
579348	"The Ranchman's Feud"
579352	"The Ranchman's Personal"
579374	"The Range Riders"
579387	"The Ranger's Bride"
579836	"The Recreation of an Heiress"
579901	"The Red Cross Seal"
579923	"The Red Girl and the Child"
580083	"The Redmen's Persecution"
580148	"The Refuge"
580162	"The Regeneration"
580356	"The Rescue of Molly Finney"
580361	"The Rescue of the Pioneer's Daughter"
580387	"The Rest Cure"
580416	"The Restoration"
580475	"The Return at Midnight"
580699	"The Revolt"
580880	"The Right Decision"
580886	"The Right Girl"
580907	"The Right of Love"
581135	"The Rival Barons"
581142	"The Rival Cooks"
581340	"The Road to Happiness"
581380	"The Road to Richmond"
581538	"The Rocky Road"
581580	"The Roman"
581611	"The Romance of Hefty Burke"
581733	"The Rosary"
581775	"The Rose of the Ranch"
581791	"The Roses of the Virgin"
581997	"The Rummage Sale"
582051	"The Runaway Motor Car"
582148	"The Rustlers"
582172	"The S.S. Mauretania"
582277	"The Sage the Cherub and the Widow"
582425	"The Sand Man's Cure"
582632	"The Scaramouches"
582637	"The Scarecrow"
582750	"The Sceptical Cowboy"
582802	"The Schoolmaster of Mariposa"
582960	"The Sculptor's Dream"
583036	"The Sea Wolves"
583045	"The Seal of the Church"
583681	"The Senator and the Suffragettes"
583687	"The Senator's Double"
583728	"The Sepoy's Wife"
583737	"The Sergeant"
583742	"The Sergeant's Daughter"
583907	"The Sewing Girl"
584162	"The Sharp-Witted Thief"
584251	"The Sheriff"
584259	"The Sheriff and his Son"
584260	"The Sheriff and Miss Jones"
584261	"The Sheriff and the Detective"
584265	"The Sheriff of Black Gulch"
584295	"The Sheriff's Daughter"
584296	"The Sheriff's Daughter"
584297	"The Sheriff's Daughter"
584311	"The Sheriff's Law"
584326	"The Sheriff's Sacrifice"
584383	"The Ship's Husband"
584489	"The Short-Sighted Errand Boy"
584577	"The Shriners' Pilgrimage to New Orleans"
584600	"The Shyness of Shorty"
584795	"The Silent Message"
585262	"The Skipper's Yarn"
585404	"The Sleep Breakers"
585601	"The Smoker"
585635	"The Smuggler's Game"
585723	"The Snorer"
585981	"The Song of the Wildwood Flute"
585988	"The Song That Reached His Heart"
586061	"The Sorrows of the Unfaithful"
586113	"The Soul of Venice"
586228	"The South Before the War"
586642	"The Spitfire"
586808	"The Squaw and the Man"
586842	"The Squire's Romance"
586874	"The Stage Note"
587018	"The Stars and Stripes"
587115	"The Stenographer's Friend; Or What Was Accomplished by an Edison Business Phonograph"
587135	"The Stepmother"
587230	"The Stolen Claim"
587237	"The Stolen Father"
587240	"The Stolen Fortune"
587247	"The Stolen Invention"
587643	"The Stowaway"
587732	"The Stranger"
587857	"The Street Preacher"
587906	"The Stricken Home"
587984	"The Strongest Tie"
588050	"The Stuff That Americans Are Made Of"
588158	"The Suffragette and the Hobble Skirt"
588196	"The Suit Case Mystery"
588423	"The Surprise Party"
588585	"The Swiss Guide"
588745	"The Tale of a Hot Dog"
588801	"The Tale the Mirror Told"
588860	"The Taming of Jane"
589105	"The Telephone"
589109	"The Telephone Call"
589190	"The Temperance Leader"
589215	"The Templars Conclave"
589276	"The Ten of Spades; or A Western Raffle"
589313	"The Tenderfoot Messenger"
589314	"The Tenderfoot Parson"
589323	"The Tenderfoot's Triumph"
589416	"The Terror of the Plains"
589607	"The Thin Dark Line"
589802	"The Thread of Destiny"
589895	"The Three of Them"
590030	"The Tide of Fortune"
590043	"The Tie That Binds"
590044	"The Tie That Binds"
590164	"The Time-Lock Safe"
590448	"The Touch of a Child's Hand"
590496	"The Tout's Remembrance"
590581	"The Toymaker's Dream"
590582	"The Toymaker the Doll and the Devil"
590790	"The Tramp Organist"
590926	"The Treasure Hunters"
591264	"The Troublesome Baby"
591444	"The Truth Will Out"
591511	"The Turn of the Balance"
591523	"The Turn of the Tide"
591661	"The Twisted Trail"
591666	"The Two Artists"
591672	"The Two Brothers"
591693	"The Two Fathers"
591755	"The Two Roses"
591801	"The Tyrant of Florence"
591989	"The Unchanging Sea"
592126	"The Unexpected Honeymoon"
592131	"The Unexpected Reward"
592300	"The Unknown Claim"
592337	"The Unmailed Letter"
592416	"The Unsophisticated Book Agent"
592570	"The Usurer"
592638	"The Valet's Vindication"
592702	"The Vampire"
592996	"The Vicar of Wakefield"
593144	"The Village Inventor"
593409	"The Vixen"
594269	"The Way of the Red Man"
594281	"The Way of the West"
594286	"The Way of the World"
594870	"The White Princess of the Tribe"
595038	"The Widow"
595054	"The Widow of Mill Creek Flat"
595098	"The Wife of Marcus"
595169	"The Wild Flower and the Rose"
595473	"The Winning of Father"
595478	"The Winning of Miss Langdon"
595486	"The Winning Punch"
595524	"The Winter's Tale"
595807	"The Woman from Mellon's"
595817	"The Woman Hater"
595818	"The Woman Hater"
596026	"The Wonderful Wizard of Oz"
596627	"The Writing on the Wall"
596637	"The Wrong Bag"
596675	"The Wrong Man"
596708	"The Wrong Trail"
596776	"The Yankee Girl"
596790	"The Yaqui Girl"
597179	"The £5 Note"
597276	"Their Child"
597426	"Thelma"
597833	"There Little Girl Don't Cry"
599525	"Thou Shalt Not"
599569	"Thoughtfulness Remembered by the Ute"
599849	"Three Hearts"
600235	"Three-Fingered Kate: Her Victim the Banker"
600513	"Through Saskatchewan"
600533	"Through the Clouds"
600539	"Through the Darkness"
600903	"Thunderbolt"
602395	"Tilly the Tomboy Plays Truant"
602396	"Tilly the Tomboy Visits the Poor"
602478	"Tim Writes a Poem"
603017	"Tin Wedding Presents"
605626	"Tokugawa tenichibo"
605781	"Told in the Golden West"
605933	"Tom Huxley's Head"
605973	"Tom Pouce suit une femme"
606063	"Toma de posesión de Porfirio Díaz"
606216	"Tommy Atkins"
606232	"Tommy Gets His Sister Married"
606260	"Tommy's Locomotive"
606581	"Tontolini"
606586	"Tontolini al restaurant"
606587	"Tontolini ama la cuoca"
606588	"Tontolini apache"
606590	"Tontolini bersagliere"
606591	"Tontolini bianco e nero"
606592	"Tontolini boxeur"
606593	"Tontolini cerca danaro"
606597	"Tontolini detective"
606599	"Tontolini e Cocò rivali in amore"
606603	"Tontolini e Lea al servizio"
606612	"Tontolini granatiere"
606619	"Tontolini in visita"
606620	"Tontolini innamorato"
606622	"Tontolini ipnotizzato"
606623	"Tontolini ladro di scarpe"
606626	"Tontolini Nerone"
606627	"Tontolini non ha fortuna in amore"
606634	"Tontolini ruba una bicicletta"
606637	"Tontolini si batte in duello"
606638	"Tontolini soffre l'insonnia"
606639	"Tontolini sposo"
606641	"Tontolini toreador"
606644	"Tontolini vince la lotteria"
606815	"Too Many Admirers"
607587	"Torino"
607589	"Torino artistica"
607716	"Torneo di cannoni"
608215	"Toto devient anarchiste"
608299	"Totò giocoliere"
609193	"Tracce misteriose"
609293	"Tracking a Treacle Tin"
609588	"Trahis"
609664	"Trailed to the Hills"
609721	"Trailing the Black Hand"
610244	"Transfusion"
610624	"Trapped"
611055	"Travetti è rubato"
611361	"Trebbiatura"
612215	"Tried and Found True"
612355	"Trimming of Paradise Gulch"
612729	"Triste eredità"
613074	"Troop 'B' 15th U.S. Cavalry Bareback Squad in the Monkey Drill at Fort Myer Virginia"
613103	"Trop aimée"
613789	"True Western Honor"
614786	"Tuez la mouche!"
615125	"Tunisi e Cartagine"
615510	"Turning of the Worm"
615533	"Turning the Tables"
615534	"Turning the Tables"
616106	"Twelfth Night"
616649	"Twixt Love and Gold"
616694	"Two Beautiful Cracksmen"
616725	"Two Boys in Blue"
617044	"Two Little Waifs"
617060	"Two Lucky Jims"
617067	"Two Men"
617213	"Two Perfect Gents"
617306	"Two Suits"
617374	"Two Waifs and a Stray"
617488	"Two-step"
619956	"Umile eroe"
620089	"Un ammalato d'insonnia"
620098	"Un amore al confine"
620104	"Un amore durante il blocco continentale"
620129	"Un amour de Salvator Rosa"
620194	"Un attimo di follia"
620312	"Un brutto sogno"
620429	"Un chilogrammo di ghiaccio"
620431	"Un chiodo nella serratura"
620515	"Un corpus de sangre"
620554	"Un cross-country original"
620590	"Un debito penoso"
620631	"Un discorso politico interrotto"
620644	"Un domestique improvisé"
620672	"Un drame aux Indes"
620680	"Un drame en wagon"
620687	"Un drame sur une locomotive"
620696	"Un dramma al Messico"
620705	"Un dramma in una fabbrica di films"
620706	"Un dramma in una fattoria"
620803	"Un dîner perdu"
620837	"Un equivoco"
620879	"Un fidanzato indegno"
620961	"Un giorno di vacanza di Lucietta e Tonino"
621058	"Un homme comme il faut"
621079	"Un homme habile"
621110	"Un hôpital pour petits animaux"
621128	"Un invité gênant"
621193	"Un ladro ben ricevuto"
621261	"Un mariage assorti"
621295	"Un matrimonio interplanetario"
621304	"Un mazzo di fiori"
621312	"Un messaggio tra i flutti"
621427	"Un notaio a nozze"
621475	"Un paese destinato a scomparire: San Giorgio Ligure"
621871	"Un tiratore scelto"
621950	"Un vestito alla moda"
621951	"Un vestito di moda"
621957	"Un viaggio gratis"
622020	"Un émoule de Blondin"
622053	"Un'anfora meravigliosa"
622066	"Un'avventura di Tontolini"
622164	"Una birichinata"
622167	"Una bolla di sapone"
622180	"Una buona vincita"
622210	"Una chiamata improvvisa"
622245	"Una corsa ciclistica femminile a Torino"
622335	"Una fabbrica delle lastre di vetro"
622374	"Una giornata a Saint Moritz"
622384	"Una giornata ventosa"
622388	"Una gita al Montenegro"
622594	"Una notte in Arabia"
622599	"Una novella di Boccaccio"
622606	"Una nube"
622655	"Una perla di ragazzo"
622709	"Una scommessa di Tontolini"
622712	"Una scoperta di Tontolini"
622786	"Una tavolozza originale"
622804	"Una tribù araba in Algeria"
622805	"Una tribù araba in Tunisia"
622816	"Una vendetta originale"
622846	"Una vincita al lotto"
623075	"Uncle Jim"
623158	"Uncle Tom's Cabin"
623159	"Uncle Tom's Cabin"
623183	"Uncle's Money"
623188	"Uncle's Present"
623377	"Under a Changing Sky"
623403	"Under Both Flags"
623726	"Under the Stars and Bars"
623727	"Under the Stars and Stripes"
623778	"Under Western Skies"
624121	"Une aventure de la Malibran"
624130	"Une aventure secrète de Marie-Antoinette"
624157	"Une bonne pour monsieur un domestique pour madame"
624305	"Une femme tenace"
624416	"Une jeune fille romanesque"
624468	"Une mauvaise vue"
624551	"Une petite femme bien douce"
624599	"Une ruse de Mari"
624647	"Une séance de cinématographe"
624727	"Une évasion manquée"
624798	"Unexpected Help"
625152	"United States Life Saving Drills"
625158	"United States Submarine 'Salmon'"
625465	"Unlucky Bill"
625599	"Uno sbaglio di Tontolini"
625698	"Unreasonable Jealousy"
626998	"Up a Tree"
627303	"Up the Thames to Westminster"
627387	"Up-to-Date Pickpockets"
627388	"Up-to-Date Servants"
628457	"Utsunomiya tsuritenjo"
628776	"V polnoch na kladbishche"
629413	"Valdemar Sejr"
629622	"Valley Folks"
629767	"Value Beyond Price"
631536	"Vendemmia nei colli albani"
631569	"Vendetta fatale"
631655	"Venezia"
631758	"Vengeance of Millesaunte"
632065	"Vera the Gypsy Girl"
632508	"Verona"
632913	"Vestale"
633516	"Vice Versa"
633660	"Victims of Jealousy"
634522	"Vigilia di nozze"
634901	"Ville e castelli d'Italia"
634911	"Villers les Gambon"
635944	"Visit of American Fleet to France"
636085	"Vistas de Palma de Mallorca"
636143	"Vita d'artista"
636171	"Vita nella putsza"
636235	"Vitellius"
637254	"Voleur d'amour"
638015	"Voyage au centre de la terre"
638868	"Värmländingarna"
638873	"Värmlänningarne"
639444	"Wait Till I Catch You"
639462	"Waiter No. 5"
640738	"Wanted a Bath Chair Attendant"
640766	"Wanted a Mummy"
643580	"Weibliche Assentierung"
643633	"Weihnachtstränen"
644114	"Wem gehört das Kind?"
644543	"Werther"
644753	"Western Chivalry"
644784	"Western Justice"
645206	"What a Dinner!"
645495	"What Great Bear Learned"
645510	"What Happened to Brown"
645537	"What Happened to the Dog's Medicine"
645649	"What Is to Be Will Be"
645826	"What the Daisy Said"
645850	"What the Parrot Saw"
646462	"When Cupid Sleeps"
646545	"When Father Buys the Beer"
646840	"When Lovers Part"
647270	"When the World Sleeps"
647317	"When Uncle Took Clarence for a Walk"
647331	"When We Called the Plumber In"
647340	"When We Were in Our Teens"
647371	"When Woman Wills"
647545	"Where Is Mulcahy?"
647619	"Where Sea and Shore Doth Meet"
647756	"Where the Winds Blow"
648171	"Whist!"
648344	"White Fawn's Devotion: A Play Acted by a Tribe of Red Indians in America"
648563	"White Roses"
649154	"Who's Got My Hat?"
649246	"Who's Who"
649559	"Why He Did Not Win Out"
649606	"Why Jones Reformed"
650461	"Wild Birds in Their Haunts"
651000	"Wilful Peggy"
651003	"Wilful Willie"
651013	"Wilhelm Tell"
651245	"Willie"
651448	"Wilson's Wife's Countenance"
651964	"Winning a Widow"
651973	"Winning Back His Love"
652636	"With Bridges Burned"
653989	"Won by a Hold-Up"
654194	"Wood Carving in the Tyrol"
654792	"World's Championship Series"
657501	"Yagûchi no watashi"
660482	"You Stole My Purse"
660933	"Young Deer's Gratitude"
660934	"Young Deer's Return"
661078	"Young Lord Stanley"
663412	"Zazà"
664378	"Zhizn i smert A.S. Pushkina"
664575	"Zichten in Brugge"
664740	"Zijne Majesteiten de koning en de koningin worden op de Grote Markt begroet door 3000 kinderen"
665064	"Zizi la bouquetière"
667669	"À travers la plaine"
667903	"Âme de traître"
668302	"È il tuo onomastico"
668490	"Éloi veut apprendre à nager"
668824	"Ôishi Kuranosuke ichidaiki"
668877	"Ôtaka Gengo"
