director,title
6415,511133
1929101,115403
1929101,279807
2111892,311339
1930028,115386
1930028,115406
1930028,168810
1930028,191626
1930028,207879
1930028,304351
1930028,352581
1930028,438386
2112149,336666
28566,9079
28566,9418
28566,9428
28566,10282
28566,11045
28566,11367
28566,16315
28566,19088
28566,19634
28566,19651
28566,19654
28566,37492
28566,53143
28566,84343
28566,106315
28566,121162
28566,173362
28566,196298
28566,226521
28566,226522
28566,226523
28566,226524
28566,226525
28566,226526
28566,226529
28566,230071
28566,363121
28566,416733
28566,421636
28566,523413
28566,535446
28566,535452
28566,535455
28566,535706
28566,536266
28566,540137
28566,544214
28566,544455
28566,544493
28566,544514
28566,546652
28566,546764
28566,548483
28566,551167
28566,552433
28566,552734
28566,554386
28566,554698
28566,565367
28566,565518
28566,569337
28566,569553
28566,570275
28566,570610
28566,571060
28566,574638
28566,574931
28566,577242
28566,579317
28566,579348
28566,579387
28566,584326
28566,584795
28566,589313
28566,590496
28566,592300
28566,609664
28566,623778
28566,644753
28566,653989
31630,108872
31630,129524
31630,189070
31630,219445
31630,311453
31630,312871
31630,319516
31630,362723
2112887,606581
2113578,65581
2113578,306062
2113578,323264
51472,8075
51472,14402
51472,16236
51472,16330
51472,18490
51472,47391
51472,49861
51472,86840
51472,179269
51472,203001
51472,245420
51472,368730
51472,376102
51472,439941
51472,547146
51472,553664
51472,558436
51472,563565
51472,569391
51472,633516
51472,645510
53586,190667
53586,305922
57986,129659
61536,8630
61536,8780
61536,9403
61536,9409
61536,9412
61536,9416
61536,9422
61536,9423
61536,11156
61536,12454
61536,14112
61536,14131
61536,14132
61536,14284
61536,16314
61536,16395
61536,16406
61536,16610
61536,17168
61536,17262
61536,17284
61536,18954
61536,18956
61536,19915
61536,37190
61536,37504
61536,37520
61536,73623
61536,85631
61536,88661
61536,112284
61536,121051
61536,124420
61536,155194
61536,155195
61536,197675
61536,197827
61536,197878
61536,198181
61536,213503
61536,218741
61536,229867
61536,234003
61536,237951
61536,261176
61536,291202
61536,340321
61536,341263
61536,341673
61536,355176
61536,385128
61536,424856
61536,451374
61536,453369
61536,453380
61536,453779
61536,453780
61536,453782
61536,460074
61536,462794
61536,462966
61536,474231
61536,532929
61536,539581
61536,544453
61536,545240
61536,550956
61536,551140
61536,551201
61536,552306
61536,554452
61536,554711
61536,560078
61536,560241
61536,567064
61536,568517
61536,569478
61536,570278
61536,570281
61536,572922
61536,573309
61536,577581
61536,577594
61536,579329
61536,579352
61536,580083
61536,580361
61536,581775
61536,583036
61536,584265
61536,589276
61536,590044
61536,596708
61536,613789
61536,644784
61536,660933
61536,660934
2115635,207910
1932902,225732
2115885,189070
2115885,257234
74293,548124
1933668,39677
1933668,636085
77375,260993
77375,534065
77375,547119
77375,586808
77375,617060
77375,623727
1933780,191629
1933780,352583
2117442,249513
2117442,254681
2117442,300533
104295,120978
104295,173484
104295,200301
104295,458269
104295,563597
104295,623158
107802,135743
107802,225731
107802,507020
111220,18176
111220,22987
111220,129648
111220,260662
111220,358420
111220,439002
111220,450386
111220,524543
111220,551755
111220,566139
111220,570147
111220,579374
111220,581580
111220,582802
111220,584251
111220,612355
111220,651245
2120101,220058
2120101,533261
2120101,548907
2120101,553137
2120101,559657
117065,36311
117065,304072
117065,620837
118550,90694
118550,90698
118550,90701
118550,90705
118550,90715
118550,90716
118550,90722
118550,90724
118550,90727
118550,90728
118550,90733
118550,90743
118550,90746
118550,90749
118550,90751
118550,90753
118550,90755
118550,90756
118550,90757
118550,300914
118550,321763
118550,322847
118550,327969
118550,345415
118550,421569
2120498,99728
2120498,140324
2120498,188916
2120498,203744
2120498,300226
2120498,306001
2120498,306071
2120498,306193
2120498,313355
2120498,313789
2120498,322211
2120498,322289
2120498,323399
2120498,324390
2120498,327272
2120498,327922
2120498,445604
2120498,458363
1936753,190615
130798,329128
135401,10251
135401,93073
135401,113651
135401,114417
135401,342046
1938706,259378
159378,51065
159378,154031
159378,190739
159378,298309
159378,300471
159378,301763
159378,309269
159378,311306
159378,313359
159378,321669
159378,462295
159378,467150
165005,199955
165005,200772
165005,205658
165005,234573
165005,300555
165005,300878
165005,302020
165005,302922
165005,305822
165005,307042
165005,308867
165005,310919
165005,313357
165005,313489
165005,314177
165005,320048
165005,323319
165005,323892
165005,324452
165005,327513
165005,436461
165005,440824
165005,447224
165005,503391
165005,609588
165005,620680
167836,486743
167836,507513
171937,142394
171937,298308
171937,298680
171937,300905
171937,302030
171937,303728
171937,307837
171937,308665
171937,309321
171937,309417
171937,310970
171937,314112
171937,321006
171937,321931
171937,322230
171937,323203
171937,324427
171937,329349
171937,517810
171937,668490
174570,35835
174570,36294
174570,41313
174570,41609
174570,55121
174570,62298
174570,96424
174570,174258
174570,213103
174570,213110
174570,302552
174570,304221
174570,343279
174570,353899
174570,362713
174570,371776
174570,438319
1940607,115372
1940607,115380
1940607,115384
1940607,115386
1940607,115412
186950,81332
186950,253603
186950,428302
188746,177797
188746,181528
188746,310290
188746,310989
188746,320204
188746,322198
188746,324164
188746,324494
188746,426136
1942675,170727
1942675,307857
208804,79173
208804,79174
208804,90017
208804,98832
208804,151625
208804,176055
208804,238568
208804,299711
208804,309181
208804,313066
208804,319208
208804,321236
208804,322524
208804,322555
208804,322708
208804,323806
208804,324133
208804,327198
208804,327200
208804,329107
208804,369820
208804,371901
208804,371993
208804,458767
208804,467200
208804,493361
208804,608215
208811,135579
210026,9095
210026,9338
210026,14425
210026,15119
210026,16306
210026,86706
210026,112445
210026,355152
210026,439941
210026,441347
210026,477447
210026,496398
210026,528833
210026,533430
210026,582960
210026,586842
210026,597179
210026,606815
210026,640766
211526,29893
211526,29897
211526,188781
211526,544162
211526,585404
211526,651964
1943075,300519
218457,590581
218560,314806
1943712,457678
2129185,99366
224383,533609
224383,591511
1944627,347612
1945576,8664
1945576,8899
1945576,9742
1945576,37885
1945576,200554
1945576,237866
1945576,364304
1945576,373236
1945576,559331
1945576,564857
1945576,578030
1945576,585988
1945576,587018
255889,305879
255889,431946
255889,638015
256389,109702
258220,85055
258220,94138
258220,102318
258220,199978
258220,212991
258220,213085
258220,214692
258220,256623
258220,301066
258220,311814
258220,324605
258220,336685
258220,385228
258220,451966
258220,451972
258220,472959
258220,634522
1945933,272033
2132095,2752
2132095,68939
2132095,90228
2132095,199541
2132095,272643
2132095,273371
2132095,299699
2132095,299709
2132095,300524
2132095,306005
2132095,311245
2132095,319271
2132095,323334
2132095,324282
2132095,415999
2132095,503725
2132095,521586
2132095,624130
263192,24960
263192,27235
263192,128911
263192,137707
263192,138198
263192,147953
263192,148257
263192,219041
263192,224730
263192,440941
263192,643633
263469,117929
263469,117937
263469,117944
263469,117945
263469,117953
263469,117959
264137,104052
264137,256652
264137,257138
264137,452034
264137,516919
270366,36435
270366,51063
270366,142380
270366,195543
270366,300166
270366,300545
270366,302033
270366,305240
270366,305585
270366,305669
270366,306054
270366,306469
270366,310406
270366,312845
270366,323147
270366,323175
270366,323212
270366,324205
270366,327855
270366,337232
270366,418307
270366,436480
270366,441748
270366,499555
270366,621079
270366,624551
270366,637254
270366,665064
270366,667903
272134,242590
272134,308103
272134,321131
272134,323551
272134,467150
272134,621128
1947319,526589
1948404,261613
1948404,321511
301034,35821
301034,80197
301034,125613
301034,298655
301034,299298
301034,308084
301034,319122
301034,320517
301034,320857
301034,322458
301034,323132
301034,326736
301034,326865
301034,327186
301034,423553
301034,453010
301034,620687
301034,667669
317438,85153
317438,205668
317438,638873
1950473,50937
1950473,130561
1950473,131379
1950473,454717
328225,10022
328225,579344
329220,196945
329220,256649
329220,343654
329220,469959
329220,620129
2139030,50859
2139030,65581
2139030,79081
2139030,89085
2139030,89120
2139030,89135
2139030,109702
2139030,113667
2139030,180736
2139030,274333
2139030,298764
2139030,299493
2139030,299760
2139030,300096
2139030,300123
2139030,300413
2139030,300444
2139030,300525
2139030,301109
2139030,302972
2139030,303751
2139030,304426
2139030,305575
2139030,305823
2139030,306062
2139030,307442
2139030,307938
2139030,308500
2139030,309313
2139030,311686
2139030,313008
2139030,313655
2139030,314034
2139030,319788
2139030,319817
2139030,320864
2139030,320900
2139030,321499
2139030,321635
2139030,321653
2139030,321840
2139030,321872
2139030,321973
2139030,322396
2139030,322495
2139030,322500
2139030,322544
2139030,322617
2139030,323050
2139030,323264
2139030,323629
2139030,323817
2139030,324202
2139030,327118
2139030,328855
2139030,329177
2139030,329275
2139030,329276
2139030,329277
2139030,329278
2139030,329280
2139030,329281
2139030,329282
2139030,345090
2139030,356951
2139030,357506
2139030,365552
2139030,422174
2139030,422178
2139030,426169
2139030,445486
2139030,462393
2139030,620672
346850,7669
346850,10173
346850,10852
346850,14899
346850,15009
346850,15916
346850,129381
346850,184312
346850,194592
346850,230727
346850,260646
346850,265837
346850,355159
346850,355895
346850,375969
346850,375971
346850,414512
346850,425410
346850,482602
346850,528657
346850,540413
346850,541286
346850,550503
346850,550844
346850,557812
346850,565311
346850,565428
346850,570109
346850,572940
346850,577287
346850,582632
346850,584162
346850,584295
346850,584489
346850,587643
346850,589109
346850,602395
346850,602396
346850,625465
346850,649154
1952058,144273
363590,13653
363590,19978
363590,20031
363590,32542
363590,220058
363590,238195
363590,258704
363590,260682
363590,270816
363590,270993
363590,338505
363590,542219
363590,553137
363590,565498
363590,574030
363590,574128
363590,576541
363590,576882
363590,587906
363590,588158
363590,591693
366282,122507
366282,180003
366282,515788
1953723,25068
2091690,29184
372147,533609
2142138,322444
2142138,391170
2142138,391179
1954201,65433
382423,257235
382423,297345
382423,300789
382423,312764
382423,320686
382423,327605
382423,357779
382423,620554
382423,624416
382423,624647
384172,372717
384172,600903
386100,265651
386100,372302
386100,418322
386100,458063
386100,479728
386100,527082
386100,620515
390542,256823
1955177,304135
2144131,138560
2144228,8841
2144228,572937
2144451,19993
2144451,540470
2144451,554465
2144451,559047
2144451,569695
2144451,571976
2144451,572888
2144451,595817
2144451,647270
404451,445348
404451,466406
404451,628776
404451,664378
415746,312355
421283,8799
421283,8826
421283,8835
421283,8852
421283,11019
421283,12830
421283,14176
421283,14458
421283,15730
421283,16501
421283,16623
421283,16819
421283,17995
421283,18004
421283,19187
421283,36731
421283,36960
421283,37741
421283,47310
421283,47439
421283,183316
421283,186050
421283,216664
421283,233492
421283,234002
421283,237973
421283,237985
421283,238160
421283,238324
421283,259722
421283,259913
421283,260392
421283,260991
421283,334666
421283,341139
421283,358068
421283,376996
421283,389430
421283,406918
421283,408348
421283,414479
421283,450242
421283,463948
421283,481813
421283,492690
421283,516811
421283,524513
421283,531177
421283,533277
421283,535752
421283,540011
421283,540838
421283,540945
421283,542933
421283,543936
421283,544346
421283,545529
421283,548465
421283,549445
421283,550317
421283,551669
421283,553310
421283,555220
421283,555383
421283,558866
421283,559404
421283,559876
421283,560009
421283,563233
421283,564602
421283,568396
421283,569336
421283,570195
421283,571137
421283,573037
421283,573737
421283,578715
421283,581538
421283,585601
421283,585981
421283,586061
421283,589323
421283,589802
421283,591661
421283,591672
421283,591989
421283,592570
421283,594286
421283,595807
421283,599525
421283,617044
421283,624798
421283,626998
421283,639462
421283,645826
421283,648563
421283,651000
421283,651973
2092819,24277
2092819,189070
1469668,10741
1469668,19698
1469668,233495
1469668,314806
1469668,376349
1469668,408693
1469668,575682
1469668,583742
1469668,617306
1469668,645649
435725,14633
435725,19649
435725,238310
435725,261111
435725,405233
435725,416704
435725,544499
435725,645495
2147792,19230
2147792,63878
2147792,95689
2147792,109097
2147792,612215
2148403,292357
2148403,445348
2149229,125629
2149229,212927
2149229,299857
2149229,306144
2149229,311145
2149229,311662
464652,174392
464652,629413
1960746,115402
490147,451151
497590,259889
497590,589895
506758,335197
2094788,44253
2094788,125629
2094788,152525
2094788,152526
2094788,152527
2094788,152528
2094788,152529
2094788,152530
2094788,181528
2094788,212927
2094788,280602
2094788,299062
2094788,299429
2094788,299857
2094788,299858
2094788,301983
2094788,305630
2094788,306144
2094788,307394
2094788,310265
2094788,311145
2094788,311662
2094788,312246
2094788,319541
2094788,319780
2094788,321073
2094788,323302
2094788,328929
2094788,340872
2094788,373341
2094788,391116
2094788,624727
1541032,463576
562749,8899
562749,62870
562749,463938
562749,616106
2159890,582051
2160725,144689
594002,349117
2162743,299404
1970635,191628
614721,46502
614721,177966
614721,332026
631849,323905
631849,427963
641398,356499
2166231,174848
641865,111909
641865,272654
641865,306173
641865,327605
641865,327766
641865,354151
641865,357729
641865,357752
641865,357761
641865,371080
641865,447413
641865,620554
1592821,638868
2166727,308917
2166727,427121
2166727,451973
2166727,459028
2166935,402039
1974981,175388
1974981,176234
1974981,176235
1974981,299554
1974981,303513
1974981,303722
1974981,327238
1974981,370241
671747,30100
671747,93169
671747,120902
671747,144177
671747,255165
671747,255197
671747,255720
671747,255754
671747,256865
671747,256866
671747,256883
671747,266891
671747,301415
671747,302377
671747,306350
671747,306568
671747,310455
671747,310693
671747,311418
671747,312355
671747,313246
671747,313418
671747,336666
671747,426080
671747,631569
2169097,471923
2170378,319780
2170520,271557
2170520,276365
2170520,338273
2170520,592996
2170520,595524
693528,8757
693528,10019
693528,15760
693528,431323
693528,535290
693528,540631
693528,562017
693528,600235
693528,640738
693528,645537
2171291,239891
2171362,571295
2171955,287951
2171955,292357
2171955,329503
714350,356
714350,409528
714350,419103
714350,471640
714350,537606
2173384,455731
2173570,255375
2173570,468305
2173748,45922
2173748,94383
2173748,494170
2173748,562658
2174398,8899
2174398,12547
2174398,16120
2174398,18897
2174398,19177
2174398,79589
2174398,206848
2174398,245109
2174398,375551
2174398,531229
2174398,576554
745777,375864
750258,22310
750258,298277
750258,301865
750258,303860
750258,305032
750258,306894
750258,307699
750258,313354
750258,319190
750258,319971
750258,321541
750258,321902
750258,322192
750258,322334
750258,322344
750258,323113
750258,323852
750258,327111
750258,327153
750258,327514
750258,329397
750258,329656
750258,368238
750258,458864
750258,458902
750258,458903
750258,458905
750258,458915
750258,458919
750258,458936
750258,624305
2176554,7909
2176554,18690
2176554,18944
2176554,213496
2176554,233665
2176554,397240
2176554,581997
766240,257064
766240,371981
766240,395044
766240,424383
766240,427305
766240,451556
766240,451557
766240,451558
766240,451559
2177151,616106
774601,107261
774601,564983
775627,14633
775627,15758
775627,16675
775627,18413
775627,60434
775627,81857
775627,121806
775627,260835
775627,342398
775627,413547
775627,470062
775627,575092
775627,583045
775627,623075
775627,623726
775628,43923
775628,192659
775628,206699
775628,223259
775628,248424
775628,300229
775628,320125
775628,324437
775628,328221
775628,329268
775628,490634
775628,621058
798258,357729
798258,357756
798258,357759
798258,357775
798258,357779
798258,357810
798258,357838
798258,357867
798258,357880
798258,624157
799807,342577
800961,107102
800961,366111
800961,621295
801582,157394
801582,188714
801582,419877
801582,561207
802159,322115
1984627,302583
2180726,507513
2180726,532796
2180726,554671
2180726,567196
2180726,595524
2180726,596627
2180726,623159
812823,9150
812823,12938
812823,113132
812823,233693
812823,482219
812823,539639
812823,544404
812823,546066
812823,548779
812823,548840
812823,549427
812823,553439
812823,554714
812823,557867
812823,560266
812823,565587
812823,576208
812823,587732
1985311,174848
1985337,336666
1985744,148383
2183613,178945
2183613,254709
2183613,254920
2183613,256035
2183613,257310
2183613,301685
2183613,304670
2183613,336547
838658,26395
849996,202306
849996,202325
849996,202326
849996,202334
849996,208457
849996,212581
849996,212591
849996,254713
849996,255349
849996,256280
849996,256598
849996,424376
849996,461024
849996,461036
849996,461055
849996,461060
849996,461093
849996,461099
849996,620879
851289,79081
851289,274333
851289,277652
851289,298106
851289,298380
851289,298484
851289,298689
851289,299652
851289,299958
851289,301752
851289,305966
851289,306523
851289,307580
851289,311689
851289,312842
851289,313895
851289,319065
851289,319261
851289,319265
851289,319279
851289,319766
851289,319967
851289,320235
851289,321093
851289,321423
851289,321653
851289,322327
851289,322842
851289,323146
851289,323485
851289,323856
851289,324357
851289,327473
851289,327489
851289,328358
851289,328370
851289,328502
851289,338703
851289,350863
851289,366432
851289,371979
851289,382388
851289,426125
1988352,29550
1988352,60634
1988352,65736
1988352,68970
1988352,78395
1988352,82883
1988352,112104
1988352,118550
1988352,199030
1988352,304284
1988352,365629
1988352,419691
1988352,427128
1988352,454431
1988352,459161
1988352,460024
1988352,470024
1988352,472002
1988352,505240
1988352,607587
1988352,631655
1988352,632508
858557,13152
873245,127308
873245,333931
873245,337205
1989614,19641
1989614,30296
1989614,197846
1989614,238121
1989614,343426
1989614,409528
1989614,419103
1989614,423153
1989614,450710
1989614,466540
1989614,544511
1989614,549426
1989614,550843
1989614,556415
1989614,565763
1989614,587230
1989614,590582
1989614,595478
875070,311306
875070,636235
875070,644543
875807,11704
875807,12830
875807,13606
875807,18004
875807,25614
875807,31342
875807,36731
875807,37741
875807,165047
875807,227256
875807,238160
875807,238486
875807,245248
875807,341681
875807,358068
875807,376993
875807,389430
875807,397029
875807,533277
875807,561956
875807,566735
875807,569485
875807,575487
875807,578514
875807,579836
875807,585601
875807,589323
875807,591264
875807,615533
875807,626998
875807,647340
875807,648563
885904,274926
893087,96682
893087,338216
893087,408796
893087,518456
893087,540438
893087,561211
893087,562030
893087,627387
898911,248208
898911,305620
901409,182548
901409,542863
906419,247112
2189646,50937
2189646,130561
2189646,131379
2189646,454717
907418,516221
2190385,445302
916799,9683
916799,16191
916799,54855
916799,462930
916799,509042
916799,533247
916799,557239
916799,567078
916799,580162
916799,632065
916799,648171
1994289,11872
1994289,155732
1994289,188856
1994289,403977
1994289,434241
940340,249808
940340,255276
940340,256318
2194571,555917
966396,449453
2194728,36274
2194728,36276
2194728,505073
973342,257073
973342,354722
2196559,137544
2196559,325118
2196559,643580
2196625,128097
2196625,148468
2196625,221482
2196625,467067
2196625,644114
987146,588196
1998040,145481
991418,165047
2000462,71877
1029947,10213
1029947,11379
1029947,16457
1029947,16982
1029947,31617
1029947,36012
1029947,62083
1029947,133456
1029947,238300
1029947,238312
1029947,271524
1029947,280584
1029947,374251
1029947,389431
1029947,405136
1029947,407428
1029947,438521
1029947,538398
1029947,540044
1029947,540889
1029947,544025
1029947,544207
1029947,547697
1029947,549680
1029947,555754
1029947,560939
1029947,567280
1029947,570890
1029947,571055
1029947,572901
1029947,572959
1029947,573160
1029947,580886
1029947,580907
1029947,581733
1029947,583687
1029947,586874
1029947,588860
1029947,590030
1029947,590164
1029947,595038
1029947,595486
1029947,610244
1029947,617067
2202912,8845
2202912,12170
2202912,19757
2202912,109343
2202912,202652
2202912,202653
2202912,238017
2202912,238429
2202912,332231
2202912,332232
2202912,332233
2202912,332243
2202912,355834
2202912,355903
2202912,368278
2202912,375534
2202912,403371
2202912,409195
2202912,531344
2202912,540425
2202912,545153
2202912,568807
2202912,572694
2202912,591444
2202912,606260
2202912,639444
2202912,645850
2202912,646545
2202912,647331
1090466,553302
2005675,117976
2005914,191627
2005914,606063
1106371,51560
1106371,159792
1106371,233812
1106371,272739
1106371,272740
1106371,272773
1106371,272774
1106371,272835
1106371,474208
1106371,647756
2207687,425713
1107434,617488
1113448,276327
1113448,280669
1113448,340438
1113448,543535
1113448,544371
1113448,562905
1113448,579374
1113448,594269
1113448,596026
1113448,616725
2007435,21495
1129889,304234
2209843,257216
1134169,90228
1134169,267087
1134169,321026
2009071,46888
2009071,180452
2009071,250054
2009071,251212
2009071,255525
2009071,256435
2009071,300981
2009071,308393
2009071,320170
2009071,320171
2009071,368660
2009071,373861
2009071,387169
2009071,467472
2009071,607589
2009071,615125
2011169,11368
2011169,17224
2011169,17993
2011169,24703
2011169,36967
2011169,233890
2011169,245416
2011169,534289
2011169,541890
2011169,544495
2011169,553582
2011169,554465
2011169,556347
2011169,558924
2011169,567627
2011169,571642
2011169,572175
2011169,574815
2011169,606232
1173977,20134
1178600,235582
1180315,34235
1183102,558465
1184821,11321
1184821,13615
1184821,14583
1184821,16352
1184821,109400
1184821,121066
1184821,277109
1184821,375883
1184821,375884
1184821,375885
1184821,375887
1184821,564093
1184821,568957
1184821,577041
1184821,577392
1184821,609293
1184821,617213
1184821,647317
2215209,13397
2215209,14027
2215209,314823
1205211,8778
1205211,37522
1205211,116796
1205211,560242
1205211,579923
1205211,596790
1205211,623403
1205211,648344
1212134,2752
1212134,108872
1212134,312871
1212134,319516
1212134,496684
